version 1
nodes
0 "ValveBiped.Bip01" -1
1 "ValveBiped.Bip01_Spine" 0
2 "ValveBiped.Bip01_Spine1" 1
3 "ValveBiped.Bip01_Spine2" 2
4 "ValveBiped.Bip01_Spine4" 3
5 "ValveBiped.Bip01_R_Clavicle" 4
6 "ValveBiped.Bip01_R_UpperArm" 5
7 "ValveBiped.Bip01_R_Forearm" 6
8 "ValveBiped.Bip01_R_Hand" 7
9 "ValveBiped.clip" 8
10 "ValveBiped.base" 8
11 "ValveBiped.square" 10
12 "ValveBiped.hammer" 10
13 "ValveBiped.Bip01_L_Clavicle" 4
14 "ValveBiped.Bip01_L_UpperArm" 13
15 "ValveBiped.Bip01_L_Forearm" 14
16 "ValveBiped.Bip01_L_Hand" 15
17 "ValveBiped.Bip01_L_Finger4" 16
18 "ValveBiped.Bip01_L_Finger41" 17
19 "ValveBiped.Bip01_L_Finger42" 18
20 "ValveBiped.Bip01_L_Finger3" 16
21 "ValveBiped.Bip01_L_Finger31" 20
22 "ValveBiped.Bip01_L_Finger32" 21
23 "ValveBiped.Bip01_L_Finger2" 16
24 "ValveBiped.Bip01_L_Finger21" 23
25 "ValveBiped.Bip01_L_Finger22" 24
26 "ValveBiped.Bip01_L_Finger1" 16
27 "ValveBiped.Bip01_L_Finger11" 26
28 "ValveBiped.Bip01_L_Finger12" 27
29 "ValveBiped.Bip01_L_Finger0" 16
30 "ValveBiped.Bip01_L_Finger01" 29
31 "ValveBiped.Bip01_L_Finger02" 30
32 "ValveBiped.Bip01_R_Finger1" 8
33 "ValveBiped.Bip01_R_Finger11" 32
34 "ValveBiped.Bip01_R_Finger12" 33
35 "ValveBiped.Bip01_R_Finger0" 8
36 "ValveBiped.Bip01_R_Finger01" 35
37 "ValveBiped.Bip01_R_Finger02" 36
end
skeleton
time 0
0 -3.000005 0.466385 38.066917 1.570796 -0.000000 0.000000
1 0.000005 3.345128 -2.981901 1.570796 0.086293 1.570796
2 4.018331 0.000000 0.000000 0.000000 -0.000000 -0.029242
3 3.518565 0.000000 0.000000 0.000000 -0.000000 0.100336
4 8.942642 0.000000 0.000000 0.000000 -0.000000 0.194096
5 2.033353 1.000771 -1.937610 -1.668475 1.286518 2.942953
6 6.028143 0.000000 0.000000 1.601036 1.378000 -1.538084
7 11.692554 0.000002 0.000000 0.000000 -0.000000 -0.324207
8 11.481700 0.000000 0.000001 -1.839859 0.008433 0.043619
9 3.820737 -1.409994 -0.589411 -1.564198 -0.011689 -1.581440
10 6.114873 -1.450001 -1.922836 -1.564198 -0.011689 -1.581440
11 0.000000 1.607459 -0.020759 0.000000 -0.000000 0.000000
12 0.000000 1.225113 -3.954164 0.000000 -0.000000 0.000000
13 2.033347 1.000756 1.937668 1.596631 -1.286512 2.942961
14 6.028134 0.000024 0.000005 -1.578695 -0.408152 -1.282406
15 11.692546 -0.000081 0.000004 0.000000 -0.000001 -1.224259
16 11.481669 0.000005 -0.000035 1.573174 -0.028070 0.044384
17 3.859709 -0.142395 -1.191959 -0.476789 0.134335 -0.965124
18 1.312562 0.000001 0.000014 0.000002 0.000003 -0.279215
19 0.729363 0.000000 0.000009 -0.000015 -0.000031 -0.096880
20 3.942327 0.046783 -0.431428 -0.145068 0.087445 -0.741650
21 1.539092 -0.000005 0.000029 0.000007 0.000007 -0.309344
22 1.196323 0.000001 0.000029 -0.000002 -0.000043 -0.521230
23 3.883685 -0.046755 0.431458 0.085901 0.021826 -0.587865
24 1.719575 0.000003 0.000007 0.000008 0.005538 -0.366477
25 1.209182 0.000000 0.000026 -0.000006 0.003042 -0.216399
26 3.859854 -0.137930 1.332481 0.354455 -0.042744 -0.531708
27 1.719431 -0.000007 0.000024 0.000005 0.004078 -0.363011
28 1.099663 -0.000002 0.000024 -0.000006 0.002570 -0.244332
29 0.806041 -0.348914 1.321264 -1.166380 -0.626635 -0.921966
30 1.789784 0.000014 -0.000008 -0.000001 0.000005 0.189110
31 1.206999 0.000005 -0.000002 0.000000 0.000005 0.306022
32 3.859822 -0.148920 -1.331315 0.312009 0.182835 -0.129867
33 1.719429 0.000000 0.000003 -0.353434 -0.000015 -0.382230
34 1.099665 0.000000 -0.000014 -0.000004 -0.000021 -1.315813
35 0.806011 -0.359829 -1.318343 1.349686 0.343499 -0.771448
36 1.789790 -0.000013 0.000006 -0.000003 0.000003 0.397494
37 1.207003 0.000003 0.000008 -0.000006 -0.000007 0.989039
end
triangles
v_pistol_sheet.bmp
10 -9.270831 -21.671091 58.513954 -0.819693 0.276962 -0.501393 0.881836 0.497556
10 -8.950831 -21.611090 58.023952 -0.559160 0.352578 -0.750353 0.891602 0.447703
10 -9.270832 -22.721090 57.933952 -0.801840 0.336029 -0.494102 0.770508 0.433040
v_pistol_sheet.bmp
10 -9.270832 -22.721090 57.933952 -0.801840 0.336029 -0.494102 0.770508 0.433040
10 -8.950831 -21.611090 58.023952 -0.559160 0.352578 -0.750353 0.891602 0.447703
10 -8.940832 -22.301090 57.713951 -0.532175 0.464281 -0.707978 0.815430 0.412512
v_pistol_sheet.bmp
10 -8.950831 -21.611090 58.023952 -0.559160 0.352578 -0.750353 0.891602 0.447703
10 -8.300832 -21.611092 58.063953 0.480051 0.344334 -0.806837 0.891602 0.452590
10 -8.940832 -22.301090 57.713951 -0.532175 0.464281 -0.707978 0.815430 0.412512
v_pistol_sheet.bmp
10 -8.940832 -22.301090 57.713951 -0.532175 0.464281 -0.707978 0.815430 0.412512
10 -8.300832 -21.611092 58.063953 0.480051 0.344334 -0.806837 0.891602 0.452590
10 -8.440832 -22.301090 57.713951 0.632521 0.503490 -0.588570 0.815430 0.412512
v_pistol_sheet.bmp
10 -8.300832 -21.611092 58.063953 0.480051 0.344334 -0.806837 0.891602 0.452590
10 -8.150832 -22.721090 57.923950 0.944569 0.197284 -0.262427 0.770508 0.433040
10 -8.440832 -22.301090 57.713951 0.632521 0.503490 -0.588570 0.815430 0.412512
v_pistol_sheet.bmp
10 -8.440832 -22.301090 57.713951 0.632521 0.503490 -0.588570 0.815430 0.412512
10 -8.150832 -22.721090 57.923950 0.944569 0.197284 -0.262427 0.770508 0.433040
10 -8.140833 -22.801090 57.483952 0.937430 0.346579 -0.033280 0.754883 0.382209
v_pistol_sheet.bmp
10 -8.150832 -22.721090 57.923950 0.944569 0.197284 -0.262427 0.770508 0.433040
10 -8.070832 -24.801090 58.573948 0.998337 0.012421 -0.056287 0.532227 0.502444
10 -8.140833 -22.801090 57.483952 0.937430 0.346579 -0.033280 0.754883 0.382209
v_pistol_sheet.bmp
10 -8.140833 -22.801090 57.483952 0.937430 0.346579 -0.033280 0.754883 0.382209
10 -8.070832 -24.801090 58.573948 0.998337 0.012421 -0.056287 0.532227 0.502444
10 -8.140834 -24.281090 57.333950 0.944955 -0.299239 -0.132348 0.587891 0.362659
v_pistol_sheet.bmp
10 -8.070832 -24.801090 58.573948 0.998337 0.012421 -0.056287 0.532227 0.502444
10 -8.110833 -24.811089 57.843948 0.792905 -0.559401 -0.241603 0.532227 0.427175
10 -8.140834 -24.281090 57.333950 0.944955 -0.299239 -0.132348 0.587891 0.362659
v_pistol_sheet.bmp
10 -8.140834 -24.281090 57.333950 0.944955 -0.299239 -0.132348 0.587891 0.362659
10 -8.110833 -24.811089 57.843948 0.792905 -0.559401 -0.241603 0.532227 0.427175
10 -8.440835 -24.581089 56.933949 0.734870 -0.530439 -0.422612 0.557617 0.317693
v_pistol_sheet.bmp
10 -8.110833 -24.811089 57.843948 0.792905 -0.559401 -0.241603 0.532227 0.427175
10 -8.440835 -24.821089 57.063950 0.711332 -0.536937 -0.453547 0.532227 0.332356
10 -8.440835 -24.581089 56.933949 0.734870 -0.530439 -0.422612 0.557617 0.317693
v_pistol_sheet.bmp
10 -8.440835 -24.581089 56.933949 0.734870 -0.530439 -0.422612 0.557617 0.317693
10 -8.440835 -24.821089 57.063950 0.711332 -0.536937 -0.453547 0.532227 0.332356
10 -8.600835 -24.881088 56.953949 0.616559 -0.374985 -0.692273 0.526367 0.322581
v_pistol_sheet.bmp
12 -8.750831 -22.136929 58.829063 0.000000 -0.267640 0.963519 0.060547 0.612903
12 -8.640830 -22.136929 58.829063 0.628559 -0.339048 0.699972 0.095703 0.593353
12 -8.750831 -21.956928 58.879063 -0.263948 -0.404523 0.875610 0.121094 0.638319
v_pistol_sheet.bmp
12 -8.750831 -21.956928 58.879063 -0.263948 -0.404523 0.875610 0.121094 0.638319
12 -8.640830 -22.136929 58.829063 0.628559 -0.339048 0.699972 0.095703 0.593353
12 -8.750830 -21.326929 59.329063 0.249024 -0.216171 0.944064 0.232422 0.718475
v_pistol_sheet.bmp
12 -8.640830 -22.136929 58.829063 0.628559 -0.339048 0.699972 0.095703 0.593353
12 -8.610829 -21.256929 59.229065 0.838388 0.019375 0.544730 0.243164 0.652981
12 -8.750830 -21.326929 59.329063 0.249024 -0.216171 0.944064 0.232422 0.718475
v_pistol_sheet.bmp
12 -8.750830 -21.326929 59.329063 0.249024 -0.216171 0.944064 0.232422 0.718475
12 -8.610829 -21.256929 59.229065 0.838388 0.019375 0.544730 0.243164 0.652981
12 -8.790830 -21.066929 59.249065 0.020201 0.414782 0.909697 0.324219 0.708700
v_pistol_sheet.bmp
12 -8.610829 -21.256929 59.229065 0.838388 0.019375 0.544730 0.243164 0.652981
12 -8.660830 -20.896929 59.199066 0.283232 0.749257 0.598660 0.344727 0.668622
12 -8.790830 -21.066929 59.249065 0.020201 0.414782 0.909697 0.324219 0.708700
v_pistol_sheet.bmp
12 -8.790830 -21.066929 59.249065 0.020201 0.414782 0.909697 0.324219 0.708700
12 -8.660830 -20.896929 59.199066 0.283232 0.749257 0.598660 0.344727 0.668622
12 -8.770829 -20.916929 59.089066 -0.434046 0.848459 -0.302857 0.353516 0.633431
v_pistol_sheet.bmp
12 -8.660830 -20.896929 59.199066 0.283232 0.749257 0.598660 0.344727 0.668622
12 -8.570829 -20.986929 58.959064 0.581227 0.464078 -0.668436 0.288086 0.612903
12 -8.770829 -20.916929 59.089066 -0.434046 0.848459 -0.302857 0.353516 0.633431
v_pistol_sheet.bmp
12 -8.770829 -20.916929 59.089066 -0.434046 0.848459 -0.302857 0.353516 0.633431
12 -8.570829 -20.986929 58.959064 0.581227 0.464078 -0.668436 0.288086 0.612903
12 -8.740830 -21.336927 58.939064 -0.158194 0.266116 -0.950872 0.243164 0.563050
v_pistol_sheet.bmp
12 -8.570829 -20.986929 58.959064 0.581227 0.464078 -0.668436 0.288086 0.612903
12 -8.620830 -21.336927 58.939064 0.847092 0.085204 -0.524572 0.232422 0.608016
12 -8.740830 -21.336927 58.939064 -0.158194 0.266116 -0.950872 0.243164 0.563050
v_pistol_sheet.bmp
12 -8.740830 -21.336927 58.939064 -0.158194 0.266116 -0.950872 0.243164 0.563050
12 -8.620830 -21.336927 58.939064 0.847092 0.085204 -0.524572 0.232422 0.608016
12 -8.620831 -21.886929 58.669064 0.734356 0.299112 -0.609306 0.141602 0.558162
v_pistol_sheet.bmp
12 -8.620830 -21.336927 58.939064 0.847092 0.085204 -0.524572 0.232422 0.608016
12 -8.640830 -22.136929 58.829063 0.628559 -0.339048 0.699972 0.095703 0.593353
12 -8.620831 -21.886929 58.669064 0.734356 0.299112 -0.609306 0.141602 0.558162
v_pistol_sheet.bmp
10 -9.280833 -29.901089 59.763943 -0.166272 0.707107 0.687280 0.394531 0.487781
10 -8.660832 -29.901091 59.913940 0.017072 0.459200 0.888169 0.349609 0.487781
10 -9.370833 -29.901089 59.523941 0.000001 1.000000 0.000001 0.400391 0.473118
v_pistol_sheet.bmp
10 -9.370833 -29.901089 59.523941 0.000001 1.000000 0.000001 0.400391 0.473118
10 -8.660832 -29.901091 59.913940 0.017072 0.459200 0.888169 0.349609 0.487781
10 -8.130833 -29.901091 59.763939 0.487799 0.770139 0.411020 0.308594 0.473118
v_pistol_sheet.bmp
10 -8.660832 -29.901091 59.913940 0.017072 0.459200 0.888169 0.349609 0.487781
10 -8.130834 -31.451090 59.763939 0.764725 -0.000000 0.644357 0.252930 0.518084
10 -8.130833 -29.901091 59.763939 0.487799 0.770139 0.411020 0.308594 0.473118
v_pistol_sheet.bmp
10 -8.130833 -29.901091 59.763939 0.487799 0.770139 0.411020 0.308594 0.473118
10 -8.130834 -31.451090 59.763939 0.764725 -0.000000 0.644357 0.252930 0.518084
10 -8.020835 -29.901089 58.723942 0.892777 0.449419 0.031157 0.298828 0.392962
v_pistol_sheet.bmp
10 -8.130834 -31.451090 59.763939 0.764725 -0.000000 0.644357 0.252930 0.518084
10 -8.020835 -31.381088 58.723938 0.993324 -0.095481 -0.064733 0.243164 0.433040
10 -8.020835 -29.901089 58.723942 0.892777 0.449419 0.031157 0.298828 0.392962
v_pistol_sheet.bmp
10 -8.020835 -29.901089 58.723942 0.892777 0.449419 0.031157 0.298828 0.392962
10 -8.020835 -31.381088 58.723938 0.993324 -0.095481 -0.064733 0.243164 0.433040
10 -8.020835 -30.751089 58.643940 0.998937 0.002346 -0.046034 0.268555 0.412512
v_pistol_sheet.bmp
10 -8.020835 -31.381088 58.723938 0.993324 -0.095481 -0.064733 0.243164 0.433040
10 -8.020835 -31.111088 58.643940 0.998137 -0.006072 -0.060713 0.257813 0.422287
10 -8.020835 -30.751089 58.643940 0.998937 0.002346 -0.046034 0.268555 0.412512
v_pistol_sheet.bmp
10 -8.020835 -30.751089 58.643940 0.998937 0.002346 -0.046034 0.268555 0.412512
10 -8.020835 -31.111088 58.643940 0.998137 -0.006072 -0.060713 0.257813 0.422287
10 -8.070836 -30.711088 58.023941 0.982021 -0.000000 -0.188773 0.273438 0.362659
v_pistol_sheet.bmp
10 -8.020835 -31.111088 58.643940 0.998137 -0.006072 -0.060713 0.257813 0.422287
10 -8.070836 -30.871088 58.023941 0.955132 -0.000000 -0.296180 0.262695 0.367546
10 -8.070836 -30.711088 58.023941 0.982021 -0.000000 -0.188773 0.273438 0.362659
v_pistol_sheet.bmp
10 -8.070836 -30.711088 58.023941 0.982021 -0.000000 -0.188773 0.273438 0.362659
10 -8.070836 -30.871088 58.023941 0.955132 -0.000000 -0.296180 0.262695 0.367546
10 -8.170836 -30.541088 57.793941 0.917069 -0.000000 -0.398728 0.283203 0.347019
v_pistol_sheet.bmp
10 -8.070836 -30.871088 58.023941 0.955132 -0.000000 -0.296180 0.262695 0.367546
10 -8.170836 -30.701086 57.793941 0.917069 -0.000000 -0.398728 0.278320 0.347019
10 -8.170836 -30.541088 57.793941 0.917069 -0.000000 -0.398728 0.283203 0.347019
v_pistol_sheet.bmp
10 -8.440835 -24.821089 57.063950 0.870697 0.060105 -0.488134 0.151367 0.508309
10 -8.470835 -25.361088 56.943947 0.861952 0.002180 -0.506985 0.116211 0.508309
10 -8.600835 -24.881088 56.953949 0.206363 0.030281 -0.978007 0.162109 0.492669
v_pistol_sheet.bmp
10 -8.600835 -24.881088 56.953949 0.206363 0.030281 -0.978007 0.162109 0.492669
10 -8.470835 -25.361088 56.943947 0.861952 0.002180 -0.506985 0.116211 0.508309
10 -8.600836 -26.751087 56.903946 0.622909 -0.074679 -0.778722 0.040039 0.542522
v_pistol_sheet.bmp
10 -8.470835 -25.361088 56.943947 0.861952 0.002180 -0.506985 0.116211 0.508309
10 -8.470836 -26.331087 57.013947 0.864018 -0.081043 0.496894 0.055664 0.542522
10 -8.600836 -26.751087 56.903946 0.622909 -0.074679 -0.778722 0.040039 0.542522
v_pistol_sheet.bmp
10 -8.600836 -26.751087 56.903946 0.622909 -0.074679 -0.778722 0.040039 0.542522
10 -8.470836 -26.331087 57.013947 0.864018 -0.081043 0.496894 0.055664 0.542522
10 -8.590836 -27.101088 57.083946 0.993764 0.048042 0.100622 0.019531 0.572825
v_pistol_sheet.bmp
10 -8.470836 -26.331087 57.013947 0.864018 -0.081043 0.496894 0.055664 0.542522
10 -8.960835 -26.671087 57.063946 0.289723 0.479180 0.828521 0.081055 0.563050
10 -8.590836 -27.101088 57.083946 0.993764 0.048042 0.100622 0.019531 0.572825
v_pistol_sheet.bmp
10 -8.590836 -27.101088 57.083946 0.993764 0.048042 0.100622 0.019531 0.572825
10 -8.960835 -26.671087 57.063946 0.289723 0.479180 0.828521 0.081055 0.563050
10 -8.440835 -27.131088 57.783943 0.757473 0.609753 -0.233314 0.004883 0.658847
v_pistol_sheet.bmp
10 -8.960835 -26.671087 57.063946 0.289723 0.479180 0.828521 0.081055 0.563050
10 -8.940835 -27.081087 57.613945 -0.121393 0.992318 -0.023863 0.055664 0.648094
10 -8.440835 -27.131088 57.783943 0.757473 0.609753 -0.233314 0.004883 0.658847
v_pistol_sheet.bmp
10 -8.440835 -27.131088 57.783943 0.757473 0.609753 -0.233314 0.004883 0.658847
10 -8.940835 -27.081087 57.613945 -0.121393 0.992318 -0.023863 0.055664 0.648094
10 -8.670835 -26.971088 57.783947 -0.092084 0.896332 -0.433717 0.040039 0.663734
v_pistol_sheet.bmp
10 -8.940835 -27.081087 57.613945 -0.121393 0.992318 -0.023863 0.055664 0.648094
10 -8.970835 -27.131088 57.783947 -0.463427 0.868926 0.173790 0.055664 0.668622
10 -8.670835 -26.971088 57.783947 -0.092084 0.896332 -0.433717 0.040039 0.663734
v_pistol_sheet.bmp
11 -9.060832 -25.610331 59.331409 0.831813 -0.554547 -0.023769 0.324219 0.924731
11 -9.070831 -25.640331 59.681408 0.680874 -0.202286 0.703911 0.324219 0.969697
11 -9.100832 -25.670330 59.331409 0.984257 -0.172533 -0.038349 0.319336 0.929619
v_pistol_sheet.bmp
11 -9.100832 -25.670330 59.331409 0.984257 -0.172533 -0.038349 0.319336 0.929619
11 -9.070831 -25.640331 59.681408 0.680874 -0.202286 0.703911 0.324219 0.969697
11 -9.060832 -26.510330 59.681408 0.570760 0.137571 0.809510 0.222656 0.964809
v_pistol_sheet.bmp
11 -9.070831 -25.640331 59.681408 0.680874 -0.202286 0.703911 0.324219 0.969697
11 -9.210832 -26.560331 59.681408 -0.051597 0.010278 0.998615 0.217773 0.984360
11 -9.060832 -26.510330 59.681408 0.570760 0.137571 0.809510 0.222656 0.964809
v_pistol_sheet.bmp
11 -9.060832 -26.510330 59.681408 0.570760 0.137571 0.809510 0.222656 0.964809
11 -9.210832 -26.560331 59.681408 -0.051597 0.010278 0.998615 0.217773 0.984360
11 -8.210832 -26.560331 59.691406 0.103888 0.051788 0.993240 0.202148 0.864125
v_pistol_sheet.bmp
11 -9.210832 -26.560331 59.681408 -0.051597 0.010278 0.998615 0.217773 0.984360
11 -8.420834 -29.850330 59.801403 0.257718 0.004804 0.966208 0.005208 0.899316
11 -8.210832 -26.560331 59.691406 0.103888 0.051788 0.993240 0.202148 0.864125
v_pistol_sheet.bmp
11 -8.210832 -26.560331 59.691406 0.103888 0.051788 0.993240 0.202148 0.864125
11 -8.420834 -29.850330 59.801403 0.257718 0.004804 0.966208 0.005208 0.899316
11 -8.130832 -26.550331 59.631405 0.874247 -0.015640 0.485230 0.222656 0.849462
v_pistol_sheet.bmp
11 -8.420834 -29.850330 59.801403 0.257718 0.004804 0.966208 0.005208 0.899316
11 -8.150833 -29.850330 59.631401 0.934637 -0.002517 0.355594 0.005208 0.854350
11 -8.130832 -26.550331 59.631405 0.874247 -0.015640 0.485230 0.222656 0.849462
v_pistol_sheet.bmp
11 -8.130832 -26.550331 59.631405 0.874247 -0.015640 0.485230 0.222656 0.849462
11 -8.150833 -29.850330 59.631401 0.934637 -0.002517 0.355594 0.005208 0.854350
11 -8.080833 -25.820330 58.551407 0.963544 -0.002772 -0.267537 0.309896 0.750401
v_pistol_sheet.bmp
11 -8.150833 -29.850330 59.631401 0.934637 -0.002517 0.355594 0.005208 0.854350
11 -8.070835 -29.850328 58.551403 0.997265 0.002474 0.073870 0.020833 0.755288
11 -8.080833 -25.820330 58.551407 0.963544 -0.002772 -0.267537 0.309896 0.750401
v_pistol_sheet.bmp
9 -8.210838 -23.935503 54.155327 0.531690 -0.237817 0.812864 0.430664 0.417400
9 -8.190838 -22.195503 53.805328 0.697911 0.637119 0.327110 0.506836 0.397849
9 -8.390838 -22.275503 54.155327 0.670891 0.383557 0.634657 0.500977 0.417400
v_pistol_sheet.bmp
9 -8.390838 -22.275503 54.155327 0.670891 0.383557 0.634657 0.500977 0.417400
9 -8.190838 -22.195503 53.805328 0.697911 0.637119 0.327110 0.506836 0.397849
9 -9.160837 -22.275503 54.155327 0.063466 0.684925 0.725844 0.500977 0.417400
v_pistol_sheet.bmp
9 -8.190838 -22.195503 53.805328 0.697911 0.637119 0.327110 0.506836 0.397849
9 -9.350838 -22.235502 54.155331 0.076994 0.281805 0.956378 0.506836 0.417400
9 -9.160837 -22.275503 54.155327 0.063466 0.684925 0.725844 0.500977 0.417400
v_pistol_sheet.bmp
9 -9.160837 -22.275503 54.155327 0.063466 0.684925 0.725844 0.500977 0.417400
9 -9.350838 -22.235502 54.155331 0.076994 0.281805 0.956378 0.506836 0.417400
9 -9.170838 -23.685503 54.155327 0.016572 0.015382 0.999744 0.440430 0.417400
v_pistol_sheet.bmp
9 -9.350838 -22.235502 54.155331 0.076994 0.281805 0.956378 0.506836 0.417400
9 -9.340838 -23.935503 54.165325 0.017325 -0.195827 0.980485 0.430664 0.417400
9 -9.170838 -23.685503 54.155327 0.016572 0.015382 0.999744 0.440430 0.417400
v_pistol_sheet.bmp
9 -9.170838 -23.685503 54.155327 0.016572 0.015382 0.999744 0.440430 0.417400
9 -9.340838 -23.935503 54.165325 0.017325 -0.195827 0.980485 0.430664 0.417400
9 -8.400838 -23.685503 54.155327 0.550910 0.014064 0.834446 0.440430 0.417400
v_pistol_sheet.bmp
9 -9.340838 -23.935503 54.165325 0.017325 -0.195827 0.980485 0.430664 0.417400
9 -8.210838 -23.935503 54.155327 0.531690 -0.237817 0.812864 0.430664 0.417400
9 -8.400838 -23.685503 54.155327 0.550910 0.014064 0.834446 0.440430 0.417400
v_pistol_sheet.bmp
9 -8.400838 -23.685503 54.155327 0.550910 0.014064 0.834446 0.440430 0.417400
9 -8.210838 -23.935503 54.155327 0.531690 -0.237817 0.812864 0.430664 0.417400
9 -8.390838 -22.275503 54.155327 0.670891 0.383557 0.634657 0.500977 0.417400
v_pistol_sheet.bmp
11 -8.650833 -29.590330 59.761402 0.999462 -0.001291 0.032764 0.795898 0.739003
11 -8.660832 -29.210331 60.081402 0.830866 0.166749 0.530901 0.856445 0.788856
11 -8.660833 -29.590330 59.941402 0.999563 -0.010221 0.027736 0.795898 0.768328
v_pistol_sheet.bmp
11 -8.660833 -29.590330 59.941402 0.999563 -0.010221 0.027736 0.795898 0.768328
11 -8.660832 -29.210331 60.081402 0.830866 0.166749 0.530901 0.856445 0.788856
11 -8.660832 -29.560329 60.021400 0.707109 -0.500020 0.499978 0.800781 0.779081
v_pistol_sheet.bmp
11 -8.660832 -29.210331 60.081402 0.830866 0.166749 0.530901 0.856445 0.788856
11 -8.660832 -29.510330 60.071404 0.473488 -0.350591 0.808019 0.805664 0.788856
11 -8.660832 -29.560329 60.021400 0.707109 -0.500020 0.499978 0.800781 0.779081
v_pistol_sheet.bmp
11 -8.660832 -29.560329 60.021400 0.707109 -0.500020 0.499978 0.800781 0.779081
11 -8.660832 -29.510330 60.071404 0.473488 -0.350591 0.808019 0.805664 0.788856
11 -8.730833 -29.510330 60.071404 0.000000 -0.398037 0.917369 0.821289 0.808407
v_pistol_sheet.bmp
11 -8.660832 -29.510330 60.071404 0.473488 -0.350591 0.808019 0.805664 0.788856
11 -8.660832 -29.210331 60.081402 0.830866 0.166749 0.530901 0.856445 0.788856
11 -8.730833 -29.510330 60.071404 0.000000 -0.398037 0.917369 0.821289 0.808407
v_pistol_sheet.bmp
11 -8.730833 -29.510330 60.071404 0.000000 -0.398037 0.917369 0.821289 0.808407
11 -8.660832 -29.210331 60.081402 0.830866 0.166749 0.530901 0.856445 0.788856
11 -8.710833 -29.210331 60.081402 0.000000 0.653591 0.756848 0.885742 0.815243
v_pistol_sheet.bmp
11 -8.660832 -29.210331 60.081402 0.830866 0.166749 0.530901 0.856445 0.788856
11 -8.660833 -29.030331 59.761402 0.443501 0.781171 0.439408 0.881836 0.739003
11 -8.710833 -29.210331 60.081402 0.000000 0.653591 0.756848 0.885742 0.815243
v_pistol_sheet.bmp
11 -8.710833 -29.210331 60.081402 0.000000 0.653591 0.756848 0.885742 0.815243
11 -8.660833 -29.030331 59.761402 0.443501 0.781171 0.439408 0.881836 0.739003
11 -8.710833 -29.030331 59.761402 0.000000 0.871575 0.490262 0.912109 0.758553
v_pistol_sheet.bmp
10 -8.160833 -26.731091 58.703945 0.855578 0.076469 0.511995 0.532227 0.292278
10 -8.090834 -27.241089 58.403946 0.973766 0.224612 -0.036462 0.496094 0.261975
10 -8.260835 -26.731089 57.863945 0.738698 0.106082 -0.665637 0.532227 0.212121
v_pistol_sheet.bmp
10 -8.260835 -26.731089 57.863945 0.738698 0.106082 -0.665637 0.532227 0.212121
10 -8.090834 -27.241089 58.403946 0.973766 0.224612 -0.036462 0.496094 0.261975
10 -8.180834 -27.241089 58.173943 0.903242 0.300537 -0.306318 0.496094 0.242424
v_pistol_sheet.bmp
10 -8.090834 -27.241089 58.403946 0.973766 0.224612 -0.036462 0.496094 0.261975
10 -8.110836 -31.081087 58.283939 0.989881 0.000132 -0.141900 0.273438 0.257087
10 -8.180834 -27.241089 58.173943 0.903242 0.300537 -0.306318 0.496094 0.242424
v_pistol_sheet.bmp
10 -8.180834 -27.241089 58.173943 0.903242 0.300537 -0.306318 0.496094 0.242424
10 -8.110836 -31.081087 58.283939 0.989881 0.000132 -0.141900 0.273438 0.257087
10 -8.260835 -26.731089 57.863945 0.738698 0.106082 -0.665637 0.532227 0.212121
v_pistol_sheet.bmp
10 -8.110836 -31.081087 58.283939 0.989881 0.000132 -0.141900 0.273438 0.257087
10 -8.260836 -30.891087 57.863941 0.308510 -0.014623 -0.951109 0.278320 0.212121
10 -8.260835 -26.731089 57.863945 0.738698 0.106082 -0.665637 0.532227 0.212121
v_pistol_sheet.bmp
10 -8.260835 -26.731089 57.863945 0.738698 0.106082 -0.665637 0.532227 0.212121
10 -8.260836 -30.891087 57.863941 0.308510 -0.014623 -0.951109 0.278320 0.212121
10 -8.440835 -27.131088 57.783943 0.186519 0.044204 -0.981456 0.506836 0.201369
v_pistol_sheet.bmp
10 -8.260836 -30.891087 57.863941 0.308510 -0.014623 -0.951109 0.278320 0.212121
10 -8.580834 -27.421087 57.783943 0.015114 -0.021652 -0.999651 0.486328 0.201369
10 -8.440835 -27.131088 57.783943 0.186519 0.044204 -0.981456 0.506836 0.201369
v_pistol_sheet.bmp
10 -8.040834 -29.901089 58.443939 0.744166 0.500382 0.442531 0.298828 0.372434
10 -9.370833 -29.901089 59.523941 0.000001 1.000000 0.000001 0.400391 0.473118
10 -8.020835 -29.901089 58.723942 0.892777 0.449419 0.031157 0.298828 0.392962
v_pistol_sheet.bmp
10 -8.040834 -29.901089 58.443939 0.744166 0.500382 0.442531 0.298828 0.372434
10 -9.380835 -29.901089 58.443943 0.000001 0.894427 0.447214 0.400391 0.387097
10 -9.370833 -29.901089 59.523941 0.000001 1.000000 0.000001 0.400391 0.473118
v_pistol_sheet.bmp
10 -8.040834 -29.901089 58.443939 0.744166 0.500382 0.442531 0.298828 0.372434
10 -9.380835 -29.461088 58.443943 0.000960 0.576115 0.817368 0.415039 0.377322
10 -9.380835 -29.901089 58.443943 0.000001 0.894427 0.447214 0.400391 0.387097
v_pistol_sheet.bmp
10 -8.040834 -29.901089 58.443939 0.744166 0.500382 0.442531 0.298828 0.372434
10 -8.040834 -29.461088 58.443943 0.803975 0.400915 0.439193 0.313477 0.362659
10 -9.380835 -29.461088 58.443943 0.000960 0.576115 0.817368 0.415039 0.377322
v_pistol_sheet.bmp
10 -8.040834 -29.901089 58.443939 0.744166 0.500382 0.442531 0.298828 0.372434
10 -8.070836 -30.501087 58.023941 0.982843 0.012532 -0.184016 0.278320 0.362659
10 -8.040834 -29.461088 58.443943 0.803975 0.400915 0.439193 0.313477 0.362659
v_pistol_sheet.bmp
10 -8.040834 -29.901089 58.443939 0.744166 0.500382 0.442531 0.298828 0.372434
10 -8.020835 -30.751089 58.643940 0.998937 0.002346 -0.046034 0.268555 0.412512
10 -8.070836 -30.501087 58.023941 0.982843 0.012532 -0.184016 0.278320 0.362659
v_pistol_sheet.bmp
10 -8.040834 -29.901089 58.443939 0.744166 0.500382 0.442531 0.298828 0.372434
10 -8.020835 -29.901089 58.723942 0.892777 0.449419 0.031157 0.298828 0.392962
10 -8.020835 -30.751089 58.643940 0.998937 0.002346 -0.046034 0.268555 0.412512
v_pistol_sheet.bmp
10 -8.500833 -22.461090 57.413952 0.692473 0.717289 -0.077311 0.795898 0.372434
10 -8.140833 -22.801090 57.483952 0.937430 0.346579 -0.033280 0.754883 0.382209
10 -8.370835 -21.841087 55.713951 0.851589 0.506310 0.135817 0.866211 0.181818
v_pistol_sheet.bmp
10 -8.370835 -21.841087 55.713951 0.851589 0.506310 0.135817 0.866211 0.181818
10 -8.140833 -22.801090 57.483952 0.937430 0.346579 -0.033280 0.754883 0.382209
10 -8.170837 -22.171085 54.243954 0.971141 0.210987 -0.111219 0.826172 0.021505
v_pistol_sheet.bmp
10 -8.140833 -22.801090 57.483952 0.937430 0.346579 -0.033280 0.754883 0.382209
10 -8.140834 -24.281090 57.333950 0.944955 -0.299239 -0.132348 0.587891 0.362659
10 -8.170837 -22.171085 54.243954 0.971141 0.210987 -0.111219 0.826172 0.021505
v_pistol_sheet.bmp
10 -8.170837 -22.171085 54.243954 0.971141 0.210987 -0.111219 0.826172 0.021505
10 -8.140834 -24.281090 57.333950 0.944955 -0.299239 -0.132348 0.587891 0.362659
10 -8.170838 -23.921085 54.253948 0.711879 -0.701325 -0.037048 0.632813 0.021505
v_pistol_sheet.bmp
10 -8.140834 -24.281090 57.333950 0.944955 -0.299239 -0.132348 0.587891 0.362659
10 -8.480837 -24.111086 55.313950 0.368942 -0.920499 -0.128700 0.607422 0.136852
10 -8.170838 -23.921085 54.253948 0.711879 -0.701325 -0.037048 0.632813 0.021505
v_pistol_sheet.bmp
10 -8.170838 -23.921085 54.253948 0.711879 -0.701325 -0.037048 0.632813 0.021505
10 -8.480837 -24.111086 55.313950 0.368942 -0.920499 -0.128700 0.607422 0.136852
10 -8.450838 -24.131084 54.243950 0.257340 -0.965991 0.025269 0.607422 0.021505
v_pistol_sheet.bmp
10 -8.480837 -24.111086 55.313950 0.368942 -0.920499 -0.128700 0.607422 0.136852
10 -8.840837 -24.081085 54.393951 0.153634 -0.983817 -0.092200 0.613281 0.036168
10 -8.450838 -24.131084 54.243950 0.257340 -0.965991 0.025269 0.607422 0.021505
v_pistol_sheet.bmp
10 -8.850833 -29.901089 59.583942 0.000000 -0.000001 1.000000 0.019531 0.739003
10 -8.540833 -29.901089 59.583942 0.686609 -0.001260 0.727026 0.019531 0.733138
10 -8.540832 -27.151091 59.583946 0.338743 -0.000002 0.940879 0.151367 0.733138
v_pistol_sheet.bmp
10 -8.540832 -27.151091 59.583946 0.338743 -0.000002 0.940879 0.151367 0.733138
10 -8.540833 -29.901089 59.583942 0.686609 -0.001260 0.727026 0.019531 0.733138
10 -8.420833 -27.151091 59.353943 0.988094 -0.002399 0.153833 0.151367 0.708700
v_pistol_sheet.bmp
10 -8.540833 -29.901089 59.583942 0.686609 -0.001260 0.727026 0.019531 0.733138
10 -8.430834 -29.901089 59.353943 0.983322 -0.002380 -0.181856 0.019531 0.708700
10 -8.420833 -27.151091 59.353943 0.988094 -0.002399 0.153833 0.151367 0.708700
v_pistol_sheet.bmp
10 -8.420833 -27.151091 59.353943 0.988094 -0.002399 0.153833 0.151367 0.708700
10 -8.430834 -29.901089 59.353943 0.983322 -0.002380 -0.181856 0.019531 0.708700
10 -8.540833 -27.151091 59.133945 0.677125 -0.001219 -0.735867 0.151367 0.683284
v_pistol_sheet.bmp
10 -8.430834 -29.901089 59.353943 0.983322 -0.002380 -0.181856 0.019531 0.708700
10 -8.540833 -29.901089 59.133942 0.343280 0.000001 -0.939233 0.019531 0.683284
10 -8.540833 -27.151091 59.133945 0.677125 -0.001219 -0.735867 0.151367 0.683284
v_pistol_sheet.bmp
10 -8.540833 -27.151091 59.133945 0.677125 -0.001219 -0.735867 0.151367 0.683284
10 -8.540833 -29.901089 59.133942 0.343280 0.000001 -0.939233 0.019531 0.683284
10 -8.840833 -27.151091 59.133945 0.000000 0.000001 -1.000000 0.151367 0.683284
v_pistol_sheet.bmp
10 -8.540833 -29.901089 59.133942 0.343280 0.000001 -0.939233 0.019531 0.683284
10 -8.850834 -29.901089 59.133942 0.000000 0.000001 -1.000000 0.019531 0.683284
10 -8.840833 -27.151091 59.133945 0.000000 0.000001 -1.000000 0.151367 0.683284
v_pistol_sheet.bmp
11 -8.040831 -21.910334 59.481411 0.830709 -0.022697 0.556244 0.724609 0.819159
11 -8.290830 -22.420334 59.771412 0.382982 -0.234809 0.893415 0.664063 0.878788
11 -8.210831 -22.420334 59.601410 0.514253 -0.247312 0.821207 0.668945 0.849462
v_pistol_sheet.bmp
11 -8.210831 -22.420334 59.601410 0.514253 -0.247312 0.821207 0.668945 0.849462
11 -8.290830 -22.420334 59.771412 0.382982 -0.234809 0.893415 0.664063 0.878788
11 -8.330831 -22.470333 59.741409 0.216698 -0.648732 0.729513 0.658203 0.878788
v_pistol_sheet.bmp
11 -8.290830 -22.420334 59.771412 0.382982 -0.234809 0.893415 0.664063 0.878788
11 -9.160830 -22.380333 59.771412 0.022519 -0.120137 0.992502 0.683594 0.979472
11 -8.330831 -22.470333 59.741409 0.216698 -0.648732 0.729513 0.658203 0.878788
v_pistol_sheet.bmp
11 -8.330831 -22.470333 59.741409 0.216698 -0.648732 0.729513 0.658203 0.878788
11 -9.160830 -22.380333 59.771412 0.022519 -0.120137 0.992502 0.683594 0.979472
11 -9.040830 -22.430332 59.741413 0.168343 -0.184822 0.968247 0.678711 0.964809
v_pistol_sheet.bmp
11 -9.160830 -22.380333 59.771412 0.022519 -0.120137 0.992502 0.683594 0.979472
11 -9.150830 -22.910332 59.781410 0.154570 0.229932 0.960853 0.623047 0.979472
11 -9.040830 -22.430332 59.741413 0.168343 -0.184822 0.968247 0.678711 0.964809
v_pistol_sheet.bmp
11 -9.040830 -22.430332 59.741413 0.168343 -0.184822 0.968247 0.678711 0.964809
11 -9.150830 -22.910332 59.781410 0.154570 0.229932 0.960853 0.623047 0.979472
11 -9.040831 -22.890333 59.751411 0.156985 0.452964 0.877599 0.627930 0.964809
v_pistol_sheet.bmp
11 -9.150830 -22.910332 59.781410 0.154570 0.229932 0.960853 0.623047 0.979472
11 -8.330831 -22.910334 59.751411 0.238013 0.464518 0.852979 0.613281 0.878788
11 -9.040831 -22.890333 59.751411 0.156985 0.452964 0.877599 0.627930 0.964809
v_pistol_sheet.bmp
11 -8.580830 -21.840332 59.571411 0.000000 0.000001 -1.000000 0.207031 0.382209
11 -8.770831 -25.110332 59.571407 0.539693 0.003021 -0.841856 0.030273 0.362659
11 -8.770830 -21.840332 59.571411 0.433186 0.000001 -0.901305 0.207031 0.362659
v_pistol_sheet.bmp
11 -8.770830 -21.840332 59.571411 0.433186 0.000001 -0.901305 0.207031 0.362659
11 -8.770831 -25.110332 59.571407 0.539693 0.003021 -0.841856 0.030273 0.362659
11 -8.810830 -21.810333 59.521412 0.961698 0.002410 -0.274101 0.207031 0.351906
v_pistol_sheet.bmp
11 -8.770831 -25.110332 59.571407 0.539693 0.003021 -0.841856 0.030273 0.362659
11 -8.830832 -25.110331 59.141407 0.862978 0.003012 -0.505232 0.030273 0.327468
11 -8.810830 -21.810333 59.521412 0.961698 0.002410 -0.274101 0.207031 0.351906
v_pistol_sheet.bmp
11 -8.810830 -21.810333 59.521412 0.961698 0.002410 -0.274101 0.207031 0.351906
11 -8.830832 -25.110331 59.141407 0.862978 0.003012 -0.505232 0.030273 0.327468
11 -8.820830 -21.740332 59.141411 0.442320 -0.001311 -0.896857 0.212891 0.327468
v_pistol_sheet.bmp
11 -8.830832 -25.110331 59.141407 0.862978 0.003012 -0.505232 0.030273 0.327468
11 -9.100832 -25.110331 59.141407 0.716281 -0.000941 -0.697811 0.030273 0.306940
11 -8.820830 -21.740332 59.141411 0.442320 -0.001311 -0.896857 0.212891 0.327468
v_pistol_sheet.bmp
11 -8.820830 -21.740332 59.141411 0.442320 -0.001311 -0.896857 0.212891 0.327468
11 -9.100832 -25.110331 59.141407 0.716281 -0.000941 -0.697811 0.030273 0.306940
11 -9.090831 -21.710333 59.141415 0.712960 -0.002096 -0.701202 0.217773 0.306940
v_pistol_sheet.bmp
11 -9.100832 -25.110331 59.141407 0.716281 -0.000941 -0.697811 0.030273 0.306940
11 -9.080832 -21.650331 58.551414 0.958052 -0.000848 -0.286594 0.217773 0.271750
11 -9.090831 -21.710333 59.141415 0.712960 -0.002096 -0.701202 0.217773 0.306940
v_pistol_sheet.bmp
10 -8.570831 -21.721092 58.743954 0.000000 -0.000001 1.000000 0.227539 0.422287
10 -8.830831 -21.721092 58.743954 0.447214 -0.000001 0.894427 0.227539 0.447703
10 -8.560832 -24.571091 58.743950 0.000000 -0.000001 1.000000 0.030273 0.422287
v_pistol_sheet.bmp
10 -8.560832 -24.571091 58.743950 0.000000 -0.000001 1.000000 0.030273 0.422287
10 -8.830831 -21.721092 58.743954 0.447214 -0.000001 0.894427 0.227539 0.447703
10 -8.830832 -24.571091 58.743950 0.894427 -0.000001 0.447214 0.030273 0.447703
v_pistol_sheet.bmp
10 -8.830831 -21.721092 58.743954 0.447214 -0.000001 0.894427 0.227539 0.447703
10 -8.830831 -21.761091 59.153954 0.894427 -0.000001 0.447214 0.227539 0.452590
10 -8.830832 -24.571091 58.743950 0.894427 -0.000001 0.447214 0.030273 0.447703
v_pistol_sheet.bmp
10 -8.830832 -24.571091 58.743950 0.894427 -0.000001 0.447214 0.030273 0.447703
10 -8.830831 -21.761091 59.153954 0.894427 -0.000001 0.447214 0.227539 0.452590
10 -8.830832 -24.571091 59.153950 0.447214 -0.000001 0.894427 0.030273 0.452590
v_pistol_sheet.bmp
10 -8.830831 -21.761091 59.153954 0.894427 -0.000001 0.447214 0.227539 0.452590
10 -9.040831 -21.761091 59.153954 0.000001 -0.000001 1.000000 0.227539 0.467253
10 -8.830832 -24.571091 59.153950 0.447214 -0.000001 0.894427 0.030273 0.452590
v_pistol_sheet.bmp
10 -8.830832 -24.571091 59.153950 0.447214 -0.000001 0.894427 0.030273 0.452590
10 -9.040831 -21.761091 59.153954 0.000001 -0.000001 1.000000 0.227539 0.467253
10 -9.070831 -24.811090 59.153950 0.000001 -0.000001 1.000000 0.009766 0.467253
v_pistol_sheet.bmp
11 -8.560830 -22.880333 59.951412 0.596263 0.005230 0.802772 0.770508 0.828935
11 -8.560830 -22.050333 59.951412 0.339338 -0.000202 0.940664 0.770508 0.954057
11 -8.790830 -22.880333 59.961411 0.044415 -0.000274 0.999013 0.745117 0.828935
v_pistol_sheet.bmp
11 -8.790830 -22.880333 59.961411 0.044415 -0.000274 0.999013 0.745117 0.828935
11 -8.560830 -22.050333 59.951412 0.339338 -0.000202 0.940664 0.770508 0.954057
11 -8.780829 -22.050333 59.961411 0.045400 -0.000547 0.998969 0.745117 0.954057
v_pistol_sheet.bmp
10 -8.160833 -26.731091 58.703945 0.000015 1.000000 0.000001 0.486328 0.076246
10 -8.260835 -26.731089 57.863945 0.000005 1.000000 0.000000 0.481445 0.010753
10 -8.280833 -26.731089 58.413944 0.000007 1.000000 0.000000 0.476563 0.056696
v_pistol_sheet.bmp
10 -8.280833 -26.731089 58.413944 0.000007 1.000000 0.000000 0.476563 0.056696
10 -8.260835 -26.731089 57.863945 0.000005 1.000000 0.000000 0.481445 0.010753
10 -9.090834 -26.731089 58.413948 0.000000 1.000000 0.000000 0.405273 0.056696
v_pistol_sheet.bmp
10 -8.260835 -26.731089 57.863945 0.000005 1.000000 0.000000 0.481445 0.010753
10 -9.150834 -26.731089 57.873947 0.000000 1.000000 0.000000 0.405273 0.010753
10 -9.090834 -26.731089 58.413948 0.000000 1.000000 0.000000 0.405273 0.056696
v_pistol_sheet.bmp
10 -9.090834 -26.731089 58.413948 0.000000 1.000000 0.000000 0.405273 0.056696
10 -9.150834 -26.731089 57.873947 0.000000 1.000000 0.000000 0.405273 0.010753
10 -9.240833 -26.731089 58.713947 0.000000 1.000000 0.000000 0.400391 0.076246
v_pistol_sheet.bmp
10 -9.150834 -26.731089 57.873947 0.000000 1.000000 0.000000 0.405273 0.010753
10 -9.300834 -26.731089 58.293945 0.000000 1.000000 0.000000 0.394531 0.045943
10 -9.240833 -26.731089 58.713947 0.000000 1.000000 0.000000 0.400391 0.076246
v_pistol_sheet.bmp
10 -8.270833 -27.151091 59.193943 0.998168 -0.000001 0.060496 0.156250 0.121212
10 -8.270832 -25.311090 59.193947 0.705812 0.707107 0.042776 0.192383 0.005865
10 -8.290833 -27.151091 59.523945 0.940096 -0.000001 0.340910 0.166992 0.141740
v_pistol_sheet.bmp
10 -8.290833 -27.151091 59.523945 0.940096 -0.000001 0.340910 0.166992 0.141740
10 -8.270832 -25.311090 59.193947 0.705812 0.707107 0.042776 0.192383 0.005865
10 -8.290832 -25.311090 59.523945 0.593157 0.402452 0.697279 0.202148 0.021505
v_pistol_sheet.bmp
10 -8.270832 -25.311090 59.193947 0.705812 0.707107 0.042776 0.192383 0.005865
10 -9.110831 -25.311090 59.533947 -0.072392 0.723938 0.686057 0.268555 0.021505
10 -8.290832 -25.311090 59.523945 0.593157 0.402452 0.697279 0.202148 0.021505
v_pistol_sheet.bmp
10 -8.290832 -25.311090 59.523945 0.593157 0.402452 0.697279 0.202148 0.021505
10 -9.110831 -25.311090 59.533947 -0.072392 0.723938 0.686057 0.268555 0.021505
10 -8.500832 -27.151091 59.673946 0.132699 0.028829 0.990737 0.187500 0.146628
v_pistol_sheet.bmp
10 -9.110831 -25.311090 59.533947 -0.072392 0.723938 0.686057 0.268555 0.021505
10 -9.120832 -27.151091 59.533947 -0.220260 0.001197 0.975441 0.238281 0.141740
10 -8.500832 -27.151091 59.673946 0.132699 0.028829 0.990737 0.187500 0.146628
v_pistol_sheet.bmp
10 -8.280833 -26.731089 58.413944 0.000005 -0.000001 1.000000 0.532227 0.266862
10 -9.090834 -26.731089 58.413948 0.441127 -0.001018 0.897444 0.532227 0.266862
10 -8.290835 -31.071087 58.413940 0.000002 -0.000001 1.000000 0.273438 0.266862
v_pistol_sheet.bmp
10 -8.290835 -31.071087 58.413940 0.000002 -0.000001 1.000000 0.273438 0.266862
10 -9.090834 -26.731089 58.413948 0.441127 -0.001018 0.897444 0.532227 0.266862
10 -9.100835 -31.071087 58.413940 0.822127 -0.010177 0.569214 0.273438 0.266862
v_pistol_sheet.bmp
10 -9.090834 -26.731089 58.413948 0.441127 -0.001018 0.897444 0.532227 0.266862
10 -9.100833 -26.731089 58.713947 0.822127 -0.010177 0.569214 0.532227 0.292278
10 -9.100835 -31.071087 58.413940 0.822127 -0.010177 0.569214 0.273438 0.266862
v_pistol_sheet.bmp
10 -9.100835 -31.071087 58.413940 0.822127 -0.010177 0.569214 0.273438 0.266862
10 -9.100833 -26.731089 58.713947 0.822127 -0.010177 0.569214 0.532227 0.292278
10 -9.200835 -31.081087 58.713940 0.584867 -0.013447 0.811018 0.273438 0.292278
v_pistol_sheet.bmp
10 -9.100833 -26.731089 58.713947 0.822127 -0.010177 0.569214 0.532227 0.292278
10 -9.240833 -26.731089 58.713947 0.000000 -0.000002 1.000000 0.532227 0.292278
10 -9.200835 -31.081087 58.713940 0.584867 -0.013447 0.811018 0.273438 0.292278
v_pistol_sheet.bmp
10 -8.960835 -26.671087 57.063946 0.289723 0.479180 0.828521 0.081055 0.563050
10 -8.470836 -26.331087 57.013947 0.864018 -0.081043 0.496894 0.055664 0.542522
10 -8.980834 -24.861088 57.273949 0.038032 -0.329615 0.943349 0.202148 0.542522
v_pistol_sheet.bmp
10 -8.980834 -24.861088 57.273949 0.038032 -0.329615 0.943349 0.202148 0.542522
10 -8.470836 -26.331087 57.013947 0.864018 -0.081043 0.496894 0.055664 0.542522
10 -8.470835 -25.331089 57.063946 0.686191 -0.338449 0.643890 0.121094 0.522972
v_pistol_sheet.bmp
10 -8.470836 -26.331087 57.013947 0.864018 -0.081043 0.496894 0.055664 0.542522
10 -8.470835 -25.361088 56.943947 0.861952 0.002180 -0.506985 0.116211 0.508309
10 -8.470835 -25.331089 57.063946 0.686191 -0.338449 0.643890 0.121094 0.522972
v_pistol_sheet.bmp
10 -8.470835 -25.331089 57.063946 0.686191 -0.338449 0.643890 0.121094 0.522972
10 -8.470835 -25.361088 56.943947 0.861952 0.002180 -0.506985 0.116211 0.508309
10 -8.440834 -24.861088 57.273949 0.938846 -0.186910 0.289195 0.151367 0.532747
v_pistol_sheet.bmp
10 -8.470835 -25.361088 56.943947 0.861952 0.002180 -0.506985 0.116211 0.508309
10 -8.440835 -24.821089 57.063950 0.870697 0.060105 -0.488134 0.151367 0.508309
10 -8.440834 -24.861088 57.273949 0.938846 -0.186910 0.289195 0.151367 0.532747
v_pistol_sheet.bmp
10 -8.970833 -24.461090 57.963947 0.000000 0.003985 -0.999992 0.567383 0.091887
10 -8.450833 -24.461090 57.963947 0.321216 0.029072 -0.946559 0.567383 0.091887
10 -9.150834 -26.971088 57.953945 -0.005680 0.005569 -0.999968 0.278320 0.086022
v_pistol_sheet.bmp
10 -9.150834 -26.971088 57.953945 -0.005680 0.005569 -0.999968 0.278320 0.086022
10 -8.450833 -24.461090 57.963947 0.321216 0.029072 -0.946559 0.567383 0.091887
10 -8.270834 -26.971088 57.943947 0.739555 0.034651 -0.672203 0.278320 0.086022
v_pistol_sheet.bmp
10 -8.450833 -24.461090 57.963947 0.321216 0.029072 -0.946559 0.567383 0.091887
10 -8.240832 -24.451090 58.323948 0.954170 0.263086 -0.142638 0.567383 0.127077
10 -8.270834 -26.971088 57.943947 0.739555 0.034651 -0.672203 0.278320 0.086022
v_pistol_sheet.bmp
10 -8.270834 -26.971088 57.943947 0.739555 0.034651 -0.672203 0.278320 0.086022
10 -8.240832 -24.451090 58.323948 0.954170 0.263086 -0.142638 0.567383 0.127077
10 -8.210834 -26.961090 58.303944 0.999882 0.012027 -0.009597 0.278320 0.127077
v_pistol_sheet.bmp
10 -8.240832 -24.451090 58.323948 0.954170 0.263086 -0.142638 0.567383 0.127077
10 -8.300833 -26.951090 58.913944 0.998348 -0.010634 0.056469 0.278320 0.191593
10 -8.210834 -26.961090 58.303944 0.999882 0.012027 -0.009597 0.278320 0.127077
v_pistol_sheet.bmp
10 -9.010838 -21.561087 54.143955 -0.425807 0.857225 -0.289575 0.896484 0.005865
10 -9.280837 -21.871086 54.253952 -0.874279 0.462602 0.147092 0.861328 0.021505
10 -9.070835 -21.841087 55.713955 -0.899520 0.419858 0.120757 0.866211 0.181818
v_pistol_sheet.bmp
10 -9.070835 -21.841087 55.713955 -0.899520 0.419858 0.120757 0.866211 0.181818
10 -9.280837 -21.871086 54.253952 -0.874279 0.462602 0.147092 0.861328 0.021505
10 -8.910833 -22.461090 57.423950 -0.919823 0.392333 -0.000041 0.795898 0.372434
v_pistol_sheet.bmp
10 -9.280837 -21.871086 54.253952 -0.874279 0.462602 0.147092 0.861328 0.021505
10 -9.120833 -22.801090 57.483952 -0.849410 0.499683 -0.169761 0.754883 0.382209
10 -8.910833 -22.461090 57.423950 -0.919823 0.392333 -0.000041 0.795898 0.372434
v_pistol_sheet.bmp
10 -8.910833 -22.461090 57.423950 -0.919823 0.392333 -0.000041 0.795898 0.372434
10 -9.120833 -22.801090 57.483952 -0.849410 0.499683 -0.169761 0.754883 0.382209
10 -8.940832 -22.301090 57.713951 -0.532175 0.464281 -0.707978 0.815430 0.412512
v_pistol_sheet.bmp
10 -9.120833 -22.801090 57.483952 -0.849410 0.499683 -0.169761 0.754883 0.382209
10 -9.270832 -22.721090 57.933952 -0.801840 0.336029 -0.494102 0.770508 0.433040
10 -8.940832 -22.301090 57.713951 -0.532175 0.464281 -0.707978 0.815430 0.412512
v_pistol_sheet.bmp
11 -8.040831 -21.910334 59.481411 0.830709 -0.022697 0.556244 0.724609 0.819159
11 -8.140831 -22.990334 59.631409 0.570562 0.235996 0.786616 0.602539 0.849462
11 -8.130832 -26.550331 59.631405 0.874247 -0.015640 0.485230 0.222656 0.849462
v_pistol_sheet.bmp
11 -8.130832 -26.550331 59.631405 0.874247 -0.015640 0.485230 0.222656 0.849462
11 -8.140831 -22.990334 59.631409 0.570562 0.235996 0.786616 0.602539 0.849462
11 -8.230831 -25.510332 59.801407 0.380125 -0.026559 0.924554 0.319336 0.873900
v_pistol_sheet.bmp
11 -8.140831 -22.990334 59.631409 0.570562 0.235996 0.786616 0.602539 0.849462
11 -8.330831 -22.910334 59.751411 0.238013 0.464518 0.852979 0.613281 0.878788
11 -8.230831 -25.510332 59.801407 0.380125 -0.026559 0.924554 0.319336 0.873900
v_pistol_sheet.bmp
11 -8.230831 -25.510332 59.801407 0.380125 -0.026559 0.924554 0.319336 0.873900
11 -8.330831 -22.910334 59.751411 0.238013 0.464518 0.852979 0.613281 0.878788
11 -9.150831 -25.510332 59.811409 0.023715 0.015587 0.999597 0.333984 0.984360
v_pistol_sheet.bmp
11 -8.330831 -22.910334 59.751411 0.238013 0.464518 0.852979 0.613281 0.878788
11 -9.150830 -22.910332 59.781410 0.154570 0.229932 0.960853 0.623047 0.979472
11 -9.150831 -25.510332 59.811409 0.023715 0.015587 0.999597 0.333984 0.984360
v_pistol_sheet.bmp
9 -8.500832 -23.355509 58.795326 0.764336 -0.038218 0.643685 0.491211 0.612903
9 -8.400838 -23.685503 54.155327 0.550910 0.014064 0.834446 0.440430 0.417400
9 -8.390838 -22.275503 54.155327 0.670891 0.383557 0.634657 0.500977 0.417400
v_pistol_sheet.bmp
9 -8.500832 -23.355509 58.795326 0.764336 -0.038218 0.643685 0.491211 0.612903
9 -8.480832 -24.695507 58.585323 0.813649 -0.078139 0.576081 0.430664 0.603128
9 -8.400838 -23.685503 54.155327 0.550910 0.014064 0.834446 0.440430 0.417400
v_pistol_sheet.bmp
9 -8.500832 -23.355509 58.795326 0.764336 -0.038218 0.643685 0.491211 0.612903
9 -8.990832 -24.415508 58.815323 0.174183 -0.061979 0.982761 0.440430 0.612903
9 -8.480832 -24.695507 58.585323 0.813649 -0.078139 0.576081 0.430664 0.603128
v_pistol_sheet.bmp
9 -8.500832 -23.355509 58.795326 0.764336 -0.038218 0.643685 0.491211 0.612903
9 -8.970832 -23.355509 58.795326 0.000000 0.018861 0.999822 0.491211 0.612903
9 -8.990832 -24.415508 58.815323 0.174183 -0.061979 0.982761 0.440430 0.612903
v_pistol_sheet.bmp
10 -8.970835 -27.261087 57.783947 -0.155986 -0.015694 -0.987635 0.496094 0.201369
10 -9.150834 -26.731089 57.873947 -0.189530 0.174981 -0.966157 0.532227 0.212121
10 -8.970835 -27.131088 57.783947 -0.276701 0.090735 -0.956663 0.506836 0.201369
v_pistol_sheet.bmp
10 -8.970835 -27.131088 57.783947 -0.276701 0.090735 -0.956663 0.506836 0.201369
10 -9.150834 -26.731089 57.873947 -0.189530 0.174981 -0.966157 0.532227 0.212121
10 -8.670835 -26.971088 57.783947 -0.000408 0.221478 -0.975165 0.516602 0.201369
v_pistol_sheet.bmp
10 -9.150834 -26.731089 57.873947 -0.189530 0.174981 -0.966157 0.532227 0.212121
10 -8.260835 -26.731089 57.863945 0.738698 0.106082 -0.665637 0.532227 0.212121
10 -8.670835 -26.971088 57.783947 -0.000408 0.221478 -0.975165 0.516602 0.201369
v_pistol_sheet.bmp
10 -8.670835 -26.971088 57.783947 -0.000408 0.221478 -0.975165 0.516602 0.201369
10 -8.260835 -26.731089 57.863945 0.738698 0.106082 -0.665637 0.532227 0.212121
10 -8.440835 -27.131088 57.783943 0.186519 0.044204 -0.981456 0.506836 0.201369
v_pistol_sheet.bmp
10 -8.170835 -29.231087 57.793941 0.701973 0.711378 0.034278 0.333984 0.306940
10 -8.070836 -30.501087 58.023941 0.982843 0.012532 -0.184016 0.278320 0.362659
10 -8.170835 -30.341087 57.793941 0.917072 -0.000000 -0.398722 0.293945 0.337243
v_pistol_sheet.bmp
10 -8.170835 -29.231087 57.793941 0.701973 0.711378 0.034278 0.333984 0.306940
10 -8.040834 -29.461088 58.443943 0.803975 0.400915 0.439193 0.313477 0.362659
10 -8.070836 -30.501087 58.023941 0.982843 0.012532 -0.184016 0.278320 0.362659
v_pistol_sheet.bmp
10 -8.170835 -29.231087 57.793941 0.701973 0.711378 0.034278 0.333984 0.306940
10 -9.380835 -29.461088 58.443943 0.000960 0.576115 0.817368 0.415039 0.377322
10 -8.040834 -29.461088 58.443943 0.803975 0.400915 0.439193 0.313477 0.362659
v_pistol_sheet.bmp
10 -8.170835 -29.231087 57.793941 0.701973 0.711378 0.034278 0.333984 0.306940
10 -9.250835 -29.231087 57.803944 0.003137 0.940866 0.338764 0.410156 0.322581
10 -9.380835 -29.461088 58.443943 0.000960 0.576115 0.817368 0.415039 0.377322
v_pistol_sheet.bmp
10 -8.450837 -21.561087 54.143951 0.000001 0.984466 0.175574 0.977539 0.021505
10 -9.070835 -21.841087 55.713955 0.002083 0.965755 0.259446 0.902344 0.201369
10 -8.370835 -21.841087 55.713951 0.000001 0.965588 0.260078 0.988281 0.201369
v_pistol_sheet.bmp
10 -8.370835 -21.841087 55.713951 0.000001 0.965588 0.260078 0.988281 0.201369
10 -9.070835 -21.841087 55.713955 0.002083 0.965755 0.259446 0.902344 0.201369
10 -8.500833 -22.461090 57.413952 -0.000961 0.997220 -0.074513 0.972656 0.392962
v_pistol_sheet.bmp
10 -9.070835 -21.841087 55.713955 0.002083 0.965755 0.259446 0.902344 0.201369
10 -8.910833 -22.461090 57.423950 -0.001926 0.996875 -0.078974 0.921875 0.392962
10 -8.500833 -22.461090 57.413952 -0.000961 0.997220 -0.074513 0.972656 0.392962
v_pistol_sheet.bmp
10 -8.500833 -22.461090 57.413952 -0.000961 0.997220 -0.074513 0.972656 0.392962
10 -8.910833 -22.461090 57.423950 -0.001926 0.996875 -0.078974 0.921875 0.392962
10 -8.940832 -22.301090 57.713951 -0.005901 0.878718 -0.477306 0.916992 0.433040
v_pistol_sheet.bmp
10 -9.370835 -30.711086 58.033943 -0.012397 0.927208 0.374342 0.019531 0.176931
10 -8.170836 -30.541088 57.793941 0.005044 0.803951 0.594674 0.136719 0.151515
10 -9.250835 -30.541086 57.803944 0.005523 0.802784 0.596245 0.030273 0.151515
v_pistol_sheet.bmp
10 -9.370835 -30.711086 58.033943 -0.012397 0.927208 0.374342 0.019531 0.176931
10 -8.070836 -30.711088 58.023941 0.002637 0.939490 0.342567 0.146484 0.176931
10 -8.170836 -30.541088 57.793941 0.005044 0.803951 0.594674 0.136719 0.151515
v_pistol_sheet.bmp
10 -9.370835 -30.711086 58.033943 -0.012397 0.927208 0.374342 0.019531 0.176931
10 -8.020835 -30.751089 58.643940 -0.029087 0.991169 0.129372 0.151367 0.231672
10 -8.070836 -30.711088 58.023941 0.002637 0.939490 0.342567 0.146484 0.176931
v_pistol_sheet.bmp
10 -9.370835 -30.711086 58.033943 -0.012397 0.927208 0.374342 0.019531 0.176931
10 -9.390835 -30.821087 58.583942 -0.058520 0.979307 0.193735 0.014648 0.226784
10 -8.020835 -30.751089 58.643940 -0.029087 0.991169 0.129372 0.151367 0.231672
v_pistol_sheet.bmp
11 -8.210832 -26.560331 59.691406 0.103888 0.051788 0.993240 0.202148 0.864125
11 -8.310832 -26.510332 59.671406 -0.452683 0.347778 0.821053 0.207031 0.873900
11 -9.060832 -26.510330 59.681408 0.570760 0.137571 0.809510 0.222656 0.964809
v_pistol_sheet.bmp
11 -8.210832 -26.560331 59.691406 0.103888 0.051788 0.993240 0.202148 0.864125
11 -8.290832 -26.460331 59.671406 -0.744237 0.219959 0.630658 0.212891 0.869013
11 -8.310832 -26.510332 59.671406 -0.452683 0.347778 0.821053 0.207031 0.873900
v_pistol_sheet.bmp
11 -8.210832 -26.560331 59.691406 0.103888 0.051788 0.993240 0.202148 0.864125
11 -8.230831 -25.510332 59.801407 0.380125 -0.026559 0.924554 0.319336 0.873900
11 -8.290832 -26.460331 59.671406 -0.744237 0.219959 0.630658 0.212891 0.869013
v_pistol_sheet.bmp
11 -8.210832 -26.560331 59.691406 0.103888 0.051788 0.993240 0.202148 0.864125
11 -8.130832 -26.550331 59.631405 0.874247 -0.015640 0.485230 0.222656 0.849462
11 -8.230831 -25.510332 59.801407 0.380125 -0.026559 0.924554 0.319336 0.873900
v_pistol_sheet.bmp
11 -8.330831 -22.470333 59.741409 0.418591 0.019547 0.907965 0.658203 0.883675
11 -8.210831 -22.970333 59.611408 0.759702 0.013292 0.650135 0.613281 0.859238
11 -8.210831 -22.420334 59.601410 0.757103 0.011874 0.653188 0.658203 0.859238
v_pistol_sheet.bmp
11 -8.330831 -22.470333 59.741409 0.418591 0.019547 0.907965 0.658203 0.883675
11 -8.330831 -22.910334 59.751411 0.420268 0.020622 0.907166 0.618164 0.878788
11 -8.210831 -22.970333 59.611408 0.759702 0.013292 0.650135 0.613281 0.859238
v_pistol_sheet.bmp
11 -8.330831 -22.470333 59.741409 0.418591 0.019547 0.907965 0.658203 0.883675
11 -9.040831 -22.890333 59.751411 0.000935 0.022228 0.999752 0.627930 0.958944
11 -8.330831 -22.910334 59.751411 0.420268 0.020622 0.907166 0.618164 0.878788
v_pistol_sheet.bmp
11 -8.330831 -22.470333 59.741409 0.418591 0.019547 0.907965 0.658203 0.883675
11 -9.040830 -22.430332 59.741413 0.001230 0.021730 0.999763 0.668945 0.958944
11 -9.040831 -22.890333 59.751411 0.000935 0.022228 0.999752 0.627930 0.958944
v_pistol_sheet.bmp
12 -8.660830 -20.896929 59.199066 0.283232 0.749257 0.598660 0.344727 0.668622
12 -8.610829 -21.256929 59.229065 0.838388 0.019375 0.544730 0.243164 0.652981
12 -8.570829 -20.986929 58.959064 0.581227 0.464078 -0.668436 0.288086 0.612903
v_pistol_sheet.bmp
12 -8.570829 -20.986929 58.959064 0.581227 0.464078 -0.668436 0.288086 0.612903
12 -8.610829 -21.256929 59.229065 0.838388 0.019375 0.544730 0.243164 0.652981
12 -8.620830 -21.336927 58.939064 0.847092 0.085204 -0.524572 0.232422 0.608016
v_pistol_sheet.bmp
12 -8.610829 -21.256929 59.229065 0.838388 0.019375 0.544730 0.243164 0.652981
12 -8.640830 -22.136929 58.829063 0.628559 -0.339048 0.699972 0.095703 0.593353
12 -8.620830 -21.336927 58.939064 0.847092 0.085204 -0.524572 0.232422 0.608016
v_pistol_sheet.bmp
10 -8.020835 -31.111088 58.643940 0.998137 -0.006072 -0.060713 0.257813 0.422287
10 -8.020835 -31.381088 58.723938 0.993324 -0.095481 -0.064733 0.243164 0.433040
10 -8.070836 -31.071087 58.023941 0.831743 -0.403412 -0.381395 0.262695 0.377322
v_pistol_sheet.bmp
10 -8.070836 -31.071087 58.023941 0.831743 -0.403412 -0.381395 0.262695 0.377322
10 -8.020835 -31.381088 58.723938 0.993324 -0.095481 -0.064733 0.243164 0.433040
10 -8.170836 -30.971087 57.793941 0.903138 -0.221456 -0.367830 0.268555 0.357771
v_pistol_sheet.bmp
10 -8.020835 -31.381088 58.723938 0.993324 -0.095481 -0.064733 0.243164 0.433040
10 -8.070836 -31.191088 58.023941 0.881630 0.467589 0.063943 0.257813 0.382209
10 -8.170836 -30.971087 57.793941 0.903138 -0.221456 -0.367830 0.268555 0.357771
v_pistol_sheet.bmp
10 -8.020835 -31.111088 58.643940 -0.025544 0.990145 0.137694 0.151367 0.231672
10 -8.070836 -31.071087 58.023941 0.008414 0.905089 0.425139 0.146484 0.176931
10 -9.370835 -31.061087 58.033939 -0.013775 0.956626 0.290993 0.019531 0.176931
v_pistol_sheet.bmp
10 -9.370835 -31.061087 58.033939 -0.013775 0.956626 0.290993 0.019531 0.176931
10 -8.070836 -31.071087 58.023941 0.008414 0.905089 0.425139 0.146484 0.176931
10 -9.250836 -30.901087 57.803940 0.008102 0.811818 0.583854 0.030273 0.151515
v_pistol_sheet.bmp
10 -8.070836 -31.071087 58.023941 0.008414 0.905089 0.425139 0.146484 0.176931
10 -8.170836 -30.901087 57.793941 0.005488 0.805303 0.592839 0.136719 0.151515
10 -9.250836 -30.901087 57.803940 0.008102 0.811818 0.583854 0.030273 0.151515
v_pistol_sheet.bmp
10 -8.290833 -26.731091 58.703945 0.000000 -0.000001 1.000000 0.532227 0.292278
10 -8.290835 -31.081087 58.703941 0.748178 -0.018235 0.663247 0.273438 0.292278
10 -8.160833 -26.731091 58.703945 0.855578 0.076469 0.511995 0.532227 0.292278
v_pistol_sheet.bmp
10 -8.160833 -26.731091 58.703945 0.855578 0.076469 0.511995 0.532227 0.292278
10 -8.290835 -31.081087 58.703941 0.748178 -0.018235 0.663247 0.273438 0.292278
10 -8.090834 -27.241089 58.403946 0.973766 0.224612 -0.036462 0.496094 0.261975
v_pistol_sheet.bmp
10 -8.290835 -31.081087 58.703941 0.748178 -0.018235 0.663247 0.273438 0.292278
10 -8.110836 -31.081087 58.283939 0.989881 0.000132 -0.141900 0.273438 0.257087
10 -8.090834 -27.241089 58.403946 0.973766 0.224612 -0.036462 0.496094 0.261975
v_pistol_sheet.bmp
10 -8.130834 -31.451090 59.763939 0.764725 -0.000000 0.644357 0.252930 0.518084
10 -8.660832 -29.901091 59.913940 0.017072 0.459200 0.888169 0.349609 0.487781
10 -8.660833 -31.261089 59.913940 0.019215 -0.000000 0.999815 0.298828 0.527859
v_pistol_sheet.bmp
10 -8.660833 -31.261089 59.913940 0.019215 -0.000000 0.999815 0.298828 0.527859
10 -8.660832 -29.901091 59.913940 0.017072 0.459200 0.888169 0.349609 0.487781
10 -9.280833 -31.451088 59.763939 -0.235151 -0.000001 0.971959 0.338867 0.532747
v_pistol_sheet.bmp
10 -8.660832 -29.901091 59.913940 0.017072 0.459200 0.888169 0.349609 0.487781
10 -9.280833 -29.901089 59.763943 -0.166272 0.707107 0.687280 0.394531 0.487781
10 -9.280833 -31.451088 59.763939 -0.235151 -0.000001 0.971959 0.338867 0.532747
v_pistol_sheet.bmp
10 -9.180832 -24.441090 58.913948 0.000002 0.999856 -0.016947 0.567383 0.191593
10 -8.220832 -24.441092 58.913948 0.452434 0.891278 -0.030442 0.567383 0.191593
10 -9.170833 -24.451090 58.323948 0.000001 0.999856 -0.016945 0.567383 0.131965
v_pistol_sheet.bmp
10 -9.170833 -24.451090 58.323948 0.000001 0.999856 -0.016945 0.567383 0.131965
10 -8.220832 -24.441092 58.913948 0.452434 0.891278 -0.030442 0.567383 0.191593
10 -8.240832 -24.451090 58.323948 0.954170 0.263086 -0.142638 0.567383 0.127077
v_pistol_sheet.bmp
10 -8.220832 -24.441092 58.913948 0.452434 0.891278 -0.030442 0.567383 0.191593
10 -8.300833 -26.951090 58.913944 0.998348 -0.010634 0.056469 0.278320 0.191593
10 -8.240832 -24.451090 58.323948 0.954170 0.263086 -0.142638 0.567383 0.127077
v_pistol_sheet.bmp
10 -9.010838 -21.561087 54.143955 -0.425807 0.857225 -0.289575 0.896484 0.005865
10 -8.450837 -21.561087 54.143951 0.664574 0.589021 -0.459778 0.896484 0.005865
10 -8.530837 -21.671085 53.993954 0.433202 0.600931 -0.671728 0.881836 0.000978
v_pistol_sheet.bmp
10 -8.530837 -21.671085 53.993954 0.433202 0.600931 -0.671728 0.881836 0.000978
10 -8.450837 -21.561087 54.143951 0.664574 0.589021 -0.459778 0.896484 0.005865
10 -8.170837 -22.171085 54.243954 0.971141 0.210987 -0.111219 0.826172 0.021505
v_pistol_sheet.bmp
10 -8.450837 -21.561087 54.143951 0.664574 0.589021 -0.459778 0.896484 0.005865
10 -8.370835 -21.841087 55.713951 0.851589 0.506310 0.135817 0.866211 0.181818
10 -8.170837 -22.171085 54.243954 0.971141 0.210987 -0.111219 0.826172 0.021505
v_pistol_sheet.bmp
10 -8.570831 -24.571091 59.153950 0.000016 -0.000000 1.000000 0.030273 0.427175
10 -8.330832 -24.811090 59.153946 0.612902 0.005349 0.790141 0.009766 0.412512
10 -8.540831 -21.761091 59.153950 0.325258 0.022394 0.945360 0.227539 0.427175
v_pistol_sheet.bmp
10 -8.540831 -21.761091 59.153950 0.325258 0.022394 0.945360 0.227539 0.427175
10 -8.330832 -24.811090 59.153946 0.612902 0.005349 0.790141 0.009766 0.412512
10 -8.160830 -21.701092 58.853951 0.835679 0.007293 0.549170 0.227539 0.397849
v_pistol_sheet.bmp
10 -8.330832 -24.811090 59.153946 0.612902 0.005349 0.790141 0.009766 0.412512
10 -8.270832 -24.811090 58.923946 0.967224 -0.028532 0.252317 0.009766 0.402737
10 -8.160830 -21.701092 58.853951 0.835679 0.007293 0.549170 0.227539 0.397849
v_pistol_sheet.bmp
10 -8.840837 -24.081085 54.393951 0.153634 -0.983817 -0.092200 0.613281 0.036168
10 -8.480837 -24.111086 55.313950 0.368942 -0.920499 -0.128700 0.607422 0.136852
10 -8.920835 -24.661089 56.913948 0.294866 -0.925653 -0.237108 0.551758 0.317693
v_pistol_sheet.bmp
10 -8.920835 -24.661089 56.913948 0.294866 -0.925653 -0.237108 0.551758 0.317693
10 -8.480837 -24.111086 55.313950 0.368942 -0.920499 -0.128700 0.607422 0.136852
10 -8.440835 -24.581089 56.933949 0.734870 -0.530439 -0.422612 0.557617 0.317693
v_pistol_sheet.bmp
10 -8.480837 -24.111086 55.313950 0.368942 -0.920499 -0.128700 0.607422 0.136852
10 -8.140834 -24.281090 57.333950 0.944955 -0.299239 -0.132348 0.587891 0.362659
10 -8.440835 -24.581089 56.933949 0.734870 -0.530439 -0.422612 0.557617 0.317693
v_pistol_sheet.bmp
11 -8.560830 -22.880333 59.951412 0.596263 0.005230 0.802772 0.770508 0.828935
11 -8.480830 -23.050333 59.861412 0.999831 0.003884 0.017950 0.795898 0.803519
11 -8.500830 -21.990334 59.861412 0.919688 0.011772 0.392474 0.790039 0.964809
v_pistol_sheet.bmp
11 -8.500830 -21.990334 59.861412 0.919688 0.011772 0.392474 0.790039 0.964809
11 -8.480830 -23.050333 59.861412 0.999831 0.003884 0.017950 0.795898 0.803519
11 -8.510830 -21.990334 59.761410 0.951368 -0.002137 -0.308049 0.810547 0.964809
v_pistol_sheet.bmp
11 -8.480830 -23.050333 59.861412 0.999831 0.003884 0.017950 0.795898 0.803519
11 -8.540831 -23.120333 59.761410 0.864275 -0.022946 -0.502495 0.810547 0.803519
11 -8.510830 -21.990334 59.761410 0.951368 -0.002137 -0.308049 0.810547 0.964809
v_pistol_sheet.bmp
11 -9.090833 -25.100330 58.861408 0.998694 0.001693 0.051064 0.030273 0.276637
11 -9.070833 -25.110331 58.561409 0.438003 0.000013 -0.898974 0.030273 0.266862
11 -9.080832 -21.650331 58.551414 0.958052 -0.000848 -0.286594 0.217773 0.271750
v_pistol_sheet.bmp
11 -9.080832 -21.650331 58.551414 0.958052 -0.000848 -0.286594 0.217773 0.271750
11 -9.070833 -25.110331 58.561409 0.438003 0.000013 -0.898974 0.030273 0.266862
11 -9.260831 -21.590332 58.561413 -0.028249 -0.001524 -0.999600 0.222656 0.252199
v_pistol_sheet.bmp
11 -9.070833 -25.110331 58.561409 0.438003 0.000013 -0.898974 0.030273 0.266862
11 -9.210833 -25.440331 58.561409 -0.000002 0.000001 -1.000000 0.009766 0.257087
11 -9.260831 -21.590332 58.561413 -0.028249 -0.001524 -0.999600 0.222656 0.252199
v_pistol_sheet.bmp
11 -8.420834 -29.850330 59.801403 0.257718 0.004804 0.966208 0.005208 0.899316
11 -9.210832 -26.560331 59.681408 -0.051597 0.010278 0.998615 0.217773 0.984360
11 -9.250834 -29.850330 59.671402 -0.144447 -0.001253 0.989512 0.021484 0.989247
v_pistol_sheet.bmp
11 -9.250834 -29.850330 59.671402 -0.144447 -0.001253 0.989512 0.021484 0.989247
11 -9.210832 -26.560331 59.681408 -0.051597 0.010278 0.998615 0.217773 0.984360
11 -9.220832 -25.590332 59.681408 -0.067220 -0.000693 0.997738 0.333984 0.984360
v_pistol_sheet.bmp
11 -9.210832 -26.560331 59.681408 -0.051597 0.010278 0.998615 0.217773 0.984360
11 -9.070831 -25.640331 59.681408 0.680874 -0.202286 0.703911 0.324219 0.969697
11 -9.220832 -25.590332 59.681408 -0.067220 -0.000693 0.997738 0.333984 0.984360
v_pistol_sheet.bmp
11 -8.040831 -21.910334 59.481411 0.830709 -0.022697 0.556244 0.724609 0.819159
11 -8.300830 -21.970333 59.771412 0.110686 0.002460 0.993852 0.714844 0.878788
11 -8.290830 -22.420334 59.771412 0.382982 -0.234809 0.893415 0.664063 0.878788
v_pistol_sheet.bmp
11 -8.290830 -22.420334 59.771412 0.382982 -0.234809 0.893415 0.664063 0.878788
11 -8.300830 -21.970333 59.771412 0.110686 0.002460 0.993852 0.714844 0.878788
11 -9.160830 -22.380333 59.771412 0.022519 -0.120137 0.992502 0.683594 0.979472
v_pistol_sheet.bmp
11 -8.300830 -21.970333 59.771412 0.110686 0.002460 0.993852 0.714844 0.878788
11 -9.160830 -21.970333 59.771412 0.000000 -0.000000 1.000000 0.722982 0.980774
11 -9.160830 -22.380333 59.771412 0.022519 -0.120137 0.992502 0.683594 0.979472
v_pistol_sheet.bmp
11 -8.300832 -22.010332 58.551411 0.036832 0.002128 -0.999319 0.734375 0.768328
11 -8.050832 -21.640331 58.561413 0.901882 -0.011109 -0.431841 0.770508 0.739003
11 -8.080833 -25.820330 58.551407 0.963544 -0.002772 -0.267537 0.309896 0.750401
v_pistol_sheet.bmp
11 -8.080833 -25.820330 58.551407 0.963544 -0.002772 -0.267537 0.309896 0.750401
11 -8.050832 -21.640331 58.561413 0.901882 -0.011109 -0.431841 0.770508 0.739003
11 -8.130832 -26.550331 59.631405 0.874247 -0.015640 0.485230 0.222656 0.849462
v_pistol_sheet.bmp
11 -8.050832 -21.640331 58.561413 0.901882 -0.011109 -0.431841 0.770508 0.739003
11 -8.040831 -21.910334 59.481411 0.830709 -0.022697 0.556244 0.724609 0.819159
11 -8.130832 -26.550331 59.631405 0.874247 -0.015640 0.485230 0.222656 0.849462
v_pistol_sheet.bmp
11 -8.330831 -22.910334 59.751411 0.238013 0.464518 0.852979 0.613281 0.878788
11 -8.140831 -22.990334 59.631409 0.570562 0.235996 0.786616 0.602539 0.849462
11 -8.210831 -22.970333 59.611408 0.030430 0.758021 0.651520 0.607422 0.854350
v_pistol_sheet.bmp
11 -8.210831 -22.970333 59.611408 0.030430 0.758021 0.651520 0.607422 0.854350
11 -8.140831 -22.990334 59.631409 0.570562 0.235996 0.786616 0.602539 0.849462
11 -8.210831 -22.420334 59.601410 0.514253 -0.247312 0.821207 0.668945 0.849462
v_pistol_sheet.bmp
11 -8.140831 -22.990334 59.631409 0.570562 0.235996 0.786616 0.602539 0.849462
11 -8.040831 -21.910334 59.481411 0.830709 -0.022697 0.556244 0.724609 0.819159
11 -8.210831 -22.420334 59.601410 0.514253 -0.247312 0.821207 0.668945 0.849462
v_pistol_sheet.bmp
9 -8.190838 -22.195503 53.805328 0.697911 0.637119 0.327110 0.506836 0.397849
9 -8.210838 -23.935503 54.155327 0.531690 -0.237817 0.812864 0.430664 0.417400
9 -8.480839 -24.285501 53.725327 0.702208 -0.700188 0.128996 0.415039 0.397849
v_pistol_sheet.bmp
9 -8.480839 -24.285501 53.725327 0.702208 -0.700188 0.128996 0.415039 0.397849
9 -8.210838 -23.935503 54.155327 0.531690 -0.237817 0.812864 0.430664 0.417400
9 -9.340838 -23.935503 54.165325 0.017325 -0.195827 0.980485 0.430664 0.417400
v_pistol_sheet.bmp
9 -8.390838 -22.275503 54.155327 0.000000 0.973965 0.226700 0.785156 0.522972
9 -9.160837 -22.275503 54.155327 0.000000 0.973965 0.226700 0.785156 0.572825
9 -8.500832 -23.355509 58.795326 0.000000 0.973965 0.226700 0.607422 0.527859
v_pistol_sheet.bmp
9 -8.500832 -23.355509 58.795326 0.000000 0.973965 0.226700 0.607422 0.527859
9 -9.160837 -22.275503 54.155327 0.000000 0.973965 0.226700 0.785156 0.572825
9 -8.970832 -23.355509 58.795326 0.000000 0.973965 0.226700 0.607422 0.558162
v_pistol_sheet.bmp
10 -8.580834 -27.421087 57.783943 0.015114 -0.021652 -0.999651 0.486328 0.201369
10 -8.260836 -30.891087 57.863941 0.308510 -0.014623 -0.951109 0.278320 0.212121
10 -8.970835 -27.261087 57.783947 -0.155986 -0.015694 -0.987635 0.496094 0.201369
v_pistol_sheet.bmp
10 -8.970835 -27.261087 57.783947 -0.155986 -0.015694 -0.987635 0.496094 0.201369
10 -8.260836 -30.891087 57.863941 0.308510 -0.014623 -0.951109 0.278320 0.212121
10 -8.840836 -30.891087 57.863941 0.000000 -0.022032 -0.999757 0.278320 0.212121
v_pistol_sheet.bmp
10 -8.170836 -30.901087 57.793941 -0.009257 -0.000000 -0.999957 0.248047 0.167155
10 -8.170836 -30.971087 57.793941 -0.009257 -0.000000 -0.999957 0.248047 0.151515
10 -9.250836 -30.901087 57.803940 -0.009257 -0.000000 -0.999957 0.162109 0.167155
v_pistol_sheet.bmp
10 -9.250836 -30.901087 57.803940 -0.009257 -0.000000 -0.999957 0.162109 0.167155
10 -8.170836 -30.971087 57.793941 -0.009257 -0.000000 -0.999957 0.248047 0.151515
10 -9.250836 -30.971087 57.803940 -0.009257 -0.000000 -0.999957 0.162109 0.151515
v_pistol_sheet.bmp
10 -9.250835 -30.541086 57.803944 -0.009261 0.000024 -0.999957 0.162109 0.176931
10 -8.170836 -30.541088 57.793941 -0.009259 0.000012 -0.999957 0.248047 0.176931
10 -9.250836 -30.701086 57.803940 -0.009259 0.000012 -0.999957 0.162109 0.167155
v_pistol_sheet.bmp
10 -9.250836 -30.701086 57.803940 -0.009259 0.000012 -0.999957 0.162109 0.167155
10 -8.170836 -30.541088 57.793941 -0.009259 0.000012 -0.999957 0.248047 0.176931
10 -8.170836 -30.701086 57.793941 -0.009257 -0.000000 -0.999957 0.248047 0.167155
v_pistol_sheet.bmp
10 -8.690834 -24.921089 57.413948 0.213162 -0.976287 -0.037772 0.511719 0.382209
10 -8.440834 -24.861088 57.273949 0.322877 -0.940664 -0.104416 0.521484 0.357771
10 -8.110833 -24.811089 57.843948 0.792905 -0.559401 -0.241603 0.532227 0.427175
v_pistol_sheet.bmp
10 -8.110833 -24.811089 57.843948 0.792905 -0.559401 -0.241603 0.532227 0.427175
10 -8.440834 -24.861088 57.273949 0.322877 -0.940664 -0.104416 0.521484 0.357771
10 -8.440835 -24.821089 57.063950 0.711332 -0.536937 -0.453547 0.532227 0.332356
v_pistol_sheet.bmp
10 -8.070832 -24.801090 58.573948 0.998337 0.012421 -0.056287 0.532227 0.502444
10 -8.150832 -22.721090 57.923950 0.944569 0.197284 -0.262427 0.770508 0.433040
10 -8.060831 -21.681091 58.583950 0.960202 0.085623 -0.265859 0.881836 0.502444
v_pistol_sheet.bmp
10 -8.060831 -21.681091 58.583950 0.960202 0.085623 -0.265859 0.881836 0.502444
10 -8.150832 -22.721090 57.923950 0.944569 0.197284 -0.262427 0.770508 0.433040
10 -8.300832 -21.611092 58.063953 0.480051 0.344334 -0.806837 0.891602 0.452590
v_pistol_sheet.bmp
10 -9.250835 -29.231087 57.803944 -0.009261 -0.000000 -0.999957 0.162109 0.236559
10 -8.170835 -29.231087 57.793941 -0.009261 -0.000000 -0.999957 0.248047 0.236559
10 -9.250835 -30.341087 57.803944 -0.009261 -0.000000 -0.999957 0.162109 0.181818
v_pistol_sheet.bmp
10 -9.250835 -30.341087 57.803944 -0.009261 -0.000000 -0.999957 0.162109 0.181818
10 -8.170835 -29.231087 57.793941 -0.009261 -0.000000 -0.999957 0.248047 0.236559
10 -8.170835 -30.341087 57.793941 -0.009261 -0.000000 -0.999957 0.248047 0.181818
v_pistol_sheet.bmp
10 -8.440834 -24.861088 57.273949 0.938846 -0.186910 0.289195 0.151367 0.532747
10 -8.690834 -24.921089 57.413948 0.057884 -0.630028 0.774412 0.171875 0.558162
10 -8.470835 -25.331089 57.063946 0.686191 -0.338449 0.643890 0.121094 0.522972
v_pistol_sheet.bmp
10 -8.470835 -25.331089 57.063946 0.686191 -0.338449 0.643890 0.121094 0.522972
10 -8.690834 -24.921089 57.413948 0.057884 -0.630028 0.774412 0.171875 0.558162
10 -8.980834 -24.861088 57.273949 0.038032 -0.329615 0.943349 0.202148 0.542522
v_pistol_sheet.bmp
11 -8.290830 -22.420334 59.771412 0.382982 -0.234809 0.893415 0.664063 0.878788
11 -8.300830 -21.970333 59.771412 0.110686 0.002460 0.993852 0.714844 0.878788
11 -9.160830 -22.380333 59.771412 0.022519 -0.120137 0.992502 0.683594 0.979472
v_pistol_sheet.bmp
11 -9.160830 -22.380333 59.771412 0.022519 -0.120137 0.992502 0.683594 0.979472
11 -8.300830 -21.970333 59.771412 0.110686 0.002460 0.993852 0.714844 0.878788
11 -9.160830 -21.970333 59.771412 0.000000 -0.000000 1.000000 0.722982 0.980774
v_pistol_sheet.bmp
11 -8.310832 -26.460331 59.321407 -0.927174 0.370866 0.052983 0.243164 0.873900
11 -8.330832 -26.510330 59.321407 -0.927173 0.370867 0.052983 0.238281 0.878788
11 -8.290832 -26.460331 59.671406 -0.744237 0.219959 0.630658 0.212891 0.869013
v_pistol_sheet.bmp
11 -8.290832 -26.460331 59.671406 -0.744237 0.219959 0.630658 0.212891 0.869013
11 -8.330832 -26.510330 59.321407 -0.927173 0.370867 0.052983 0.238281 0.878788
11 -8.310832 -26.510332 59.671406 -0.452683 0.347778 0.821053 0.207031 0.873900
v_pistol_sheet.bmp
11 -9.060832 -26.510330 59.681408 0.000003 1.000000 0.000000 0.313477 0.918866
11 -8.310832 -26.510332 59.671406 0.000001 1.000000 0.000003 0.217773 0.918866
11 -9.060832 -26.510330 59.331406 0.000001 1.000000 0.000003 0.313477 0.878788
v_pistol_sheet.bmp
11 -9.060832 -26.510330 59.331406 0.000001 1.000000 0.000003 0.313477 0.878788
11 -8.310832 -26.510332 59.671406 0.000001 1.000000 0.000003 0.217773 0.918866
11 -8.330832 -26.510330 59.321407 0.000000 1.000000 0.000005 0.222656 0.878788
v_pistol_sheet.bmp
9 -9.370838 -22.195503 53.815331 0.000990 0.993157 0.116781 0.805664 0.583578
9 -9.350838 -22.235502 54.155331 0.000990 0.993157 0.116781 0.785156 0.583578
9 -8.190838 -22.195503 53.805328 0.000990 0.993157 0.116781 0.805664 0.508309
v_pistol_sheet.bmp
10 -9.370835 -31.061087 58.033939 -0.013775 0.956626 0.290993 0.019531 0.176931
10 -9.390835 -31.181087 58.583942 -0.059085 0.975754 0.210744 0.014648 0.226784
10 -8.020835 -31.111088 58.643940 -0.025544 0.990145 0.137694 0.151367 0.231672
v_pistol_sheet.bmp
10 -9.130831 -21.711092 58.923954 0.000000 -0.000003 1.000000 0.227539 0.467253
10 -9.220831 -21.711092 58.923954 0.000000 -0.000003 1.000000 0.227539 0.473118
10 -9.230831 -23.091091 58.923950 0.000000 -0.000003 1.000000 0.136719 0.473118
v_pistol_sheet.bmp
10 -8.280833 -26.731089 58.413944 0.000000 1.000000 0.000007 0.526367 0.257087
10 -8.290833 -26.731091 58.703945 0.000000 1.000000 0.000007 0.526367 0.292278
10 -8.160833 -26.731091 58.703945 0.000000 1.000000 0.000007 0.541992 0.292278
v_pistol_sheet.bmp
10 -8.210834 -26.461090 58.493946 1.000000 -0.000001 0.000000 0.831055 0.918866
10 -8.210833 -24.701090 58.363949 1.000000 -0.000001 0.000000 0.993164 0.883675
10 -8.210833 -24.701090 58.493946 1.000000 -0.000001 0.000000 0.993164 0.918866
v_pistol_sheet.bmp
10 -8.540832 -27.151091 59.583946 0.338743 -0.000002 0.940879 0.151367 0.733138
10 -8.850832 -27.151091 59.583946 0.000000 -0.000001 1.000000 0.151367 0.739003
10 -8.850833 -29.901089 59.583942 0.000000 -0.000001 1.000000 0.019531 0.739003
v_pistol_sheet.bmp
10 -9.380835 -29.901089 58.443943 0.000001 0.894427 0.447214 0.400391 0.387097
10 -9.390834 -29.901089 58.733944 0.000000 1.000000 0.000000 0.400391 0.412512
10 -9.370833 -29.901089 59.523941 0.000001 1.000000 0.000001 0.400391 0.473118
v_pistol_sheet.bmp
10 -8.440835 -27.131088 57.783943 0.757473 0.609753 -0.233314 0.004883 0.658847
10 -8.580834 -27.421087 57.783943 0.881042 -0.425330 -0.207025 0.000000 0.668622
10 -8.590836 -27.101088 57.083946 0.993764 0.048042 0.100622 0.019531 0.572825
v_pistol_sheet.bmp
10 -8.270832 -25.311090 59.193947 0.705812 0.707107 0.042776 0.192383 0.005865
10 -9.150831 -25.311090 59.203949 0.000000 1.000000 0.000000 0.262695 0.005865
10 -9.110831 -25.311090 59.533947 -0.072392 0.723938 0.686057 0.268555 0.021505
v_pistol_sheet.bmp
10 -8.450837 -21.561087 54.143951 0.000001 0.984466 0.175574 0.977539 0.021505
10 -9.010838 -21.561087 54.143955 0.000001 0.984466 0.175574 0.907227 0.021505
10 -9.070835 -21.841087 55.713955 0.002083 0.965755 0.259446 0.902344 0.201369
v_pistol_sheet.bmp
10 -8.140833 -22.801090 57.483952 0.937430 0.346579 -0.033280 0.754883 0.382209
10 -8.500833 -22.461090 57.413952 0.692473 0.717289 -0.077311 0.795898 0.372434
10 -8.440832 -22.301090 57.713951 0.632521 0.503490 -0.588570 0.815430 0.412512
v_pistol_sheet.bmp
10 -8.440832 -22.301090 57.713951 0.000000 0.882353 -0.470589 0.977539 0.433040
10 -8.500833 -22.461090 57.413952 -0.000961 0.997220 -0.074513 0.972656 0.392962
10 -8.940832 -22.301090 57.713951 -0.005901 0.878718 -0.477306 0.916992 0.433040
v_pistol_sheet.bmp
10 -9.370833 -29.901089 59.523941 0.000001 1.000000 0.000001 0.400391 0.473118
10 -8.130833 -29.901091 59.763939 0.487799 0.770139 0.411020 0.308594 0.473118
10 -8.020835 -29.901089 58.723942 0.892777 0.449419 0.031157 0.298828 0.392962
v_pistol_sheet.bmp
10 -8.290832 -25.311090 59.523945 0.593157 0.402452 0.697279 0.202148 0.021505
10 -8.500832 -27.151091 59.673946 0.132699 0.028829 0.990737 0.187500 0.146628
10 -8.290833 -27.151091 59.523945 0.940096 -0.000001 0.340910 0.166992 0.141740
v_pistol_sheet.bmp
10 -8.440835 -24.581089 56.933949 0.057559 -0.096941 -0.993624 0.166992 0.482893
10 -8.600835 -24.881088 56.953949 0.206363 0.030281 -0.978007 0.162109 0.492669
10 -8.920835 -24.661089 56.913948 0.057559 -0.096941 -0.993624 0.207031 0.487781
v_pistol_sheet.bmp
10 -8.170836 -30.971087 57.793941 0.903138 -0.221456 -0.367830 0.268555 0.357771
10 -8.170836 -30.901087 57.793941 0.917069 -0.000000 -0.398728 0.273438 0.351906
10 -8.070836 -31.071087 58.023941 0.831743 -0.403412 -0.381395 0.262695 0.377322
v_pistol_sheet.bmp
10 -8.180834 -27.241089 58.173943 0.903242 0.300537 -0.306318 0.496094 0.242424
10 -8.220834 -27.241089 58.373943 0.000000 1.000000 0.000000 0.496094 0.261975
10 -8.090834 -27.241089 58.403946 0.973766 0.224612 -0.036462 0.496094 0.261975
v_pistol_sheet.bmp
10 -9.090834 -26.731089 58.413948 0.000000 1.000000 0.000000 0.405273 0.056696
10 -9.240833 -26.731089 58.713947 0.000000 1.000000 0.000000 0.400391 0.076246
10 -9.100833 -26.731089 58.713947 0.000000 1.000000 0.000000 0.405273 0.076246
v_pistol_sheet.bmp
11 -8.660832 -29.560329 60.021400 0.707109 -0.500020 0.499978 0.800781 0.779081
11 -8.730833 -29.510330 60.071404 0.000000 -0.398037 0.917369 0.821289 0.808407
11 -8.730833 -29.560329 60.021400 0.000000 -0.707134 0.707080 0.800781 0.779081
v_pistol_sheet.bmp
11 -8.660833 -29.030331 59.761402 0.443501 0.781171 0.439408 0.881836 0.739003
11 -8.660832 -29.210331 60.081402 0.830866 0.166749 0.530901 0.856445 0.788856
11 -8.650833 -29.590330 59.761402 0.999462 -0.001291 0.032764 0.795898 0.739003
v_pistol_sheet.bmp
11 -8.560830 -22.050333 59.951412 0.339338 -0.000202 0.940664 0.770508 0.954057
11 -8.560830 -22.880333 59.951412 0.596263 0.005230 0.802772 0.770508 0.828935
11 -8.500830 -21.990334 59.861412 0.919688 0.011772 0.392474 0.790039 0.964809
v_pistol_sheet.bmp
11 -8.300830 -21.970333 59.771412 0.110686 0.002460 0.993852 0.714844 0.878788
11 -9.160830 -22.380333 59.771412 0.022519 -0.120137 0.992502 0.683594 0.979472
11 -8.290830 -22.420334 59.771412 0.382982 -0.234809 0.893415 0.664063 0.878788
v_pistol_sheet.bmp
11 -9.060832 -26.510330 59.681408 0.570760 0.137571 0.809510 0.222656 0.964809
11 -9.060832 -26.510330 59.331406 0.998868 0.047565 0.000000 0.243164 0.924731
11 -9.100832 -25.670330 59.331409 0.984257 -0.172533 -0.038349 0.319336 0.929619
v_pistol_sheet.bmp
11 -8.300830 -21.970333 59.771412 0.110686 0.002460 0.993852 0.714844 0.878788
11 -9.160830 -21.970333 59.771412 0.000000 -0.000000 1.000000 0.722982 0.980774
11 -9.160830 -22.380333 59.771412 0.022519 -0.120137 0.992502 0.683594 0.979472
v_pistol_sheet.bmp
11 -9.080832 -21.650331 58.551414 0.958052 -0.000848 -0.286594 0.217773 0.271750
11 -9.100832 -25.110331 59.141407 0.716281 -0.000941 -0.697811 0.030273 0.306940
11 -9.090833 -25.100330 58.861408 0.998694 0.001693 0.051064 0.030273 0.276637
v_pistol_sheet.bmp
11 -8.580830 -21.840332 59.571411 0.000000 0.000001 -1.000000 0.207031 0.382209
11 -8.600831 -25.110332 59.571407 0.000000 0.000001 -1.000000 0.030273 0.382209
11 -8.770831 -25.110332 59.571407 0.539693 0.003021 -0.841856 0.030273 0.362659
v_pistol_sheet.bmp
11 -8.990829 -22.000334 59.841412 -0.832034 -0.000000 -0.554725 0.607422 0.608016
11 -9.010830 -22.000334 59.871410 -0.910964 -0.000000 -0.412486 0.607422 0.612903
11 -8.990829 -21.960333 59.841412 -0.744194 0.447214 -0.496161 0.638672 0.608016
v_pistol_sheet.bmp
11 -8.990829 -21.960333 59.841412 -0.744194 0.447214 -0.496161 0.638672 0.608016
11 -9.010830 -22.000334 59.871410 -0.910964 -0.000000 -0.412486 0.607422 0.612903
11 -9.010830 -21.960333 59.871410 -0.372213 0.922944 -0.098140 0.632813 0.612903
v_pistol_sheet.bmp
11 -9.010830 -22.000334 59.871410 -0.910964 -0.000000 -0.412486 0.607422 0.612903
11 -9.030829 -22.000334 60.081413 -0.982098 -0.000000 0.188370 0.607422 0.668622
11 -9.010830 -21.960333 59.871410 -0.372213 0.922944 -0.098140 0.632813 0.612903
v_pistol_sheet.bmp
11 -9.010830 -21.960333 59.871410 -0.372213 0.922944 -0.098140 0.632813 0.612903
11 -9.030829 -22.000334 60.081413 -0.982098 -0.000000 0.188370 0.607422 0.668622
11 -9.030829 -21.960333 60.081413 -0.824219 0.342043 0.451298 0.632813 0.668622
v_pistol_sheet.bmp
11 -9.030829 -22.000334 60.081413 -0.982098 -0.000000 0.188370 0.607422 0.668622
11 -8.980829 -22.000334 60.131413 -0.382679 -0.000000 0.923881 0.643555 0.698925
11 -9.030829 -21.960333 60.081413 -0.824219 0.342043 0.451298 0.632813 0.668622
v_pistol_sheet.bmp
11 -9.030829 -21.960333 60.081413 -0.824219 0.342043 0.451298 0.632813 0.668622
11 -8.980829 -22.000334 60.131413 -0.382679 -0.000000 0.923881 0.643555 0.698925
11 -8.980829 -21.960333 60.131413 -0.259686 0.734509 0.626945 0.643555 0.683284
v_pistol_sheet.bmp
11 -8.980829 -22.000334 60.131413 -0.382679 -0.000000 0.923881 0.643555 0.698925
11 -8.750830 -21.960333 60.131413 0.556329 0.559104 0.614737 0.699219 0.678397
11 -8.980829 -21.960333 60.131413 -0.259686 0.734509 0.626945 0.643555 0.683284
v_pistol_sheet.bmp
11 -8.980829 -21.960333 60.131413 -0.259686 0.734509 0.626945 0.643555 0.683284
11 -8.750830 -21.960333 60.131413 0.556329 0.559104 0.614737 0.699219 0.678397
11 -9.010830 -21.960333 59.871410 -0.372213 0.922944 -0.098140 0.632813 0.612903
v_pistol_sheet.bmp
11 -8.750830 -21.960333 60.131413 0.556329 0.559104 0.614737 0.699219 0.678397
11 -8.740829 -21.960333 60.031410 0.324580 0.652397 0.684855 0.699219 0.652981
11 -9.010830 -21.960333 59.871410 -0.372213 0.922944 -0.098140 0.632813 0.612903
v_pistol_sheet.bmp
11 -9.010830 -21.960333 59.871410 -0.372213 0.922944 -0.098140 0.632813 0.612903
11 -8.740829 -21.960333 60.031410 0.324580 0.652397 0.684855 0.699219 0.652981
11 -8.600829 -21.960333 60.031410 -0.190099 0.969317 0.155844 0.750000 0.652981
v_pistol_sheet.bmp
11 -8.740829 -21.960333 60.031410 0.324580 0.652397 0.684855 0.699219 0.652981
11 -8.600829 -22.000334 60.031410 -0.773342 -0.000000 0.633989 0.745117 0.668622
11 -8.600829 -21.960333 60.031410 -0.190099 0.969317 0.155844 0.750000 0.652981
v_pistol_sheet.bmp
11 -8.600829 -21.960333 60.031410 -0.190099 0.969317 0.155844 0.750000 0.652981
11 -8.600829 -22.000334 60.031410 -0.773342 -0.000000 0.633989 0.745117 0.668622
11 -8.620830 -21.960333 60.131413 -0.719428 0.366838 0.589790 0.750000 0.678397
v_pistol_sheet.bmp
11 -8.600829 -22.000334 60.031410 -0.773342 -0.000000 0.633989 0.745117 0.668622
11 -8.620830 -22.000334 60.131413 -0.773342 -0.000000 0.633989 0.750000 0.698925
11 -8.620830 -21.960333 60.131413 -0.719428 0.366838 0.589790 0.750000 0.678397
v_pistol_sheet.bmp
11 -8.620830 -21.960333 60.131413 -0.719428 0.366838 0.589790 0.750000 0.678397
11 -8.620830 -22.000334 60.131413 -0.773342 -0.000000 0.633989 0.750000 0.698925
11 -8.370830 -22.000334 60.131413 0.268720 0.134354 0.953802 0.805664 0.698925
v_pistol_sheet.bmp
11 -8.990829 -21.960333 59.841412 -0.744194 0.447214 -0.496161 0.638672 0.608016
11 -9.010830 -21.960333 59.871410 -0.372213 0.922944 -0.098140 0.632813 0.612903
11 -8.340830 -21.960333 59.841412 0.400000 0.894427 -0.200000 0.815430 0.608016
v_pistol_sheet.bmp
11 -8.340830 -21.960333 59.841412 0.400000 0.894427 -0.200000 0.815430 0.608016
11 -9.010830 -21.960333 59.871410 -0.372213 0.922944 -0.098140 0.632813 0.612903
11 -8.330830 -21.960333 59.861412 0.770905 0.610399 -0.181986 0.821289 0.612903
v_pistol_sheet.bmp
11 -9.010830 -21.960333 59.871410 -0.372213 0.922944 -0.098140 0.632813 0.612903
11 -8.600829 -21.960333 60.031410 -0.190099 0.969317 0.155844 0.750000 0.652981
11 -8.330830 -21.960333 59.861412 0.770905 0.610399 -0.181986 0.821289 0.612903
v_pistol_sheet.bmp
11 -8.330830 -21.960333 59.861412 0.770905 0.610399 -0.181986 0.821289 0.612903
11 -8.600829 -21.960333 60.031410 -0.190099 0.969317 0.155844 0.750000 0.652981
11 -8.330830 -21.960333 60.081409 0.607885 0.741228 0.284705 0.821289 0.668622
v_pistol_sheet.bmp
11 -8.600829 -21.960333 60.031410 -0.190099 0.969317 0.155844 0.750000 0.652981
11 -8.390829 -21.960333 60.131413 0.379597 0.656065 0.652292 0.805664 0.678397
11 -8.330830 -21.960333 60.081409 0.607885 0.741228 0.284705 0.821289 0.668622
v_pistol_sheet.bmp
11 -8.330830 -21.960333 60.081409 0.607885 0.741228 0.284705 0.821289 0.668622
11 -8.390829 -21.960333 60.131413 0.379597 0.656065 0.652292 0.805664 0.678397
11 -8.330830 -22.000334 60.081409 0.923559 0.099740 0.370258 0.845703 0.668622
v_pistol_sheet.bmp
11 -8.390829 -21.960333 60.131413 0.379597 0.656065 0.652292 0.805664 0.678397
11 -8.370830 -22.000334 60.131413 0.268720 0.134354 0.953802 0.805664 0.698925
11 -8.330830 -22.000334 60.081409 0.923559 0.099740 0.370258 0.845703 0.668622
v_pistol_sheet.bmp
11 -8.540831 -21.740332 59.141411 -0.028426 0.876717 0.480166 0.460938 0.633431
11 -8.580830 -21.840332 59.571411 0.115208 0.916839 0.382275 0.470703 0.693060
11 -8.040831 -21.910334 59.481411 0.273987 0.883431 0.380107 0.389648 0.683284
v_pistol_sheet.bmp
11 -8.040831 -21.910334 59.481411 0.273987 0.883431 0.380107 0.389648 0.683284
11 -8.580830 -21.840332 59.571411 0.115208 0.916839 0.382275 0.470703 0.693060
11 -8.300830 -21.970333 59.771412 0.042392 0.867375 0.495846 0.425781 0.723363
v_pistol_sheet.bmp
11 -8.580830 -21.840332 59.571411 0.115208 0.916839 0.382275 0.470703 0.693060
11 -8.770830 -21.840332 59.571411 -0.007793 0.839895 0.542693 0.500977 0.693060
11 -8.300830 -21.970333 59.771412 0.042392 0.867375 0.495846 0.425781 0.723363
v_pistol_sheet.bmp
11 -8.300830 -21.970333 59.771412 0.042392 0.867375 0.495846 0.425781 0.723363
11 -8.770830 -21.840332 59.571411 -0.007793 0.839895 0.542693 0.500977 0.693060
11 -9.330830 -21.880333 59.621414 -0.028990 0.894785 0.445554 0.583008 0.703812
v_pistol_sheet.bmp
11 -8.770830 -21.840332 59.571411 -0.007793 0.839895 0.542693 0.500977 0.693060
11 -8.810830 -21.810333 59.521412 0.008292 0.940791 0.338884 0.506836 0.688172
11 -9.330830 -21.880333 59.621414 -0.028990 0.894785 0.445554 0.583008 0.703812
v_pistol_sheet.bmp
11 -9.330830 -21.880333 59.621414 -0.028990 0.894785 0.445554 0.583008 0.703812
11 -8.810830 -21.810333 59.521412 0.008292 0.940791 0.338884 0.506836 0.688172
11 -9.090831 -21.710333 59.141415 0.007221 0.974463 0.224431 0.546875 0.633431
v_pistol_sheet.bmp
11 -8.810830 -21.810333 59.521412 0.008292 0.940791 0.338884 0.506836 0.688172
11 -8.820830 -21.740332 59.141411 0.108679 0.978133 0.177326 0.511719 0.633431
11 -9.090831 -21.710333 59.141415 0.007221 0.974463 0.224431 0.546875 0.633431
v_pistol_sheet.bmp
10 -8.570831 -21.721092 58.743954 -0.066658 0.981585 0.179019 0.937500 0.603128
10 -9.080831 -21.621092 58.533951 -0.072658 0.981842 0.175232 0.881836 0.583578
10 -8.830831 -21.721092 58.743954 0.090664 0.961403 0.259776 0.907227 0.608016
v_pistol_sheet.bmp
10 -8.570831 -21.721092 58.743954 -0.066658 0.981585 0.179019 0.937500 0.603128
10 -8.950831 -21.611090 58.023952 -0.031239 0.997780 0.058812 0.896484 0.527859
10 -9.080831 -21.621092 58.533951 -0.072658 0.981842 0.175232 0.881836 0.583578
v_pistol_sheet.bmp
10 -8.570831 -21.721092 58.743954 -0.066658 0.981585 0.179019 0.937500 0.603128
10 -8.300832 -21.611092 58.063953 -0.045314 0.996723 0.067013 0.967773 0.532747
10 -8.950831 -21.611090 58.023952 -0.031239 0.997780 0.058812 0.896484 0.527859
v_pistol_sheet.bmp
10 -8.570831 -21.721092 58.743954 -0.066658 0.981585 0.179019 0.937500 0.603128
10 -8.310831 -21.621092 58.523952 -0.084908 0.990011 0.112555 0.967773 0.583578
10 -8.300832 -21.611092 58.063953 -0.045314 0.996723 0.067013 0.967773 0.532747
v_pistol_sheet.bmp
10 -8.570831 -21.721092 58.743954 -0.066658 0.981585 0.179019 0.937500 0.603128
10 -8.160830 -21.701092 58.853951 -0.099976 0.975645 0.195250 0.988281 0.617791
10 -8.310831 -21.621092 58.523952 -0.084908 0.990011 0.112555 0.967773 0.583578
v_pistol_sheet.bmp
10 -8.570831 -21.721092 58.743954 -0.066658 0.981585 0.179019 0.937500 0.603128
10 -8.540831 -21.761091 59.153950 -0.075833 0.991857 0.102314 0.942383 0.648094
10 -8.160830 -21.701092 58.853951 -0.099976 0.975645 0.195250 0.988281 0.617791
v_pistol_sheet.bmp
11 -8.560830 -22.050333 59.951412 0.025738 0.823773 0.566335 0.770508 0.954057
11 -8.500830 -21.990334 59.861412 0.008903 0.927443 0.373858 0.790039 0.964809
11 -8.780829 -22.050333 59.961411 0.012876 0.841104 0.540720 0.745117 0.954057
v_pistol_sheet.bmp
11 -8.780829 -22.050333 59.961411 0.012876 0.841104 0.540720 0.745117 0.954057
11 -8.500830 -21.990334 59.861412 0.008903 0.927443 0.373858 0.790039 0.964809
11 -8.830830 -21.990334 59.861412 0.000000 0.984174 0.177203 0.734375 0.964809
v_pistol_sheet.bmp
11 -8.500830 -21.990334 59.861412 0.008903 0.927443 0.373858 0.790039 0.964809
11 -8.510830 -21.990334 59.761410 0.000000 1.000000 0.000000 0.810547 0.964809
11 -8.830830 -21.990334 59.861412 0.000000 0.984174 0.177203 0.734375 0.964809
v_pistol_sheet.bmp
11 -8.830830 -21.990334 59.861412 0.000000 0.984174 0.177203 0.734375 0.964809
11 -8.510830 -21.990334 59.761410 0.000000 1.000000 0.000000 0.810547 0.964809
11 -8.820829 -21.990334 59.761414 0.000000 1.000000 0.000000 0.734375 0.964809
v_pistol_sheet.bmp
10 -9.130831 -21.711092 58.923954 -0.035657 0.983520 0.177249 0.876953 0.628543
10 -9.130831 -21.701092 58.863953 -0.150940 0.975093 0.162515 0.876953 0.617791
10 -9.220831 -21.711092 58.923954 0.000000 0.986394 0.164399 0.861328 0.628543
v_pistol_sheet.bmp
10 -9.130831 -21.711092 58.923954 -0.035657 0.983520 0.177249 0.876953 0.628543
10 -9.080831 -21.621092 58.533951 -0.072658 0.981842 0.175232 0.881836 0.583578
10 -9.130831 -21.701092 58.863953 -0.150940 0.975093 0.162515 0.876953 0.617791
v_pistol_sheet.bmp
10 -9.130831 -21.711092 58.923954 -0.035657 0.983520 0.177249 0.876953 0.628543
10 -8.830831 -21.721092 58.743954 0.090664 0.961403 0.259776 0.907227 0.608016
10 -9.080831 -21.621092 58.533951 -0.072658 0.981842 0.175232 0.881836 0.583578
v_pistol_sheet.bmp
10 -9.130831 -21.711092 58.923954 -0.035657 0.983520 0.177249 0.876953 0.628543
10 -8.830831 -21.761091 59.153954 0.045653 0.986861 0.154985 0.907227 0.648094
10 -8.830831 -21.721092 58.743954 0.090664 0.961403 0.259776 0.907227 0.608016
v_pistol_sheet.bmp
10 -9.130831 -21.711092 58.923954 -0.035657 0.983520 0.177249 0.876953 0.628543
10 -9.040831 -21.761091 59.153954 0.000000 0.977177 0.212427 0.876953 0.648094
10 -8.830831 -21.761091 59.153954 0.045653 0.986861 0.154985 0.907227 0.648094
v_pistol_sheet.bmp
11 -8.540831 -21.740332 59.141411 -0.028426 0.876717 0.480166 0.460938 0.633431
11 -8.040831 -21.910334 59.481411 0.273987 0.883431 0.380107 0.389648 0.683284
11 -8.268383 -21.660334 59.145561 0.137596 0.836915 0.529756 0.415039 0.593353
v_pistol_sheet.bmp
11 -8.268383 -21.660334 59.145561 0.137596 0.836915 0.529756 0.415039 0.593353
11 -8.040831 -21.910334 59.481411 0.273987 0.883431 0.380107 0.389648 0.683284
11 -8.120831 -21.670332 58.941410 0.513631 0.829327 0.219999 0.405273 0.593353
v_pistol_sheet.bmp
11 -8.040831 -21.910334 59.481411 0.273987 0.883431 0.380107 0.389648 0.683284
11 -8.034528 -21.640331 58.561413 0.309518 0.940696 0.138889 0.389648 0.542522
11 -8.120831 -21.670332 58.941410 0.513631 0.829327 0.219999 0.405273 0.593353
v_pistol_sheet.bmp
11 -8.120831 -21.670332 58.941410 0.513631 0.829327 0.219999 0.405273 0.593353
11 -8.034528 -21.640331 58.561413 0.309518 0.940696 0.138889 0.389648 0.542522
11 -8.262079 -21.650333 59.145561 0.065439 0.925486 0.373087 0.405273 0.577713
v_pistol_sheet.bmp
11 -8.034528 -21.640331 58.561413 0.309518 0.940696 0.138889 0.389648 0.542522
11 -8.274527 -21.650333 58.891411 0.074755 0.993617 0.084483 0.419922 0.577713
11 -8.262079 -21.650333 59.145561 0.065439 0.925486 0.373087 0.405273 0.577713
v_pistol_sheet.bmp
11 -8.264526 -22.090332 59.141411 -0.999590 -0.027847 -0.006666 0.719727 0.774194
11 -8.274527 -21.650333 58.891411 -0.999662 -0.008817 0.024470 0.770508 0.783969
11 -8.264527 -22.090332 58.901413 -0.999742 -0.022720 0.000004 0.719727 0.783969
v_pistol_sheet.bmp
11 -8.264526 -22.090332 59.141411 -0.999590 -0.027847 -0.006666 0.719727 0.774194
11 -8.262079 -21.650333 59.145561 0.065439 0.925486 0.373087 0.770508 0.774194
11 -8.274527 -21.650333 58.891411 -0.999662 -0.008817 0.024470 0.770508 0.783969
v_pistol_sheet.bmp
11 -8.264526 -22.090332 59.141411 -0.999590 -0.027847 -0.006666 0.719727 0.774194
11 -8.120831 -21.670332 58.941410 0.513631 0.829327 0.219999 0.764648 0.779081
11 -8.262079 -21.650333 59.145561 0.065439 0.925486 0.373087 0.770508 0.774194
v_pistol_sheet.bmp
11 -8.264526 -22.090332 59.141411 -0.999590 -0.027847 -0.006666 0.719727 0.774194
11 -8.264526 -21.660334 59.141411 0.286609 -0.000000 -0.958048 0.764648 0.793744
11 -8.120831 -21.670332 58.941410 0.513631 0.829327 0.219999 0.764648 0.779081
v_pistol_sheet.bmp
11 -8.264526 -22.090332 59.141411 -0.999590 -0.027847 -0.006666 0.719727 0.774194
11 -8.274528 -22.090332 58.901413 0.999133 -0.000000 -0.041636 0.719727 0.783969
11 -8.264526 -21.660334 59.141411 0.286609 -0.000000 -0.958048 0.764648 0.793744
v_pistol_sheet.bmp
11 -8.330830 -21.960333 59.861412 0.770905 0.610399 -0.181986 0.821289 0.612903
11 -8.340830 -22.000334 59.841412 0.894427 -0.000000 -0.447214 0.840820 0.608016
11 -8.340830 -21.960333 59.841412 0.400000 0.894427 -0.200000 0.815430 0.608016
v_pistol_sheet.bmp
11 -8.330830 -21.960333 59.861412 0.770905 0.610399 -0.181986 0.821289 0.612903
11 -8.330830 -22.000334 59.861412 0.973249 -0.000000 -0.229753 0.845703 0.612903
11 -8.340830 -22.000334 59.841412 0.894427 -0.000000 -0.447214 0.840820 0.608016
v_pistol_sheet.bmp
11 -8.330830 -21.960333 59.861412 0.770905 0.610399 -0.181986 0.821289 0.612903
11 -8.330830 -22.000334 60.081409 0.923559 0.099740 0.370258 0.845703 0.668622
11 -8.330830 -22.000334 59.861412 0.973249 -0.000000 -0.229753 0.845703 0.612903
v_pistol_sheet.bmp
11 -8.330830 -21.960333 59.861412 0.770905 0.610399 -0.181986 0.821289 0.612903
11 -8.330830 -21.960333 60.081409 0.607885 0.741228 0.284705 0.821289 0.668622
11 -8.330830 -22.000334 60.081409 0.923559 0.099740 0.370258 0.845703 0.668622
v_pistol_sheet.bmp
11 -8.740829 -21.960333 60.031410 0.324580 0.652397 0.684855 0.699219 0.652981
11 -8.750830 -21.960333 60.131413 0.556329 0.559104 0.614737 0.699219 0.678397
11 -8.740829 -22.000334 60.031410 0.856549 -0.000000 0.516066 0.704102 0.668622
v_pistol_sheet.bmp
11 -8.740829 -22.000334 60.031410 0.856549 -0.000000 0.516066 0.704102 0.668622
11 -8.750830 -21.960333 60.131413 0.556329 0.559104 0.614737 0.699219 0.678397
11 -8.750830 -22.000334 60.131413 0.671005 -0.000000 0.741453 0.699219 0.698925
v_pistol_sheet.bmp
11 -8.750830 -21.960333 60.131413 0.556329 0.559104 0.614737 0.699219 0.678397
11 -8.980829 -22.000334 60.131413 -0.382679 -0.000000 0.923881 0.643555 0.698925
11 -8.750830 -22.000334 60.131413 0.671005 -0.000000 0.741453 0.699219 0.698925
v_pistol_sheet.bmp
11 -9.260831 -21.590332 58.561413 0.319021 0.917465 0.237663 0.572266 0.542522
11 -9.330831 -21.690332 59.041412 0.104752 0.969752 0.220473 0.587891 0.612903
11 -9.080832 -21.650331 58.551414 0.182060 0.968141 0.171922 0.567383 0.583578
v_pistol_sheet.bmp
11 -9.080832 -21.650331 58.551414 0.182060 0.968141 0.171922 0.567383 0.583578
11 -9.330831 -21.690332 59.041412 0.104752 0.969752 0.220473 0.587891 0.612903
11 -9.090831 -21.710333 59.141415 0.007221 0.974463 0.224431 0.546875 0.633431
v_pistol_sheet.bmp
11 -9.330831 -21.690332 59.041412 0.104752 0.969752 0.220473 0.587891 0.612903
11 -9.330830 -21.880333 59.621414 -0.028990 0.894785 0.445554 0.583008 0.703812
11 -9.090831 -21.710333 59.141415 0.007221 0.974463 0.224431 0.546875 0.633431
v_pistol_sheet.bmp
11 -8.370830 -22.000334 60.131413 0.268720 0.134354 0.953802 0.805664 0.698925
11 -8.390829 -21.960333 60.131413 0.379597 0.656065 0.652292 0.805664 0.678397
11 -8.620830 -21.960333 60.131413 -0.719428 0.366838 0.589790 0.750000 0.678397
v_pistol_sheet.bmp
11 -8.620830 -21.960333 60.131413 -0.719428 0.366838 0.589790 0.750000 0.678397
11 -8.390829 -21.960333 60.131413 0.379597 0.656065 0.652292 0.805664 0.678397
11 -8.600829 -21.960333 60.031410 -0.190099 0.969317 0.155844 0.750000 0.652981
v_pistol_sheet.bmp
11 -8.990829 -22.000334 59.841412 0.000000 -0.000000 -1.000000 0.632813 0.593353
11 -8.990829 -21.960333 59.841412 0.000000 -0.000000 -1.000000 0.632813 0.598240
11 -8.340830 -22.000334 59.841412 0.000000 -0.000000 -1.000000 0.810547 0.593353
v_pistol_sheet.bmp
11 -8.340830 -22.000334 59.841412 0.000000 -0.000000 -1.000000 0.810547 0.593353
11 -8.990829 -21.960333 59.841412 0.000000 -0.000000 -1.000000 0.632813 0.598240
11 -8.340830 -21.960333 59.841412 0.000000 -0.000000 -1.000000 0.810547 0.598240
v_pistol_sheet.bmp
10 -9.080831 -21.621092 58.533951 -0.072658 0.981842 0.175232 0.881836 0.583578
10 -8.950831 -21.611090 58.023952 -0.031239 0.997780 0.058812 0.896484 0.527859
10 -9.270831 -21.671091 58.513954 -0.249831 0.967257 -0.044712 0.861328 0.577713
v_pistol_sheet.bmp
10 -9.220831 -21.711092 58.923954 0.000000 0.986394 0.164399 0.861328 0.628543
10 -9.130831 -21.701092 58.863953 -0.150940 0.975093 0.162515 0.876953 0.617791
10 -9.220831 -21.701092 58.863953 0.000000 0.986394 0.164399 0.861328 0.617791
v_pistol_sheet.bmp
10 -8.310831 -21.621092 58.523952 -0.084908 0.990011 0.112555 0.967773 0.583578
10 -8.060831 -21.681091 58.583950 0.227363 0.973460 0.026105 0.993164 0.583578
10 -8.300832 -21.611092 58.063953 -0.045314 0.996723 0.067013 0.967773 0.532747
v_pistol_sheet.bmp
11 -8.980829 -21.960333 60.131413 -0.259686 0.734509 0.626945 0.643555 0.683284
11 -9.010830 -21.960333 59.871410 -0.372213 0.922944 -0.098140 0.632813 0.612903
11 -9.030829 -21.960333 60.081413 -0.824219 0.342043 0.451298 0.632813 0.668622
v_pistol_sheet.bmp
11 -8.740829 -22.000334 60.031410 0.856549 -0.000000 0.516066 0.704102 0.668622
11 -8.600829 -22.000334 60.031410 -0.773342 -0.000000 0.633989 0.745117 0.668622
11 -8.740829 -21.960333 60.031410 0.324580 0.652397 0.684855 0.699219 0.652981
v_pistol_sheet.bmp
11 -8.300830 -21.970333 59.771412 0.042392 0.867375 0.495846 0.425781 0.723363
11 -9.330830 -21.880333 59.621414 -0.028990 0.894785 0.445554 0.583008 0.703812
11 -9.160830 -21.970333 59.771412 0.000000 0.857489 0.514502 0.545248 0.729552
v_pistol_sheet.bmp
11 -8.300832 -22.010332 58.551411 0.039977 -0.000000 -0.999201 0.734375 0.768328
11 -8.300832 -21.590332 58.551411 0.039977 -0.000000 -0.999201 0.785156 0.768328
11 -8.050832 -21.640331 58.561413 0.039977 -0.000000 -0.999201 0.770508 0.739003
v_pistol_sheet.bmp
11 -8.034528 -21.640331 58.561413 0.309518 0.940696 0.138889 0.389648 0.542522
11 -8.284528 -21.590332 58.551411 0.187046 0.968330 0.165384 0.427083 0.542842
11 -8.274527 -21.650333 58.891411 0.074755 0.993617 0.084483 0.419922 0.577713
end
