version 1
nodes
  0 "ValveBiped.Bip01" -1
  1 "ValveBiped.Bip01_Spine" 0
  2 "ValveBiped.Bip01_Spine1" 1
  3 "ValveBiped.Bip01_Spine2" 2
  4 "ValveBiped.Bip01_Spine4" 3
  5 "ValveBiped.Bip01_R_Clavicle" 4
  6 "ValveBiped.Bip01_R_UpperArm" 5
  7 "ValveBiped.Bip01_R_Forearm" 6
  8 "ValveBiped.Bip01_R_Hand" 7
end
skeleton
time 0
  0   -0.003761 -0.613295 -29.431252 1.570796 0.000000 0.000000
  1   0.000005 3.345127 -2.981899 1.570796 0.086293 1.570796
  2   4.018332 0.000000 0.000000 0.000000 0.000000 -0.029242
  3   3.518565 0.000000 0.000000 0.000000 0.000000 0.100336
  4   8.942641 0.000002 0.000000 0.000000 0.000000 0.194096
  5   2.033355 1.000771 -1.937610 -4.809970 1.855044 6.084449
  6   6.028143 -0.000001 0.000000 1.648166 0.686965 -0.731927
  7   11.692552 0.000000 0.000000 0.000000 0.000000 -0.963080
  8   11.481700 -0.000001 0.000000 -0.877055 0.007870 0.141735
time 1
  0   -0.003761 -0.613295 -29.431252 1.570796 0.000000 0.000000
  1   0.000005 3.345127 -2.981899 1.570796 0.086293 1.570796
  2   4.018332 0.000000 0.000000 0.000000 0.000000 -0.029242
  3   3.518565 0.000000 0.000000 0.000000 0.000000 0.100336
  4   8.942641 0.000002 0.000000 0.000000 0.000000 0.194096
  5   2.033355 1.000771 -1.937610 -4.809970 1.855044 6.084449
  6   6.028143 -0.000001 0.000000 1.644594 0.648506 -0.754834
  7   11.692552 0.000000 0.000000 0.000000 0.000000 -0.998774
  8   11.481700 -0.000001 0.000000 -0.944367 0.007870 0.141735
time 2
  0   -0.003761 -0.613295 -29.431252 1.570796 0.000000 0.000000
  1   0.000005 3.345127 -2.981899 1.570796 0.086293 1.570796
  2   4.018332 0.000000 0.000000 0.000000 0.000000 -0.029242
  3   3.518565 0.000000 0.000000 0.000000 0.000000 0.100336
  4   8.942641 0.000002 0.000000 0.000000 0.000000 0.194096
  5   2.033355 1.000771 -1.937610 -4.809970 1.855044 6.084449
  6   6.028143 -0.000001 0.000000 1.636961 0.548673 -0.809507
  7   11.692552 0.000000 0.000000 0.000000 0.000000 -1.080424
  8   11.481700 -0.000001 0.000000 -1.105181 0.007870 0.141735
time 3
  0   -0.003761 -0.613295 -29.431252 1.570796 0.000000 0.000000
  1   0.000005 3.345127 -2.981899 1.570796 0.086293 1.570796
  2   4.018332 0.000000 0.000000 0.000000 0.000000 -0.029242
  3   3.518565 0.000000 0.000000 0.000000 0.000000 0.100336
  4   8.942641 0.000002 0.000000 0.000000 0.000000 0.194096
  5   2.033355 1.000771 -1.937610 -4.809970 1.855044 6.084449
  6   6.028143 -0.000001 0.000000 1.629118 0.411707 -0.873831
  7   11.692552 0.000000 0.000000 0.000000 0.000000 -1.165593
  8   11.481700 -0.000001 0.000000 -1.296856 0.007870 0.141735
time 4
  0   -0.003761 -0.613295 -29.431252 1.570796 0.000000 0.000000
  1   0.000005 3.345127 -2.981899 1.570796 0.086293 1.570796
  2   4.018332 0.000000 0.000000 0.000000 0.000000 -0.029242
  3   3.518565 0.000000 0.000000 0.000000 0.000000 0.100336
  4   8.942641 0.000002 0.000000 0.000000 0.000000 0.194096
  5   2.033355 1.000771 -1.937610 -4.809970 1.855044 6.084449
  6   6.028143 -0.000001 0.000000 1.622955 0.261851 -0.933817
  7   11.692552 0.000000 0.000000 0.000000 0.000000 -1.219427
  8   11.481700 -0.000001 0.000000 -1.457670 0.007870 0.141735
time 5
  0   -0.003761 -0.613295 -29.431252 1.570796 0.000000 0.000000
  1   0.000005 3.345127 -2.981899 1.570796 0.086293 1.570796
  2   4.018332 0.000000 0.000000 0.000000 0.000000 -0.029242
  3   3.518565 0.000000 0.000000 0.000000 0.000000 0.100336
  4   8.942641 0.000002 0.000000 0.000000 0.000000 0.194096
  5   2.033355 1.000771 -1.937610 -4.809970 1.855044 6.084449
  6   6.028143 -0.000001 0.000000 1.618963 0.122551 -0.983786
  7   11.692552 0.000000 0.000000 0.000000 0.000000 -1.220087
  8   11.481700 -0.000001 0.000000 -1.524982 0.007870 0.141735
time 6
  0   -0.003761 -0.613295 -29.431252 1.570796 0.000000 0.000000
  1   0.000005 3.345127 -2.981899 1.570796 0.086293 1.570796
  2   4.018332 0.000000 0.000000 0.000000 0.000000 -0.029242
  3   3.518565 0.000000 0.000000 0.000000 0.000000 0.100336
  4   8.942641 0.000002 0.000000 0.000000 0.000000 0.194096
  5   2.033355 1.000771 -1.937610 -4.809970 1.855044 6.084449
  6   6.028143 -0.000001 0.000000 1.616512 0.014761 -1.021965
  7   11.692552 0.000000 0.000000 0.000000 0.000000 -1.160279
  8   11.481700 -0.000001 0.000000 -1.524982 0.007870 0.141735
time 7
  0   -0.003761 -0.613295 -29.431252 1.570796 0.000000 0.000000
  1   0.000005 3.345127 -2.981899 1.570796 0.086293 1.570796
  2   4.018332 0.000000 0.000000 0.000000 0.000000 -0.029242
  3   3.518565 0.000000 0.000000 0.000000 0.000000 0.100336
  4   8.942641 0.000002 0.000000 0.000000 0.000000 0.194096
  5   2.033355 1.000771 -1.937610 -4.809970 1.855044 6.084449
  6   6.028143 -0.000001 0.000000 1.615042 -0.049744 -1.049576
  7   11.692552 0.000000 0.000000 0.000000 0.000000 -1.047735
  8   11.481700 -0.000001 0.000000 -1.524982 0.007870 0.141735
time 8
  0   -0.003761 -0.613295 -29.431252 1.570796 0.000000 0.000000
  1   0.000005 3.345127 -2.981899 1.570796 0.086293 1.570796
  2   4.018332 0.000000 0.000000 0.000000 0.000000 -0.029242
  3   3.518565 0.000000 0.000000 0.000000 0.000000 0.100336
  4   8.942641 0.000002 0.000000 0.000000 0.000000 0.194096
  5   2.033355 1.000771 -1.937610 -4.809970 1.855044 6.084449
  6   6.028143 -0.000001 0.000000 1.613851 -0.071121 -1.067597
  7   11.692552 0.000000 0.000000 0.000000 0.000000 -0.904810
  8   11.481700 -0.000001 0.000000 -1.524982 0.007870 0.141735
time 9
  0   -0.003761 -0.613295 -29.431252 1.570796 0.000000 0.000000
  1   0.000005 3.345127 -2.981899 1.570796 0.086293 1.570796
  2   4.018332 0.000000 0.000000 0.000000 0.000000 -0.029242
  3   3.518565 0.000000 0.000000 0.000000 0.000000 0.100336
  4   8.942641 0.000002 0.000000 0.000000 0.000000 0.194096
  5   2.033355 1.000771 -1.937610 -4.809970 1.855044 6.084449
  6   6.028143 -0.000001 0.000000 1.613221 -0.064013 -1.077615
  7   11.692552 0.000000 0.000000 0.000000 0.000000 -0.772147
  8   11.481700 -0.000001 0.000000 -1.524982 0.007870 0.141735
time 10
  0   -0.003761 -0.613295 -29.431252 1.570796 0.000000 0.000000
  1   0.000005 3.345127 -2.981899 1.570796 0.086293 1.570796
  2   4.018332 0.000000 0.000000 0.000000 0.000000 -0.029242
  3   3.518565 0.000000 0.000000 0.000000 0.000000 0.100336
  4   8.942641 0.000002 0.000000 0.000000 0.000000 0.194096
  5   2.033355 1.000771 -1.937610 -4.809970 1.855044 6.084449
  6   6.028143 -0.000001 0.000000 1.612941 -0.055313 -1.080730
  7   11.692552 0.000000 0.000000 0.000000 0.000000 -0.712925
  8   11.481700 -0.000001 0.000000 -1.524982 0.007870 0.141735
end
