version 1
nodes
0 "root" -1
end
skeleton
time 0
0 0.000000 0.000000 0.000000 0.000000 -0.000000 0.000000
end
triangles
sply350.png
0 -4.634426 -1.325076 1.711262 -0.122013 -0.709830 0.693686 0.366331 0.620343
0 -5.365623 0.000693 1.569072 0.351451 0.038453 0.935392 0.285270 0.586805
0 -5.405144 -1.343519 1.679739 0.110874 -0.786676 0.607257 0.280887 0.612906
sply350.png
0 -7.185082 0.000693 0.968867 -0.784967 -0.178320 0.593280 0.083562 0.445236
0 -7.199499 -1.049620 0.511294 -0.725455 -0.557634 0.403363 0.081963 0.337309
0 -7.001750 -1.038873 0.938356 -0.708548 -0.549455 0.442732 0.103886 0.438039
sply350.png
0 -5.365623 0.000693 1.569072 0.351451 0.038453 0.935392 0.285270 0.586805
0 -6.213579 -1.180489 2.442868 -0.197302 -0.547075 0.813471 0.191265 0.792904
0 -5.405144 -1.343519 1.679739 0.110874 -0.786676 0.607257 0.280887 0.612906
sply350.png
0 -0.981822 -1.247795 0.921641 0.347087 -0.695700 0.628895 0.771261 0.434096
0 -2.366076 0.001071 1.585360 0.562120 -0.067354 0.824305 0.617802 0.590647
0 -2.428548 -1.351069 1.517454 0.374859 -0.749382 0.545732 0.610876 0.574630
sply350.png
0 -2.633368 -1.526735 -0.533409 0.027711 -0.985809 -0.165502 0.588169 0.090898
0 -5.588779 -1.330963 -0.889473 -0.118900 -0.620167 -0.775384 0.260529 0.006914
0 -2.601861 -1.366806 -0.880363 0.023225 -0.553911 -0.832240 0.591664 0.009065
sply350.png
0 -7.388013 -1.115368 -0.014690 -0.403363 -0.914151 0.039857 0.061065 0.213249
0 -7.606978 -0.939180 -0.279662 -0.823908 -0.534745 -0.187597 0.036791 0.150749
0 -7.352547 -0.981389 -0.669495 -0.446608 -0.574877 -0.685568 0.064996 0.058800
sply350.png
0 -7.388013 -1.115368 -0.014690 -0.403363 -0.914151 0.039857 0.061065 0.213249
0 -7.352547 -0.981389 -0.669495 -0.446608 -0.574877 -0.685568 0.064996 0.058800
0 -5.588779 -1.330963 -0.889473 -0.118900 -0.620167 -0.775384 0.260529 0.006914
sply350.png
0 -0.971378 -1.406342 -0.527573 0.200476 -0.965392 -0.166723 0.772419 0.092275
0 -2.601861 -1.366806 -0.880363 0.023225 -0.553911 -0.832240 0.591664 0.009065
0 -0.967194 -1.253505 -0.843812 0.183142 -0.539994 -0.821467 0.772883 0.017683
sply350.png
0 -3.456447 -1.424471 0.119027 -0.015717 -0.992584 0.120365 0.496923 0.244787
0 -5.334004 -1.524499 -0.346034 -0.090304 -0.990692 -0.101810 0.288774 0.135093
0 -2.633368 -1.526735 -0.533409 0.027711 -0.985809 -0.165502 0.588169 0.090898
sply350.png
0 0.671279 -0.862947 -0.332336 0.564776 -0.816126 -0.122074 0.954527 0.138327
0 0.996628 -0.384901 0.114621 0.876705 -0.246590 0.412946 0.990596 0.243747
0 0.679668 -0.762067 0.296538 0.580676 -0.561205 0.589740 0.955456 0.286657
sply350.png
0 -7.797757 0.000693 -0.423680 -0.920896 -0.234596 -0.311228 0.015641 0.116781
0 -7.606978 -0.939180 -0.279662 -0.823908 -0.534745 -0.187597 0.036791 0.150749
0 -7.824064 0.001398 -0.163244 -0.962737 -0.210120 0.170110 0.012724 0.178210
sply350.png
0 -6.617406 -1.105060 1.399214 -0.644032 -0.678671 0.352977 0.146495 0.546742
0 -7.001750 -1.038873 0.938356 -0.708548 -0.549455 0.442732 0.103886 0.438039
0 -7.199499 -1.049620 0.511294 -0.725455 -0.557634 0.403363 0.081963 0.337309
sply350.png
0 -6.210876 0.000734 -0.916044 -0.082156 -0.067324 -0.994324 0.191563 0.000650
0 -7.352547 -0.981389 -0.669495 -0.446608 -0.574877 -0.685568 0.064996 0.058800
0 -7.258113 0.000693 -0.793859 -0.243843 -0.098697 -0.964751 0.075465 0.029466
sply350.png
0 -1.144240 0.000682 -0.890409 0.097690 -0.017914 -0.995025 0.753255 0.006694
0 -5.588779 -1.330963 -0.889473 -0.118900 -0.620167 -0.775384 0.260529 0.006914
0 -6.210876 0.000734 -0.916044 -0.082156 -0.067324 -0.994324 0.191563 0.000650
sply350.png
0 -5.405144 -1.343519 1.679739 0.110874 -0.786676 0.607257 0.280887 0.612906
0 -6.617406 -1.105060 1.399214 -0.644032 -0.678671 0.352977 0.146495 0.546742
0 -5.334004 -1.524499 -0.346034 -0.090304 -0.990692 -0.101810 0.288774 0.135093
sply350.png
0 -0.981822 -1.247795 0.921641 0.347087 -0.695700 0.628895 0.771261 0.434096
0 -2.633368 -1.526735 -0.533409 0.027711 -0.985809 -0.165502 0.588169 0.090898
0 -0.971378 -1.406342 -0.527573 0.200476 -0.965392 -0.166723 0.772419 0.092275
sply350.png
0 -7.258113 0.000693 -0.793859 -0.243843 -0.098697 -0.964751 0.075465 0.029466
0 -7.352547 -0.981389 -0.669495 -0.446608 -0.574877 -0.685568 0.064996 0.058800
0 -7.687165 0.000693 -0.611870 -0.684347 -0.186743 -0.704825 0.027901 0.072392
sply350.png
0 0.671279 -0.862947 -0.332336 0.564776 -0.816126 -0.122074 0.954527 0.138327
0 -0.967194 -1.253505 -0.843812 0.183142 -0.539994 -0.821467 0.772883 0.017683
0 0.675726 -0.765513 -0.520008 0.523392 -0.443922 -0.727287 0.955020 0.094061
sply350.png
0 -6.539996 0.000693 1.631651 -0.861202 -0.060488 0.504593 0.155078 0.601563
0 -7.001750 -1.038873 0.938356 -0.708548 -0.549455 0.442732 0.103886 0.438039
0 -6.617406 -1.105060 1.399214 -0.644032 -0.678671 0.352977 0.146495 0.546742
sply350.png
0 -2.957313 -1.325076 2.057167 0.297128 -0.791192 0.534532 0.552256 0.701931
0 -3.456447 -1.424471 0.119027 -0.015717 -0.992584 0.120365 0.496923 0.244787
0 -2.633368 -1.526735 -0.533409 0.027711 -0.985809 -0.165502 0.588169 0.090898
sply350.png
0 0.644136 0.000693 -0.535759 0.376049 -0.004059 -0.926572 0.951518 0.090345
0 0.995978 -0.407180 -0.304168 0.883511 -0.242409 -0.400769 0.990523 0.144970
0 0.675726 -0.765513 -0.520008 0.523392 -0.443922 -0.727287 0.955020 0.094061
sply350.png
0 -6.213579 -1.180489 2.442868 -0.197302 -0.547075 0.813471 0.191265 0.792904
0 -6.539996 0.000693 1.631651 -0.861202 -0.060488 0.504593 0.155078 0.601563
0 -6.617406 -1.105060 1.399214 -0.644032 -0.678671 0.352977 0.146495 0.546742
sply350.png
0 0.679668 -0.762067 0.296538 0.580676 -0.561205 0.589740 0.955456 0.286657
0 -0.971378 -1.406342 -0.527573 0.200476 -0.965392 -0.166723 0.772419 0.092275
0 0.671279 -0.862947 -0.332336 0.564776 -0.816126 -0.122074 0.954527 0.138327
sply350.png
0 -1.144240 0.000682 -0.890409 0.097690 -0.017914 -0.995025 0.753255 0.006694
0 0.675726 -0.765513 -0.520008 0.523392 -0.443922 -0.727287 0.955020 0.094061
0 -0.967194 -1.253505 -0.843812 0.183142 -0.539994 -0.821467 0.772883 0.017683
sply350.png
0 1.011098 0.000699 -0.292385 0.894131 -0.001373 -0.447798 0.992199 0.147750
0 0.996628 -0.384901 0.114621 0.876705 -0.246590 0.412946 0.990596 0.243747
0 0.995978 -0.407180 -0.304168 0.883511 -0.242409 -0.400769 0.990523 0.144970
sply350.png
0 -2.366076 0.001071 1.585360 0.562120 -0.067354 0.824305 0.617802 0.590647
0 0.679668 -0.762067 0.296538 0.580676 -0.561205 0.589740 0.955456 0.286657
0 0.983444 0.001022 0.147053 0.815271 0.016236 0.578784 0.989134 0.251399
sply350.png
0 -3.456447 -1.424471 0.119027 -0.015717 -0.992584 0.120365 0.496923 0.244787
0 -4.634426 -1.325076 1.711262 -0.122013 -0.709830 0.693686 0.366331 0.620343
0 -5.334004 -1.524499 -0.346034 -0.090304 -0.990692 -0.101810 0.288774 0.135093
sply350.png
0 -7.687165 0.000693 -0.611870 -0.684347 -0.186743 -0.704825 0.027901 0.072392
0 -7.606978 -0.939180 -0.279662 -0.823908 -0.534745 -0.187597 0.036791 0.150749
0 -7.797757 0.000693 -0.423680 -0.920896 -0.234596 -0.311228 0.015641 0.116781
sply350.png
0 -2.366076 0.001071 1.585360 0.562120 -0.067354 0.824305 0.617802 0.590647
0 -2.957313 -1.325076 2.057167 0.297128 -0.791192 0.534532 0.552256 0.701931
0 -2.428548 -1.351069 1.517454 0.374859 -0.749382 0.545732 0.610876 0.574630
sply350.png
0 -3.464067 -0.981326 2.832347 -0.039430 -0.434645 0.899716 0.496077 0.884770
0 -3.920390 0.000693 1.665709 -0.578784 0.207831 0.788507 0.445489 0.609599
0 -4.634426 -1.325076 1.711262 -0.122013 -0.709830 0.693686 0.366331 0.620343
sply350.png
0 -2.957532 0.000693 2.211294 0.790216 -0.089816 0.606189 0.552231 0.738284
0 -3.464067 -0.981326 2.832347 -0.039430 -0.434645 0.899716 0.496077 0.884770
0 -2.957313 -1.325076 2.057167 0.297128 -0.791192 0.534532 0.552256 0.701931
sply350.png
0 -7.550395 -1.009436 -0.044963 -0.790368 -0.577624 0.203955 0.043064 0.206108
0 -7.511992 -0.000291 0.456269 -0.845698 -0.206824 0.491897 0.047321 0.324331
0 -7.824064 0.001398 -0.163244 -0.962737 -0.210120 0.170110 0.012724 0.178210
sply350.png
0 -4.634426 1.325076 1.711262 -0.122013 0.709830 0.693686 0.366331 0.620343
0 -5.365623 -0.000693 1.569072 0.351451 -0.038453 0.935392 0.285270 0.586805
0 -3.920390 -0.000693 1.665709 -0.578784 -0.207831 0.788507 0.445489 0.609599
sply350.png
0 -7.199499 1.049620 0.511294 -0.725455 0.557634 0.403363 0.081963 0.337309
0 -7.185082 -0.000693 0.968867 -0.784967 0.178320 0.593280 0.083562 0.445236
0 -7.001750 1.038873 0.938356 -0.708548 0.549455 0.442732 0.103886 0.438039
sply350.png
0 -6.213579 1.180489 2.442868 -0.197302 0.547075 0.813471 0.191265 0.792904
0 -5.365623 -0.000693 1.569072 0.351451 -0.038453 0.935392 0.285270 0.586805
0 -5.405144 1.343519 1.679739 0.110874 0.786676 0.607257 0.280887 0.612906
sply350.png
0 -5.588779 1.330963 -0.889473 -0.118900 0.620167 -0.775384 0.260529 0.006914
0 -2.633368 1.526735 -0.533409 0.027711 0.985809 -0.165502 0.588169 0.090898
0 -2.601860 1.366806 -0.880363 0.023225 0.553911 -0.832240 0.591664 0.009062
sply350.png
0 -7.606978 0.939180 -0.279662 -0.823908 0.534745 -0.187597 0.036791 0.150749
0 -7.388013 1.115368 -0.014690 -0.403363 0.914151 0.039857 0.061065 0.213249
0 -7.352547 0.981389 -0.669495 -0.446608 0.574877 -0.685568 0.064996 0.058800
sply350.png
0 -7.352547 0.981389 -0.669495 -0.446608 0.574877 -0.685568 0.064996 0.058800
0 -7.388013 1.115368 -0.014690 -0.403363 0.914151 0.039857 0.061065 0.213249
0 -5.588779 1.330963 -0.889473 -0.118900 0.620167 -0.775384 0.260529 0.006914
sply350.png
0 -2.601860 1.366806 -0.880363 0.023225 0.553911 -0.832240 0.591664 0.009062
0 -0.971378 1.406342 -0.527573 0.200476 0.965392 -0.166723 0.772419 0.092275
0 -0.967194 1.253505 -0.843812 0.183142 0.539994 -0.821467 0.772883 0.017683
sply350.png
0 -5.334004 1.524499 -0.346033 -0.090304 0.990692 -0.101810 0.288774 0.135093
0 -3.456447 1.424471 0.119027 -0.015717 0.992584 0.120365 0.496923 0.244787
0 -2.633368 1.526735 -0.533409 0.027711 0.985809 -0.165502 0.588169 0.090898
sply350.png
0 0.996628 0.384901 0.114621 0.876705 0.246590 0.412946 0.990596 0.243747
0 0.671279 0.862947 -0.332336 0.564776 0.816126 -0.122074 0.954527 0.138327
0 0.679668 0.762067 0.296538 0.580676 0.561205 0.589740 0.955456 0.286657
sply350.png
0 -6.210877 -0.000734 -0.916044 -0.082156 0.067324 -0.994324 0.191563 0.000650
0 -7.352547 0.981389 -0.669495 -0.446608 0.574877 -0.685568 0.064996 0.058800
0 -5.588779 1.330963 -0.889473 -0.118900 0.620167 -0.775384 0.260529 0.006914
sply350.png
0 -1.144240 -0.000682 -0.890409 0.097690 0.017914 -0.995025 0.753255 0.006694
0 -5.588779 1.330963 -0.889473 -0.118900 0.620167 -0.775384 0.260529 0.006914
0 -2.601860 1.366806 -0.880363 0.023225 0.553911 -0.832240 0.591664 0.009062
sply350.png
0 -6.617406 1.105060 1.399214 -0.644032 0.678671 0.352977 0.146495 0.546742
0 -5.405144 1.343519 1.679739 0.110874 0.786676 0.607257 0.280887 0.612906
0 -5.334004 1.524499 -0.346033 -0.090304 0.990692 -0.101810 0.288774 0.135093
sply350.png
0 -2.633368 1.526735 -0.533409 0.027711 0.985809 -0.165502 0.588169 0.090898
0 -0.981822 1.247795 0.921641 0.347087 0.695700 0.628895 0.771261 0.434096
0 -0.971378 1.406342 -0.527573 0.200476 0.965392 -0.166723 0.772419 0.092275
sply350.png
0 -7.388013 1.115368 -0.014690 -0.403363 0.914151 0.039857 0.061065 0.213249
0 -7.199499 1.049620 0.511294 -0.725455 0.557634 0.403363 0.081963 0.337309
0 -6.617406 1.105060 1.399214 -0.644032 0.678671 0.352977 0.146495 0.546742
sply350.png
0 -0.967194 1.253505 -0.843812 0.183142 0.539994 -0.821467 0.772883 0.017683
0 0.671279 0.862947 -0.332336 0.564776 0.816126 -0.122074 0.954527 0.138327
0 0.675726 0.765513 -0.520008 0.523392 0.443922 -0.727287 0.955020 0.094061
sply350.png
0 -7.001750 1.038873 0.938356 -0.708548 0.549455 0.442732 0.103886 0.438039
0 -6.539996 -0.000693 1.631651 -0.861202 0.060488 0.504593 0.155078 0.601563
0 -6.617406 1.105060 1.399214 -0.644032 0.678671 0.352977 0.146495 0.546742
sply350.png
0 -3.456447 1.424471 0.119027 -0.015717 0.992584 0.120365 0.496923 0.244787
0 -2.957313 1.325076 2.057167 0.297128 0.791192 0.534532 0.552256 0.701931
0 -2.633368 1.526735 -0.533409 0.027711 0.985809 -0.165502 0.588169 0.090898
sply350.png
0 0.995978 0.407180 -0.304168 0.883511 0.242409 -0.400769 0.990523 0.144970
0 0.644136 -0.000693 -0.535759 0.376049 0.004059 -0.926572 0.951518 0.090345
0 0.675726 0.765513 -0.520008 0.523392 0.443922 -0.727287 0.955020 0.094061
sply350.png
0 -6.213579 1.180489 2.442868 -0.197302 0.547075 0.813471 0.191265 0.792904
0 -6.539996 -0.000693 1.631651 -0.861202 0.060488 0.504593 0.155078 0.601563
0 -6.198517 -0.000693 2.517152 -0.163091 0.059847 0.984771 0.192933 0.810427
sply350.png
0 -0.971378 1.406342 -0.527573 0.200476 0.965392 -0.166723 0.772419 0.092275
0 0.679668 0.762067 0.296538 0.580676 0.561205 0.589740 0.955456 0.286657
0 0.671279 0.862947 -0.332336 0.564776 0.816126 -0.122074 0.954527 0.138327
sply350.png
0 0.983444 -0.001022 0.147053 0.815271 -0.016236 0.578784 0.989134 0.251399
0 0.996628 0.384901 0.114621 0.876705 0.246590 0.412946 0.990596 0.243747
0 0.679668 0.762067 0.296538 0.580676 0.561205 0.589740 0.955456 0.286657
sply350.png
0 -1.144240 -0.000682 -0.890409 0.097690 0.017914 -0.995025 0.753255 0.006694
0 0.675726 0.765513 -0.520008 0.523392 0.443922 -0.727287 0.955020 0.094061
0 0.644136 -0.000693 -0.535759 0.376049 0.004059 -0.926572 0.951518 0.090345
sply350.png
0 1.011098 -0.000699 -0.292385 0.894131 0.001373 -0.447798 0.992199 0.147750
0 0.996628 0.384901 0.114621 0.876705 0.246590 0.412946 0.990596 0.243747
0 0.983444 -0.001022 0.147053 0.815271 -0.016236 0.578784 0.989134 0.251399
sply350.png
0 0.679668 0.762067 0.296538 0.580676 0.561205 0.589740 0.955456 0.286657
0 -2.366076 -0.001071 1.585361 0.562120 0.067354 0.824305 0.617802 0.590647
0 0.983444 -0.001022 0.147053 0.815271 -0.016236 0.578784 0.989134 0.251399
sply350.png
0 0.671279 0.862947 -0.332336 0.564776 0.816126 -0.122074 0.954527 0.138327
0 0.995978 0.407180 -0.304168 0.883511 0.242409 -0.400769 0.990523 0.144970
0 0.675726 0.765513 -0.520008 0.523392 0.443922 -0.727287 0.955020 0.094061
sply350.png
0 -3.456447 1.424471 0.119027 -0.015717 0.992584 0.120365 0.496923 0.244787
0 -4.634426 1.325076 1.711262 -0.122013 0.709830 0.693686 0.366331 0.620343
0 -3.464067 0.981326 2.832347 -0.039430 0.434645 0.899716 0.496077 0.884770
sply350.png
0 -7.687165 -0.000693 -0.611870 -0.684347 0.186743 -0.704825 0.027901 0.072392
0 -7.606978 0.939180 -0.279662 -0.823908 0.534745 -0.187597 0.036791 0.150749
0 -7.352547 0.981389 -0.669495 -0.446608 0.574877 -0.685568 0.064996 0.058800
sply350.png
0 -7.388013 1.115368 -0.014690 -0.403363 0.914151 0.039857 0.061065 0.213249
0 -7.550395 1.009436 -0.044963 -0.790368 0.577624 0.203955 0.043064 0.206108
0 -7.199499 1.049620 0.511294 -0.725455 0.557634 0.403363 0.081963 0.337309
sply350.png
0 -7.606978 0.939180 -0.279662 -0.823908 0.534745 -0.187597 0.036791 0.150749
0 -7.550395 1.009436 -0.044963 -0.790368 0.577624 0.203955 0.043064 0.206108
0 -7.388013 1.115368 -0.014690 -0.403363 0.914151 0.039857 0.061065 0.213249
sply350.png
0 -2.957313 1.325076 2.057167 0.297128 0.791192 0.534532 0.552256 0.701931
0 -2.366076 -0.001071 1.585361 0.562120 0.067354 0.824305 0.617802 0.590647
0 -2.428548 1.351069 1.517454 0.374859 0.749382 0.545732 0.610876 0.574630
sply350.png
0 -7.606978 0.939180 -0.279662 -0.823908 0.534745 -0.187597 0.036791 0.150749
0 -7.824064 -0.001398 -0.163244 -0.962737 0.210120 0.170110 0.012724 0.178210
0 -7.550395 1.009436 -0.044963 -0.790368 0.577624 0.203955 0.043064 0.206108
sply350.png
0 -3.464067 0.981326 2.832347 -0.039430 0.434645 0.899716 0.496077 0.884770
0 -3.920390 -0.000693 1.665709 -0.578784 -0.207831 0.788507 0.445489 0.609599
0 -3.397469 -0.000693 2.966314 -0.032807 0.132908 0.990570 0.503461 0.916369
sply350.png
0 -3.464067 0.981326 2.832347 -0.039430 0.434645 0.899716 0.496077 0.884770
0 -2.957532 -0.000693 2.211294 0.790216 0.089816 0.606189 0.552231 0.738284
0 -2.957313 1.325076 2.057167 0.297128 0.791192 0.534532 0.552256 0.701931
sply350.png
0 -7.550395 1.009436 -0.044963 -0.790368 0.577624 0.203955 0.043064 0.206108
0 -7.511992 -0.000291 0.456269 -0.845698 0.206824 0.491897 0.047321 0.324331
0 -7.199499 1.049620 0.511294 -0.725455 0.557634 0.403363 0.081963 0.337309
sply350.png
0 -4.634426 -1.325076 1.711262 -0.122013 -0.709830 0.693686 0.366331 0.620343
0 -3.920390 0.000693 1.665709 -0.578784 0.207831 0.788507 0.445489 0.609599
0 -5.365623 0.000693 1.569072 0.351451 0.038453 0.935392 0.285270 0.586805
sply350.png
0 -7.185082 0.000693 0.968867 -0.784967 -0.178320 0.593280 0.083562 0.445236
0 -7.511992 -0.000291 0.456269 -0.845698 -0.206824 0.491897 0.047321 0.324331
0 -7.199499 -1.049620 0.511294 -0.725455 -0.557634 0.403363 0.081963 0.337309
sply350.png
0 -5.365623 0.000693 1.569072 0.351451 0.038453 0.935392 0.285270 0.586805
0 -6.198517 0.000693 2.517152 -0.163091 -0.059847 0.984771 0.192933 0.810427
0 -6.213579 -1.180489 2.442868 -0.197302 -0.547075 0.813471 0.191265 0.792904
sply350.png
0 -2.633368 -1.526735 -0.533409 0.027711 -0.985809 -0.165502 0.588169 0.090898
0 -5.334004 -1.524499 -0.346034 -0.090304 -0.990692 -0.101810 0.288774 0.135093
0 -5.588779 -1.330963 -0.889473 -0.118900 -0.620167 -0.775384 0.260529 0.006914
sply350.png
0 -0.971378 -1.406342 -0.527573 0.200476 -0.965392 -0.166723 0.772419 0.092275
0 -2.633368 -1.526735 -0.533409 0.027711 -0.985809 -0.165502 0.588169 0.090898
0 -2.601861 -1.366806 -0.880363 0.023225 -0.553911 -0.832240 0.591664 0.009065
sply350.png
0 0.671279 -0.862947 -0.332336 0.564776 -0.816126 -0.122074 0.954527 0.138327
0 0.995978 -0.407180 -0.304168 0.883511 -0.242409 -0.400769 0.990523 0.144970
0 0.996628 -0.384901 0.114621 0.876705 -0.246590 0.412946 0.990596 0.243747
sply350.png
0 -6.210876 0.000734 -0.916044 -0.082156 -0.067324 -0.994324 0.191563 0.000650
0 -5.588779 -1.330963 -0.889473 -0.118900 -0.620167 -0.775384 0.260529 0.006914
0 -7.352547 -0.981389 -0.669495 -0.446608 -0.574877 -0.685568 0.064996 0.058800
sply350.png
0 -1.144240 0.000682 -0.890409 0.097690 -0.017914 -0.995025 0.753255 0.006694
0 -2.601861 -1.366806 -0.880363 0.023225 -0.553911 -0.832240 0.591664 0.009065
0 -5.588779 -1.330963 -0.889473 -0.118900 -0.620167 -0.775384 0.260529 0.006914
sply350.png
0 -5.405144 -1.343519 1.679739 0.110874 -0.786676 0.607257 0.280887 0.612906
0 -6.213579 -1.180489 2.442868 -0.197302 -0.547075 0.813471 0.191265 0.792904
0 -6.617406 -1.105060 1.399214 -0.644032 -0.678671 0.352977 0.146495 0.546742
sply350.png
0 -0.981822 -1.247795 0.921641 0.347087 -0.695700 0.628895 0.771261 0.434096
0 -2.428548 -1.351069 1.517454 0.374859 -0.749382 0.545732 0.610876 0.574630
0 -2.633368 -1.526735 -0.533409 0.027711 -0.985809 -0.165502 0.588169 0.090898
sply350.png
0 -7.388013 -1.115368 -0.014690 -0.403363 -0.914151 0.039857 0.061065 0.213249
0 -6.617406 -1.105060 1.399214 -0.644032 -0.678671 0.352977 0.146495 0.546742
0 -7.199499 -1.049620 0.511294 -0.725455 -0.557634 0.403363 0.081963 0.337309
sply350.png
0 0.671279 -0.862947 -0.332336 0.564776 -0.816126 -0.122074 0.954527 0.138327
0 -0.971378 -1.406342 -0.527573 0.200476 -0.965392 -0.166723 0.772419 0.092275
0 -0.967194 -1.253505 -0.843812 0.183142 -0.539994 -0.821467 0.772883 0.017683
sply350.png
0 -6.539996 0.000693 1.631651 -0.861202 -0.060488 0.504593 0.155078 0.601563
0 -7.185082 0.000693 0.968867 -0.784967 -0.178320 0.593280 0.083562 0.445236
0 -7.001750 -1.038873 0.938356 -0.708548 -0.549455 0.442732 0.103886 0.438039
sply350.png
0 -2.957313 -1.325076 2.057167 0.297128 -0.791192 0.534532 0.552256 0.701931
0 -3.464067 -0.981326 2.832347 -0.039430 -0.434645 0.899716 0.496077 0.884770
0 -3.456447 -1.424471 0.119027 -0.015717 -0.992584 0.120365 0.496923 0.244787
sply350.png
0 -4.634426 -1.325076 1.711262 -0.122013 -0.709830 0.693686 0.366331 0.620343
0 -5.405144 -1.343519 1.679739 0.110874 -0.786676 0.607257 0.280887 0.612906
0 -5.334004 -1.524499 -0.346034 -0.090304 -0.990692 -0.101810 0.288774 0.135093
sply350.png
0 0.644136 0.000693 -0.535759 0.376049 -0.004059 -0.926572 0.951518 0.090345
0 1.011098 0.000699 -0.292385 0.894131 -0.001373 -0.447798 0.992199 0.147750
0 0.995978 -0.407180 -0.304168 0.883511 -0.242409 -0.400769 0.990523 0.144970
sply350.png
0 -6.213579 -1.180489 2.442868 -0.197302 -0.547075 0.813471 0.191265 0.792904
0 -6.198517 0.000693 2.517152 -0.163091 -0.059847 0.984771 0.192933 0.810427
0 -6.539996 0.000693 1.631651 -0.861202 -0.060488 0.504593 0.155078 0.601563
sply350.png
0 0.679668 -0.762067 0.296538 0.580676 -0.561205 0.589740 0.955456 0.286657
0 -0.981822 -1.247795 0.921641 0.347087 -0.695700 0.628895 0.771261 0.434096
0 -0.971378 -1.406342 -0.527573 0.200476 -0.965392 -0.166723 0.772419 0.092275
sply350.png
0 0.983444 0.001022 0.147053 0.815271 0.016236 0.578784 0.989134 0.251399
0 0.679668 -0.762067 0.296538 0.580676 -0.561205 0.589740 0.955456 0.286657
0 0.996628 -0.384901 0.114621 0.876705 -0.246590 0.412946 0.990596 0.243747
sply350.png
0 -1.144240 0.000682 -0.890409 0.097690 -0.017914 -0.995025 0.753255 0.006694
0 0.644136 0.000693 -0.535759 0.376049 -0.004059 -0.926572 0.951518 0.090345
0 0.675726 -0.765513 -0.520008 0.523392 -0.443922 -0.727287 0.955020 0.094061
sply350.png
0 1.011098 0.000699 -0.292385 0.894131 -0.001373 -0.447798 0.992199 0.147750
0 0.983444 0.001022 0.147053 0.815271 0.016236 0.578784 0.989134 0.251399
0 0.996628 -0.384901 0.114621 0.876705 -0.246590 0.412946 0.990596 0.243747
sply350.png
0 -2.366076 0.001071 1.585360 0.562120 -0.067354 0.824305 0.617802 0.590647
0 -0.981822 -1.247795 0.921641 0.347087 -0.695700 0.628895 0.771261 0.434096
0 0.679668 -0.762067 0.296538 0.580676 -0.561205 0.589740 0.955456 0.286657
sply350.png
0 0.671279 -0.862947 -0.332336 0.564776 -0.816126 -0.122074 0.954527 0.138327
0 0.675726 -0.765513 -0.520008 0.523392 -0.443922 -0.727287 0.955020 0.094061
0 0.995978 -0.407180 -0.304168 0.883511 -0.242409 -0.400769 0.990523 0.144970
sply350.png
0 -2.428548 -1.351069 1.517454 0.374859 -0.749382 0.545732 0.610876 0.574630
0 -2.957313 -1.325076 2.057167 0.297128 -0.791192 0.534532 0.552256 0.701931
0 -2.633368 -1.526735 -0.533409 0.027711 -0.985809 -0.165502 0.588169 0.090898
sply350.png
0 -0.967194 -1.253505 -0.843812 0.183142 -0.539994 -0.821467 0.772883 0.017683
0 -2.601861 -1.366806 -0.880363 0.023225 -0.553911 -0.832240 0.591664 0.009065
0 -1.144240 0.000682 -0.890409 0.097690 -0.017914 -0.995025 0.753255 0.006694
sply350.png
0 -3.456447 -1.424471 0.119027 -0.015717 -0.992584 0.120365 0.496923 0.244787
0 -3.464067 -0.981326 2.832347 -0.039430 -0.434645 0.899716 0.496077 0.884770
0 -4.634426 -1.325076 1.711262 -0.122013 -0.709830 0.693686 0.366331 0.620343
sply350.png
0 -7.687165 0.000693 -0.611870 -0.684347 -0.186743 -0.704825 0.027901 0.072392
0 -7.352547 -0.981389 -0.669495 -0.446608 -0.574877 -0.685568 0.064996 0.058800
0 -7.606978 -0.939180 -0.279662 -0.823908 -0.534745 -0.187597 0.036791 0.150749
sply350.png
0 -7.388013 -1.115368 -0.014690 -0.403363 -0.914151 0.039857 0.061065 0.213249
0 -7.199499 -1.049620 0.511294 -0.725455 -0.557634 0.403363 0.081963 0.337309
0 -7.550395 -1.009436 -0.044963 -0.790368 -0.577624 0.203955 0.043064 0.206108
sply350.png
0 -5.334004 -1.524499 -0.346034 -0.090304 -0.990692 -0.101810 0.288774 0.135093
0 -6.617406 -1.105060 1.399214 -0.644032 -0.678671 0.352977 0.146495 0.546742
0 -7.388013 -1.115368 -0.014690 -0.403363 -0.914151 0.039857 0.061065 0.213249
sply350.png
0 -5.334004 -1.524499 -0.346034 -0.090304 -0.990692 -0.101810 0.288774 0.135093
0 -7.388013 -1.115368 -0.014690 -0.403363 -0.914151 0.039857 0.061065 0.213249
0 -5.588779 -1.330963 -0.889473 -0.118900 -0.620167 -0.775384 0.260529 0.006914
sply350.png
0 -7.606978 -0.939180 -0.279662 -0.823908 -0.534745 -0.187597 0.036791 0.150749
0 -7.388013 -1.115368 -0.014690 -0.403363 -0.914151 0.039857 0.061065 0.213249
0 -7.550395 -1.009436 -0.044963 -0.790368 -0.577624 0.203955 0.043064 0.206108
sply350.png
0 -2.366076 0.001071 1.585360 0.562120 -0.067354 0.824305 0.617802 0.590647
0 -2.957532 0.000693 2.211294 0.790216 -0.089816 0.606189 0.552231 0.738284
0 -2.957313 -1.325076 2.057167 0.297128 -0.791192 0.534532 0.552256 0.701931
sply350.png
0 -7.606978 -0.939180 -0.279662 -0.823908 -0.534745 -0.187597 0.036791 0.150749
0 -7.550395 -1.009436 -0.044963 -0.790368 -0.577624 0.203955 0.043064 0.206108
0 -7.824064 0.001398 -0.163244 -0.962737 -0.210120 0.170110 0.012724 0.178210
sply350.png
0 -3.464067 -0.981326 2.832347 -0.039430 -0.434645 0.899716 0.496077 0.884770
0 -3.397469 0.000693 2.966314 -0.032807 -0.132908 0.990570 0.503461 0.916369
0 -3.920390 0.000693 1.665709 -0.578784 0.207831 0.788507 0.445489 0.609599
sply350.png
0 -2.957532 0.000693 2.211294 0.790216 -0.089816 0.606189 0.552231 0.738284
0 -3.397469 0.000693 2.966314 -0.032807 -0.132908 0.990570 0.503461 0.916369
0 -3.464067 -0.981326 2.832347 -0.039430 -0.434645 0.899716 0.496077 0.884770
sply350.png
0 -7.550395 -1.009436 -0.044963 -0.790368 -0.577624 0.203955 0.043064 0.206108
0 -7.199499 -1.049620 0.511294 -0.725455 -0.557634 0.403363 0.081963 0.337309
0 -7.511992 -0.000291 0.456269 -0.845698 -0.206824 0.491897 0.047321 0.324331
sply350.png
0 -4.634426 1.325076 1.711262 -0.122013 0.709830 0.693686 0.366331 0.620343
0 -5.405144 1.343519 1.679739 0.110874 0.786676 0.607257 0.280887 0.612906
0 -5.365623 -0.000693 1.569072 0.351451 -0.038453 0.935392 0.285270 0.586805
sply350.png
0 -7.199499 1.049620 0.511294 -0.725455 0.557634 0.403363 0.081963 0.337309
0 -7.511992 -0.000291 0.456269 -0.845698 0.206824 0.491897 0.047321 0.324331
0 -7.185082 -0.000693 0.968867 -0.784967 0.178320 0.593280 0.083562 0.445236
sply350.png
0 -6.213579 1.180489 2.442868 -0.197302 0.547075 0.813471 0.191265 0.792904
0 -6.198517 -0.000693 2.517152 -0.163091 0.059847 0.984771 0.192933 0.810427
0 -5.365623 -0.000693 1.569072 0.351451 -0.038453 0.935392 0.285270 0.586805
sply350.png
0 -0.981822 1.247795 0.921641 0.347087 0.695700 0.628895 0.771261 0.434096
0 -2.428548 1.351069 1.517454 0.374859 0.749382 0.545732 0.610876 0.574630
0 -2.366076 -0.001071 1.585361 0.562120 0.067354 0.824305 0.617802 0.590647
sply350.png
0 -5.588779 1.330963 -0.889473 -0.118900 0.620167 -0.775384 0.260529 0.006914
0 -5.334004 1.524499 -0.346033 -0.090304 0.990692 -0.101810 0.288774 0.135093
0 -2.633368 1.526735 -0.533409 0.027711 0.985809 -0.165502 0.588169 0.090898
sply350.png
0 -2.601860 1.366806 -0.880363 0.023225 0.553911 -0.832240 0.591664 0.009062
0 -2.633368 1.526735 -0.533409 0.027711 0.985809 -0.165502 0.588169 0.090898
0 -0.971378 1.406342 -0.527573 0.200476 0.965392 -0.166723 0.772419 0.092275
sply350.png
0 0.996628 0.384901 0.114621 0.876705 0.246590 0.412946 0.990596 0.243747
0 0.995978 0.407180 -0.304168 0.883511 0.242409 -0.400769 0.990523 0.144970
0 0.671279 0.862947 -0.332336 0.564776 0.816126 -0.122074 0.954527 0.138327
sply350.png
0 -7.797757 -0.000693 -0.423680 -0.920896 0.234596 -0.311228 0.015641 0.116781
0 -7.824064 -0.001398 -0.163244 -0.962737 0.210120 0.170110 0.012724 0.178210
0 -7.606978 0.939180 -0.279662 -0.823908 0.534745 -0.187597 0.036791 0.150749
sply350.png
0 -6.617406 1.105060 1.399214 -0.644032 0.678671 0.352977 0.146495 0.546742
0 -7.199499 1.049620 0.511294 -0.725455 0.557634 0.403363 0.081963 0.337309
0 -7.001750 1.038873 0.938356 -0.708548 0.549455 0.442732 0.103886 0.438039
sply350.png
0 -6.210877 -0.000734 -0.916044 -0.082156 0.067324 -0.994324 0.191563 0.000650
0 -7.258113 -0.000693 -0.793859 -0.243843 0.098697 -0.964751 0.075465 0.029466
0 -7.352547 0.981389 -0.669495 -0.446608 0.574877 -0.685568 0.064996 0.058800
sply350.png
0 -1.144240 -0.000682 -0.890409 0.097690 0.017914 -0.995025 0.753255 0.006694
0 -6.210877 -0.000734 -0.916044 -0.082156 0.067324 -0.994324 0.191563 0.000650
0 -5.588779 1.330963 -0.889473 -0.118900 0.620167 -0.775384 0.260529 0.006914
sply350.png
0 -6.617406 1.105060 1.399214 -0.644032 0.678671 0.352977 0.146495 0.546742
0 -6.213579 1.180489 2.442868 -0.197302 0.547075 0.813471 0.191265 0.792904
0 -5.405144 1.343519 1.679739 0.110874 0.786676 0.607257 0.280887 0.612906
sply350.png
0 -2.633368 1.526735 -0.533409 0.027711 0.985809 -0.165502 0.588169 0.090898
0 -2.428548 1.351069 1.517454 0.374859 0.749382 0.545732 0.610876 0.574630
0 -0.981822 1.247795 0.921641 0.347087 0.695700 0.628895 0.771261 0.434096
sply350.png
0 -7.258113 -0.000693 -0.793859 -0.243843 0.098697 -0.964751 0.075465 0.029466
0 -7.687165 -0.000693 -0.611870 -0.684347 0.186743 -0.704825 0.027901 0.072392
0 -7.352547 0.981389 -0.669495 -0.446608 0.574877 -0.685568 0.064996 0.058800
sply350.png
0 -0.967194 1.253505 -0.843812 0.183142 0.539994 -0.821467 0.772883 0.017683
0 -0.971378 1.406342 -0.527573 0.200476 0.965392 -0.166723 0.772419 0.092275
0 0.671279 0.862947 -0.332336 0.564776 0.816126 -0.122074 0.954527 0.138327
sply350.png
0 -7.001750 1.038873 0.938356 -0.708548 0.549455 0.442732 0.103886 0.438039
0 -7.185082 -0.000693 0.968867 -0.784967 0.178320 0.593280 0.083562 0.445236
0 -6.539996 -0.000693 1.631651 -0.861202 0.060488 0.504593 0.155078 0.601563
sply350.png
0 -3.456447 1.424471 0.119027 -0.015717 0.992584 0.120365 0.496923 0.244787
0 -3.464067 0.981326 2.832347 -0.039430 0.434645 0.899716 0.496077 0.884770
0 -2.957313 1.325076 2.057167 0.297128 0.791192 0.534532 0.552256 0.701931
sply350.png
0 -5.334004 1.524499 -0.346033 -0.090304 0.990692 -0.101810 0.288774 0.135093
0 -5.405144 1.343519 1.679739 0.110874 0.786676 0.607257 0.280887 0.612906
0 -4.634426 1.325076 1.711262 -0.122013 0.709830 0.693686 0.366331 0.620343
sply350.png
0 0.995978 0.407180 -0.304168 0.883511 0.242409 -0.400769 0.990523 0.144970
0 1.011098 -0.000699 -0.292385 0.894131 0.001373 -0.447798 0.992199 0.147750
0 0.644136 -0.000693 -0.535759 0.376049 0.004059 -0.926572 0.951518 0.090345
sply350.png
0 -6.213579 1.180489 2.442868 -0.197302 0.547075 0.813471 0.191265 0.792904
0 -6.617406 1.105060 1.399214 -0.644032 0.678671 0.352977 0.146495 0.546742
0 -6.539996 -0.000693 1.631651 -0.861202 0.060488 0.504593 0.155078 0.601563
sply350.png
0 -0.971378 1.406342 -0.527573 0.200476 0.965392 -0.166723 0.772419 0.092275
0 -0.981822 1.247795 0.921641 0.347087 0.695700 0.628895 0.771261 0.434096
0 0.679668 0.762067 0.296538 0.580676 0.561205 0.589740 0.955456 0.286657
sply350.png
0 -1.144240 -0.000682 -0.890409 0.097690 0.017914 -0.995025 0.753255 0.006694
0 -0.967194 1.253505 -0.843812 0.183142 0.539994 -0.821467 0.772883 0.017683
0 0.675726 0.765513 -0.520008 0.523392 0.443922 -0.727287 0.955020 0.094061
sply350.png
0 1.011098 -0.000699 -0.292385 0.894131 0.001373 -0.447798 0.992199 0.147750
0 0.995978 0.407180 -0.304168 0.883511 0.242409 -0.400769 0.990523 0.144970
0 0.996628 0.384901 0.114621 0.876705 0.246590 0.412946 0.990596 0.243747
sply350.png
0 0.679668 0.762067 0.296538 0.580676 0.561205 0.589740 0.955456 0.286657
0 -0.981822 1.247795 0.921641 0.347087 0.695700 0.628895 0.771261 0.434096
0 -2.366076 -0.001071 1.585361 0.562120 0.067354 0.824305 0.617802 0.590647
sply350.png
0 -2.633368 1.526735 -0.533409 0.027711 0.985809 -0.165502 0.588169 0.090898
0 -2.957313 1.325076 2.057167 0.297128 0.791192 0.534532 0.552256 0.701931
0 -2.428548 1.351069 1.517454 0.374859 0.749382 0.545732 0.610876 0.574630
sply350.png
0 -1.144240 -0.000682 -0.890409 0.097690 0.017914 -0.995025 0.753255 0.006694
0 -2.601860 1.366806 -0.880363 0.023225 0.553911 -0.832240 0.591664 0.009062
0 -0.967194 1.253505 -0.843812 0.183142 0.539994 -0.821467 0.772883 0.017683
sply350.png
0 -3.456447 1.424471 0.119027 -0.015717 0.992584 0.120365 0.496923 0.244787
0 -5.334004 1.524499 -0.346033 -0.090304 0.990692 -0.101810 0.288774 0.135093
0 -4.634426 1.325076 1.711262 -0.122013 0.709830 0.693686 0.366331 0.620343
sply350.png
0 -7.687165 -0.000693 -0.611870 -0.684347 0.186743 -0.704825 0.027901 0.072392
0 -7.797757 -0.000693 -0.423680 -0.920896 0.234596 -0.311228 0.015641 0.116781
0 -7.606978 0.939180 -0.279662 -0.823908 0.534745 -0.187597 0.036791 0.150749
sply350.png
0 -7.388013 1.115368 -0.014690 -0.403363 0.914151 0.039857 0.061065 0.213249
0 -6.617406 1.105060 1.399214 -0.644032 0.678671 0.352977 0.146495 0.546742
0 -5.334004 1.524499 -0.346033 -0.090304 0.990692 -0.101810 0.288774 0.135093
sply350.png
0 -5.588779 1.330963 -0.889473 -0.118900 0.620167 -0.775384 0.260529 0.006914
0 -7.388013 1.115368 -0.014690 -0.403363 0.914151 0.039857 0.061065 0.213249
0 -5.334004 1.524499 -0.346033 -0.090304 0.990692 -0.101810 0.288774 0.135093
sply350.png
0 -2.957313 1.325076 2.057167 0.297128 0.791192 0.534532 0.552256 0.701931
0 -2.957532 -0.000693 2.211294 0.790216 0.089816 0.606189 0.552231 0.738284
0 -2.366076 -0.001071 1.585361 0.562120 0.067354 0.824305 0.617802 0.590647
sply350.png
0 -3.464067 0.981326 2.832347 -0.039430 0.434645 0.899716 0.496077 0.884770
0 -4.634426 1.325076 1.711262 -0.122013 0.709830 0.693686 0.366331 0.620343
0 -3.920390 -0.000693 1.665709 -0.578784 -0.207831 0.788507 0.445489 0.609599
sply350.png
0 -3.464067 0.981326 2.832347 -0.039430 0.434645 0.899716 0.496077 0.884770
0 -3.397469 -0.000693 2.966314 -0.032807 0.132908 0.990570 0.503461 0.916369
0 -2.957532 -0.000693 2.211294 0.790216 0.089816 0.606189 0.552231 0.738284
sply350.png
0 -7.550395 1.009436 -0.044963 -0.790368 0.577624 0.203955 0.043064 0.206108
0 -7.824064 -0.001398 -0.163244 -0.962737 0.210120 0.170110 0.012724 0.178210
0 -7.511992 -0.000291 0.456269 -0.845698 0.206824 0.491897 0.047321 0.324331
end
