version 1
nodes
  0 "ValveBiped.Bip01" -1
  1 "ValveBiped.Bip01_Spine" 0
  2 "ValveBiped.Bip01_Spine1" 1
  3 "ValveBiped.Bip01_Spine2" 2
  4 "ValveBiped.Bip01_Spine4" 3
  5 "ValveBiped.Bip01_R_Clavicle" 4
  6 "ValveBiped.Bip01_R_UpperArm" 5
  7 "ValveBiped.Bip01_R_Forearm" 6
  8 "ValveBiped.Bip01_R_Hand" 7
  9 "ValveBiped.HandControlRotGrandmaR" -1
  10 "ValveBiped.HandControlRotParentR" 9
  11 "ValveBiped.HandControlRotR" 10
  12 "ValveBiped.Tip" 11
end
skeleton
  time 0
    0 -0.003761 -14.613722 -29.431251 1.570796 0.000000 0.000000
    1 0.000005 3.345127 -2.981899 1.570796 0.086293 1.570796
    2 4.018332 0.000000 0.000000 0.000000 0.000000 -0.029242
    3 3.518565 0.000000 0.000000 0.000000 0.000000 0.100336
    4 8.942641 0.000002 0.000000 0.000000 0.000000 0.194096
    5 2.033355 1.000771 -1.937610 -1.668474 1.286518 2.942953
    6 6.028143 -0.000001 0.000000 1.634528 -0.012170 -0.702526
    7 11.692552 0.000000 0.000000 0.000000 0.000000 -0.925788
    8 11.481700 -0.000001 0.000000 -0.873426 0.001258 0.887888
    9 -14.184924 -11.434376 -19.236735 -2.287696 0.569160 -2.009992
    10 11.481698 -0.000002 0.000001 -1.564936 0.106606 0.044193
    11 -1.359416 1.320353 0.121096 0.687184 -0.844278 -0.098175
    12 11.123100 -1.935452 -15.150156 -0.684337 -0.009375 -1.609104
  time 1
    0 -0.003761 -14.613722 -29.431251 1.570796 0.000000 0.000000
    1 0.000005 3.345127 -2.981899 1.570796 0.086293 1.570796
    2 4.018332 0.000000 0.000000 0.000000 0.000000 -0.029242
    3 3.518565 0.000000 0.000000 0.000000 0.000000 0.100336
    4 8.942641 0.000002 0.000000 0.000000 0.000000 0.194096
    5 2.033355 1.000771 -1.937610 -1.668474 1.286518 2.942953
    6 6.028143 -0.000001 0.000000 1.635215 -0.001247 -0.687233
    7 11.692552 0.000000 0.000000 0.000000 0.000000 -0.967802
    8 11.481700 -0.000001 0.000000 -0.861403 -0.008551 0.868060
    9 -14.333366 -11.575005 -19.146888 -2.281868 0.522462 -1.976770
    10 11.481698 -0.000002 0.000001 -1.564936 0.106606 0.044193
    11 -1.359416 1.320353 0.121096 0.710043 -0.824523 -0.112913
    12 11.123100 -1.935452 -15.150156 -0.684337 -0.009375 -1.609104
  time 2
    0 -0.003761 -14.613722 -29.431251 1.570796 0.000000 0.000000
    1 0.000005 3.345127 -2.981899 1.570796 0.086293 1.570796
    2 4.018332 0.000000 0.000000 0.000000 0.000000 -0.029242
    3 3.518565 0.000000 0.000000 0.000000 0.000000 0.100336
    4 8.942641 0.000002 0.000000 0.000000 0.000000 0.194096
    5 2.033355 1.000771 -1.937610 -1.668474 1.286518 2.942953
    6 6.028143 -0.000001 0.000000 1.635901 0.009676 -0.671337
    7 11.692552 0.000000 0.000000 0.000000 0.000000 -1.025839
    8 11.481700 -0.000001 0.000000 -0.853209 -0.037322 0.828865
    9 -14.481808 -11.711728 -19.049229 -2.273392 0.463540 -1.932821
    10 11.481698 -0.000002 0.000001 -1.564936 0.106606 0.044193
    11 -1.359416 1.320353 0.121096 0.746665 -0.784894 -0.153544
    12 11.123100 -1.935452 -15.150156 -0.684337 -0.009375 -1.609104
  time 3
    0 -0.003761 -14.613722 -29.431251 1.570796 0.000000 0.000000
    1 0.000005 3.345127 -2.981899 1.570796 0.086293 1.570796
    2 4.018332 0.000000 0.000000 0.000000 0.000000 -0.029242
    3 3.518565 0.000000 0.000000 0.000000 0.000000 0.100336
    4 8.942641 0.000002 0.000000 0.000000 0.000000 0.194096
    5 2.033355 1.000771 -1.937610 -1.668474 1.286518 2.942953
    6 6.028143 -0.000001 0.000000 1.636407 0.022306 -0.659283
    7 11.692552 0.000000 0.000000 0.000000 0.000000 -1.096232
    8 11.481700 -0.000001 0.000000 -0.845704 -0.078415 0.776576
    9 -14.591186 -11.871889 -18.975008 -2.260466 0.395535 -1.878518
    10 11.481698 -0.000002 0.000001 -1.564936 0.106606 0.044193
    11 -1.359416 1.320353 0.121096 0.787797 -0.730833 -0.206764
    12 11.123100 -1.935452 -15.150156 -0.684337 -0.009375 -1.609104
  time 4
    0 -0.003761 -14.613722 -29.431251 1.570796 0.000000 0.000000
    1 0.000005 3.345127 -2.981899 1.570796 0.086293 1.570796
    2 4.018332 0.000000 0.000000 0.000000 0.000000 -0.029242
    3 3.518565 0.000000 0.000000 0.000000 0.000000 0.100336
    4 8.942641 0.000002 0.000000 0.000000 0.000000 0.194096
    5 2.033355 1.000771 -1.937610 -1.668474 1.286518 2.942953
    6 6.028143 -0.000001 0.000000 1.636551 0.038918 -0.655667
    7 11.692552 0.000000 0.000000 0.000000 0.000000 -1.176182
    8 11.481700 -0.000001 0.000000 -0.836055 -0.122787 0.719687
    9 -14.614625 -12.067207 -18.959383 -2.240335 0.319575 -1.814532
    10 11.481698 -0.000002 0.000001 -1.564936 0.106606 0.044193
    11 -1.359416 1.320353 0.121096 0.825368 -0.670976 -0.258955
    12 11.123100 -1.935452 -15.150156 -0.684337 -0.009375 -1.609104
  time 5
    0 -0.003761 -14.613722 -29.431251 1.570796 0.000000 0.000000
    1 0.000005 3.345127 -2.981899 1.570796 0.086293 1.570796
    2 4.018332 0.000000 0.000000 0.000000 0.000000 -0.029242
    3 3.518565 0.000000 0.000000 0.000000 0.000000 0.100336
    4 8.942641 0.000002 0.000000 0.000000 0.000000 0.194096
    5 2.033355 1.000771 -1.937610 -1.668474 1.286518 2.942953
    6 6.028143 -0.000001 0.000000 1.636479 0.064462 -0.657173
    7 11.692552 0.000000 0.000000 0.000000 0.000000 -1.251478
    8 11.481700 -0.000001 0.000000 -0.823879 -0.163415 0.663634
    9 -14.583374 -12.364091 -18.982821 -2.219250 0.240627 -1.749503
    10 11.481698 -0.000002 0.000001 -1.564936 0.106606 0.044193
    11 -1.359416 1.320353 0.121096 0.855584 -0.611711 -0.302515
    12 11.123100 -1.935452 -15.150156 -0.684337 -0.009375 -1.609104
  time 6
    0 -0.003761 -14.613722 -29.431251 1.570796 0.000000 0.000000
    1 0.000005 3.345127 -2.981899 1.570796 0.086293 1.570796
    2 4.018332 0.000000 0.000000 0.000000 0.000000 -0.029242
    3 3.518565 0.000000 0.000000 0.000000 0.000000 0.100336
    4 8.942641 0.000002 0.000000 0.000000 0.000000 0.194096
    5 2.033355 1.000771 -1.937610 -1.668474 1.286518 2.942953
    6 6.028143 -0.000001 0.000000 1.636660 0.101213 -0.655215
    7 11.692552 0.000000 0.000000 0.000000 0.000000 -1.307249
    8 11.481700 -0.000001 0.000000 -0.810171 -0.196722 0.610550
    9 -14.567748 -12.793792 -18.971102 -2.207331 0.166556 -1.692817
    10 11.481698 -0.000002 0.000001 -1.564936 0.106606 0.044193
    11 -1.359416 1.320353 0.121096 0.877731 -0.556112 -0.335108
    12 11.123100 -1.935452 -15.150156 -0.684337 -0.009375 -1.609104
  time 7
    0 -0.003761 -14.613722 -29.431251 1.570796 0.000000 0.000000
    1 0.000005 3.345127 -2.981899 1.570796 0.086293 1.570796
    2 4.018332 0.000000 0.000000 0.000000 0.000000 -0.029242
    3 3.518565 0.000000 0.000000 0.000000 0.000000 0.100336
    4 8.942641 0.000002 0.000000 0.000000 0.000000 0.194096
    5 2.033355 1.000771 -1.937610 -1.668474 1.286518 2.942953
    6 6.028143 -0.000001 0.000000 1.637274 0.146952 -0.647154
    7 11.692552 0.000000 0.000000 0.000000 0.000000 -1.341808
    8 11.481700 -0.000001 0.000000 -0.796233 -0.221449 0.560981
    9 -14.591186 -13.332871 -18.900787 -2.205847 0.101081 -1.645069
    10 11.481698 -0.000002 0.000001 -1.564936 0.106606 0.044193
    11 -1.359416 1.320353 0.121096 0.892444 -0.505048 -0.356981
    12 11.123100 -1.935452 -15.150156 -0.684337 -0.009375 -1.609104
  time 8
    0 -0.003761 -14.613722 -29.431251 1.570796 0.000000 0.000000
    1 0.000005 3.345127 -2.981899 1.570796 0.086293 1.570796
    2 4.018332 0.000000 0.000000 0.000000 0.000000 -0.029242
    3 3.518565 0.000000 0.000000 0.000000 0.000000 0.100336
    4 8.942641 0.000002 0.000000 0.000000 0.000000 0.194096
    5 2.033355 1.000771 -1.937610 -1.668474 1.286518 2.942953
    6 6.028143 -0.000001 0.000000 1.638286 0.198552 -0.634196
    7 11.692552 0.000000 0.000000 0.000000 0.000000 -1.358078
    8 11.481700 -0.000001 0.000000 -0.783291 -0.237596 0.514842
    9 -14.630250 -13.938358 -18.771877 -2.212311 0.045482 -1.604771
    10 11.481698 -0.000002 0.000001 -1.564936 0.106606 0.044193
    11 -1.359416 1.320353 0.121096 0.900670 -0.458519 -0.369227
    12 11.123100 -1.935452 -15.150156 -0.684337 -0.009375 -1.609104
  time 9
    0 -0.003761 -14.613722 -29.431251 1.570796 0.000000 0.000000
    1 0.000005 3.345127 -2.981899 1.570796 0.086293 1.570796
    2 4.018332 0.000000 0.000000 0.000000 0.000000 -0.029242
    3 3.518565 0.000000 0.000000 0.000000 0.000000 0.100336
    4 8.942641 0.000002 0.000000 0.000000 0.000000 0.194096
    5 2.033355 1.000771 -1.937610 -1.668474 1.286518 2.942953
    6 6.028143 -0.000001 0.000000 1.639659 0.253394 -0.618074
    7 11.692552 0.000000 0.000000 0.000000 0.000000 -1.358860
    8 11.481700 -0.000001 0.000000 -0.772111 -0.245629 0.471882
    9 -14.669314 -14.579003 -18.596090 -2.223594 0.000155 -1.570952
    10 11.481698 -0.000002 0.000001 -1.564936 0.106606 0.044193
    11 -1.359416 1.320353 0.121096 0.903201 -0.416209 -0.373059
    12 11.123100 -1.935452 -15.150156 -0.684337 -0.009375 -1.609104
  time 10
    0 -0.003761 -14.613722 -29.431251 1.570796 0.000000 0.000000
    1 0.000005 3.345127 -2.981899 1.570796 0.086293 1.570796
    2 4.018332 0.000000 0.000000 0.000000 0.000000 -0.029242
    3 3.518565 0.000000 0.000000 0.000000 0.000000 0.100336
    4 8.942641 0.000002 0.000000 0.000000 0.000000 0.194096
    5 2.033355 1.000771 -1.937610 -1.668474 1.286518 2.942953
    6 6.028143 -0.000001 0.000000 1.641284 0.309203 -0.602554
    7 11.692552 0.000000 0.000000 0.000000 0.000000 -1.347698
    8 11.481700 -0.000001 0.000000 -0.762921 -0.247378 0.430302
    9 -14.673220 -15.223554 -18.389053 -2.235408 -0.035752 -1.542870
    10 11.481698 -0.000002 0.000001 -1.564936 0.106606 0.044193
    11 -1.359416 1.320353 0.121096 0.901224 -0.375871 -0.370629
    12 11.123100 -1.935452 -15.150156 -0.684337 -0.009375 -1.609104
  time 11
    0 -0.003761 -14.613722 -29.431251 1.570796 0.000000 0.000000
    1 0.000005 3.345127 -2.981899 1.570796 0.086293 1.570796
    2 4.018332 0.000000 0.000000 0.000000 0.000000 -0.029242
    3 3.518565 0.000000 0.000000 0.000000 0.000000 0.100336
    4 8.942641 0.000002 0.000000 0.000000 0.000000 0.194096
    5 2.033355 1.000771 -1.937610 -1.668474 1.286518 2.942953
    6 6.028143 -0.000001 0.000000 1.642982 0.364387 -0.590877
    7 11.692552 0.000000 0.000000 0.000000 0.000000 -1.327309
    8 11.481700 -0.000001 0.000000 -0.755722 -0.244482 0.388722
    9 -14.622437 -15.848573 -18.189828 -2.243884 -0.063217 -1.520523
    10 11.481698 -0.000002 0.000001 -1.564936 0.106606 0.044193
    11 -1.359416 1.320353 0.121096 0.895924 -0.335966 -0.363805
    12 11.123100 -1.935452 -15.150156 -0.684337 -0.009375 -1.609104
  time 12
    0 -0.003761 -14.613722 -29.431251 1.570796 0.000000 0.000000
    1 0.000005 3.345127 -2.981899 1.570796 0.086293 1.570796
    2 4.018332 0.000000 0.000000 0.000000 0.000000 -0.029242
    3 3.518565 0.000000 0.000000 0.000000 0.000000 0.100336
    4 8.942641 0.000002 0.000000 0.000000 0.000000 0.194096
    5 2.033355 1.000771 -1.937610 -1.668474 1.286518 2.942953
    6 6.028143 -0.000001 0.000000 1.644681 0.417238 -0.584926
    7 11.692552 0.000000 0.000000 0.000000 0.000000 -1.299052
    8 11.481700 -0.000001 0.000000 -0.750974 -0.237405 0.347853
    9 -14.505246 -16.430622 -18.010135 -2.246798 -0.082542 -1.504806
    10 11.481698 -0.000002 0.000001 -1.564936 0.106606 0.044193
    11 -1.359416 1.320353 0.121096 0.887619 -0.296929 -0.353273
    12 11.123100 -1.935452 -15.150156 -0.684337 -0.009375 -1.609104
  time 13
    0 -0.003761 -14.613722 -29.431251 1.570796 0.000000 0.000000
    1 0.000005 3.345127 -2.981899 1.570796 0.086293 1.570796
    2 4.018332 0.000000 0.000000 0.000000 0.000000 -0.029242
    3 3.518565 0.000000 0.000000 0.000000 0.000000 0.100336
    4 8.942641 0.000002 0.000000 0.000000 0.000000 0.194096
    5 2.033355 1.000771 -1.937610 -1.668474 1.286518 2.942953
    6 6.028143 -0.000001 0.000000 1.646126 0.466163 -0.586734
    7 11.692552 0.000000 0.000000 0.000000 0.000000 -1.264617
    8 11.481700 -0.000001 0.000000 -0.748830 -0.226667 0.308323
    9 -14.317741 -16.954075 -17.873412 -2.241871 -0.094034 -1.496389
    10 11.481698 -0.000002 0.000001 -1.564936 0.106606 0.044193
    11 -1.359416 1.320353 0.121096 0.876940 -0.259193 -0.339657
    12 11.123100 -1.935452 -15.150156 -0.684337 -0.009375 -1.609104
  time 14
    0 -0.003761 -14.613722 -29.431251 1.570796 0.000000 0.000000
    1 0.000005 3.345127 -2.981899 1.570796 0.086293 1.570796
    2 4.018332 0.000000 0.000000 0.000000 0.000000 -0.029242
    3 3.518565 0.000000 0.000000 0.000000 0.000000 0.100336
    4 8.942641 0.000002 0.000000 0.000000 0.000000 0.194096
    5 2.033355 1.000771 -1.937610 -1.668474 1.286518 2.942953
    6 6.028143 -0.000001 0.000000 1.647210 0.509571 -0.598034
    7 11.692552 0.000000 0.000000 0.000000 0.000000 -1.225528
    8 11.481700 -0.000001 0.000000 -0.749519 -0.212760 0.270718
    9 -14.063827 -17.403308 -17.799191 -2.227303 -0.097813 -1.495718
    10 11.481698 -0.000002 0.000001 -1.564936 0.106606 0.044193
    11 -1.359416 1.320353 0.121096 0.864285 -0.223192 -0.323517
    12 11.123100 -1.935452 -15.150156 -0.684337 -0.009375 -1.609104
  time 15
    0 -0.003761 -14.613722 -29.431251 1.570796 0.000000 0.000000
    1 0.000005 3.345127 -2.981899 1.570796 0.086293 1.570796
    2 4.018332 0.000000 0.000000 0.000000 0.000000 -0.029242
    3 3.518565 0.000000 0.000000 0.000000 0.000000 0.100336
    4 8.942641 0.000002 0.000000 0.000000 0.000000 0.194096
    5 2.033355 1.000771 -1.937610 -1.668474 1.286518 2.942953
    6 6.028143 -0.000001 0.000000 1.647860 0.546037 -0.615136
    7 11.692552 0.000000 0.000000 0.000000 0.000000 -1.187633
    8 11.481700 -0.000001 0.000000 -0.752889 -0.196285 0.235538
    9 -13.782568 -17.766600 -17.767940 -2.207278 -0.097173 -1.499219
    10 11.481698 -0.000002 0.000001 -1.564936 0.106606 0.044193
    11 -1.359416 1.320353 0.121096 0.849968 -0.189399 -0.305382
    12 11.123100 -1.935452 -15.150156 -0.684337 -0.009375 -1.609104
  time 16
    0 -0.003761 -14.613722 -29.431251 1.570796 0.000000 0.000000
    1 0.000005 3.345127 -2.981899 1.570796 0.086293 1.570796
    2 4.018332 0.000000 0.000000 0.000000 0.000000 -0.029242
    3 3.518565 0.000000 0.000000 0.000000 0.000000 0.100336
    4 8.942641 0.000002 0.000000 0.000000 0.000000 0.194096
    5 2.033355 1.000771 -1.937610 -1.668474 1.286518 2.942953
    6 6.028143 -0.000001 0.000000 1.648330 0.577953 -0.633668
    7 11.692552 0.000000 0.000000 0.000000 0.000000 -1.151304
    8 11.481700 -0.000001 0.000000 -0.758939 -0.177814 0.203287
    9 -13.509122 -18.079110 -17.748408 -2.186140 -0.093942 -1.504583
    10 11.481698 -0.000002 0.000001 -1.564936 0.106606 0.044193
    11 -1.359416 1.320353 0.121096 0.834544 -0.158209 -0.285752
    12 11.123100 -1.935452 -15.150156 -0.684337 -0.009375 -1.609104
  time 17
    0 -0.003761 -14.613722 -29.431251 1.570796 0.000000 0.000000
    1 0.000005 3.345127 -2.981899 1.570796 0.086293 1.570796
    2 4.018332 0.000000 0.000000 0.000000 0.000000 -0.029242
    3 3.518565 0.000000 0.000000 0.000000 0.000000 0.100336
    4 8.942641 0.000002 0.000000 0.000000 0.000000 0.194096
    5 2.033355 1.000771 -1.937610 -1.668474 1.286518 2.942953
    6 6.028143 -0.000001 0.000000 1.648727 0.607706 -0.652653
    7 11.692552 0.000000 0.000000 0.000000 0.000000 -1.113038
    8 11.481700 -0.000001 0.000000 -0.767363 -0.157896 0.174340
    9 -13.235676 -18.360368 -17.724970 -2.164420 -0.087175 -1.512106
    10 11.481698 -0.000002 0.000001 -1.564936 0.106606 0.044193
    11 -1.359416 1.320353 0.121096 0.818329 -0.130055 -0.265062
    12 11.123100 -1.935452 -15.150156 -0.684337 -0.009375 -1.609104
  time 18
    0 -0.003761 -14.613722 -29.431251 1.570796 0.000000 0.000000
    1 0.000005 3.345127 -2.981899 1.570796 0.086293 1.570796
    2 4.018332 0.000000 0.000000 0.000000 0.000000 -0.029242
    3 3.518565 0.000000 0.000000 0.000000 0.000000 0.100336
    4 8.942641 0.000002 0.000000 0.000000 0.000000 0.194096
    5 2.033355 1.000771 -1.937610 -1.668474 1.286518 2.942953
    6 6.028143 -0.000001 0.000000 1.648980 0.634103 -0.671487
    7 11.692552 0.000000 0.000000 0.000000 0.000000 -1.074772
    8 11.481700 -0.000001 0.000000 -0.777854 -0.137076 0.149199
    9 -12.977856 -18.606469 -17.701532 -2.143124 -0.077360 -1.521045
    10 11.481698 -0.000002 0.000001 -1.564936 0.106606 0.044193
    11 -1.359416 1.320353 0.121096 0.801639 -0.105410 -0.243843
    12 11.123100 -1.935452 -15.150156 -0.684337 -0.009375 -1.609104
  time 19
    0 -0.003761 -14.613722 -29.431251 1.570796 0.000000 0.000000
    1 0.000005 3.345127 -2.981899 1.570796 0.086293 1.570796
    2 4.018332 0.000000 0.000000 0.000000 0.000000 -0.029242
    3 3.518565 0.000000 0.000000 0.000000 0.000000 0.100336
    4 8.942641 0.000002 0.000000 0.000000 0.000000 0.194096
    5 2.033355 1.000771 -1.937610 -1.668474 1.286518 2.942953
    6 6.028143 -0.000001 0.000000 1.649124 0.656120 -0.689417
    7 11.692552 0.000000 0.000000 0.000000 0.000000 -1.038690
    8 11.481700 -0.000001 0.000000 -0.789954 -0.115929 0.128284
    9 -12.747380 -18.809601 -17.685906 -2.123205 -0.065320 -1.530579
    10 11.481698 -0.000002 0.000001 -1.564936 0.106606 0.044193
    11 -1.359416 1.320353 0.121096 0.784870 -0.084827 -0.222437
    12 11.123100 -1.935452 -15.150156 -0.684337 -0.009375 -1.609104
  time 20
    0 -0.003761 -14.613722 -29.431251 1.570796 0.000000 0.000000
    1 0.000005 3.345127 -2.981899 1.570796 0.086293 1.570796
    2 4.018332 0.000000 0.000000 0.000000 0.000000 -0.029242
    3 3.518565 0.000000 0.000000 0.000000 0.000000 0.100336
    4 8.942641 0.000002 0.000000 0.000000 0.000000 0.194096
    5 2.033355 1.000771 -1.937610 -1.668474 1.286518 2.942953
    6 6.028143 -0.000001 0.000000 1.649088 0.672789 -0.705464
    7 11.692552 0.000000 0.000000 0.000000 0.000000 -1.007097
    8 11.481700 -0.000001 0.000000 -0.803202 -0.094945 0.112096
    9 -12.555968 -18.958043 -17.678094 -2.105616 -0.052243 -1.539890
    10 11.481698 -0.000002 0.000001 -1.564936 0.106606 0.044193
    11 -1.359416 1.320353 0.121096 0.768259 -0.068778 -0.201373
    12 11.123100 -1.935452 -15.150156 -0.684337 -0.009375 -1.609104
  time 21
    0 -0.003761 -14.613722 -29.431251 1.570796 0.000000 0.000000
    1 0.000005 3.345127 -2.981899 1.570796 0.086293 1.570796
    2 4.018332 0.000000 0.000000 0.000000 0.000000 -0.029242
    3 3.518565 0.000000 0.000000 0.000000 0.000000 0.100336
    4 8.942641 0.000002 0.000000 0.000000 0.000000 0.194096
    5 2.033355 1.000771 -1.937610 -1.668474 1.286518 2.942953
    6 6.028143 -0.000001 0.000000 1.648835 0.683257 -0.718799
    7 11.692552 0.000000 0.000000 0.000000 0.000000 -0.982507
    8 11.481700 -0.000001 0.000000 -0.817063 -0.074644 0.102056
    9 -12.407526 -19.047889 -17.685906 -2.091472 -0.039685 -1.548084
    10 11.481698 -0.000002 0.000001 -1.564936 0.106606 0.044193
    11 -1.359416 1.320353 0.121096 0.752281 -0.058723 -0.181027
    12 11.123100 -1.935452 -15.150156 -0.684337 -0.009375 -1.609104
  time 22
    0 -0.003761 -14.613722 -29.431251 1.570796 0.000000 0.000000
    1 0.000005 3.345127 -2.981899 1.570796 0.086293 1.570796
    2 4.018332 0.000000 0.000000 0.000000 0.000000 -0.029242
    3 3.518565 0.000000 0.000000 0.000000 0.000000 0.100336
    4 8.942641 0.000002 0.000000 0.000000 0.000000 0.194096
    5 2.033355 1.000771 -1.937610 -1.668474 1.286518 2.942953
    6 6.028143 -0.000001 0.000000 1.648474 0.686841 -0.728140
    7 11.692552 0.000000 0.000000 0.000000 0.000000 -0.967843
    8 11.481700 -0.000001 0.000000 -0.830848 -0.055491 0.099714
    9 -12.321586 -19.079140 -17.713251 -2.081936 -0.029808 -1.554118
    10 11.481698 -0.000002 0.000001 -1.564936 0.106606 0.044193
    11 -1.359416 1.320353 0.121096 0.737253 -0.056357 -0.161864
    12 11.123100 -1.935452 -15.150156 -0.684337 -0.009375 -1.609104
  time 23
    0 -0.003761 -14.613722 -29.431251 1.570796 0.000000 0.000000
    1 0.000005 3.345127 -2.981899 1.570796 0.086293 1.570796
    2 4.018332 0.000000 0.000000 0.000000 0.000000 -0.029242
    3 3.518565 0.000000 0.000000 0.000000 0.000000 0.100336
    4 8.942641 0.000002 0.000000 0.000000 0.000000 0.194096
    5 2.033355 1.000771 -1.937610 -1.668474 1.286518 2.942953
    6 6.028143 -0.000001 0.000000 1.648149 0.686898 -0.733037
    7 11.692552 0.000000 0.000000 0.000000 0.000000 -0.961500
    8 11.481700 -0.000001 0.000000 -0.843790 -0.038032 0.103478
    9 -12.282522 -19.075234 -17.736689 -2.077115 -0.024108 -1.557470
    10 11.481698 -0.000002 0.000001 -1.564936 0.106606 0.044193
    11 -1.359416 1.320353 0.121096 0.723490 -0.060103 -0.144353
    12 11.123100 -1.935452 -15.150156 -0.684337 -0.009375 -1.609104
  time 24
    0 -0.003761 -14.613722 -29.431251 1.570796 0.000000 0.000000
    1 0.000005 3.345127 -2.981899 1.570796 0.086293 1.570796
    2 4.018332 0.000000 0.000000 0.000000 0.000000 -0.029242
    3 3.518565 0.000000 0.000000 0.000000 0.000000 0.100336
    4 8.942641 0.000002 0.000000 0.000000 0.000000 0.194096
    5 2.033355 1.000771 -1.937610 -1.668474 1.286518 2.942953
    6 6.028143 -0.000001 0.000000 1.648113 0.686898 -0.733565
    7 11.692552 0.000000 0.000000 0.000000 0.000000 -0.960841
    8 11.481700 -0.000001 0.000000 -0.855124 -0.022704 0.111426
    9 -12.278616 -19.075234 -17.736689 -2.076586 -0.023499 -1.557842
    10 11.481698 -0.000002 0.000001 -1.564936 0.106606 0.044193
    11 -1.359416 1.320353 0.121096 0.711388 -0.067989 -0.128960
    12 11.123100 -1.935452 -15.150156 -0.684337 -0.009375 -1.609104
  time 25
    0 -0.003761 -14.613722 -29.431251 1.570796 0.000000 0.000000
    1 0.000005 3.345127 -2.981899 1.570796 0.086293 1.570796
    2 4.018332 0.000000 0.000000 0.000000 0.000000 -0.029242
    3 3.518565 0.000000 0.000000 0.000000 0.000000 0.100336
    4 8.942641 0.000002 0.000000 0.000000 0.000000 0.194096
    5 2.033355 1.000771 -1.937610 -1.668474 1.286518 2.942953
    6 6.028143 -0.000001 0.000000 1.648149 0.686898 -0.733188
    7 11.692552 0.000000 0.000000 0.000000 0.000000 -0.961335
    8 11.481700 -0.000001 0.000000 -0.864390 -0.009999 0.121466
    9 -12.282522 -19.075234 -17.736689 -2.076956 -0.023956 -1.557544
    10 11.481698 -0.000002 0.000001 -1.564936 0.106606 0.044193
    11 -1.359416 1.320353 0.121096 0.701342 -0.077926 -0.116185
    12 11.123100 -1.935452 -15.150156 -0.684337 -0.009375 -1.609104
  time 26
    0 -0.003761 -14.613722 -29.431251 1.570796 0.000000 0.000000
    1 0.000005 3.345127 -2.981899 1.570796 0.086293 1.570796
    2 4.018332 0.000000 0.000000 0.000000 0.000000 -0.029242
    3 3.518565 0.000000 0.000000 0.000000 0.000000 0.100336
    4 8.942641 0.000002 0.000000 0.000000 0.000000 0.194096
    5 2.033355 1.000771 -1.937610 -1.668474 1.286518 2.942953
    6 6.028143 -0.000001 0.000000 1.648185 0.686898 -0.732661
    7 11.692552 0.000000 0.000000 0.000000 0.000000 -0.962076
    8 11.481700 -0.000001 0.000000 -0.871282 -0.000381 0.131338
    9 -12.286429 -19.075234 -17.732783 -2.077539 -0.024627 -1.557172
    10 11.481698 -0.000002 0.000001 -1.564936 0.106606 0.044193
    11 -1.359416 1.320353 0.121096 0.693749 -0.087745 -0.106463
    12 11.123100 -1.935452 -15.150156 -0.684337 -0.009375 -1.609104
  time 27
    0 -0.003761 -14.613722 -29.431251 1.570796 0.000000 0.000000
    1 0.000005 3.345127 -2.981899 1.570796 0.086293 1.570796
    2 4.018332 0.000000 0.000000 0.000000 0.000000 -0.029242
    3 3.518565 0.000000 0.000000 0.000000 0.000000 0.100336
    4 8.942641 0.000002 0.000000 0.000000 0.000000 0.194096
    5 2.033355 1.000771 -1.937610 -1.668474 1.286518 2.942953
    6 6.028143 -0.000001 0.000000 1.648221 0.686898 -0.732058
    7 11.692552 0.000000 0.000000 0.000000 0.000000 -0.962818
    8 11.481700 -0.000001 0.000000 -0.875494 0.005712 0.138825
    9 -12.290335 -19.075234 -17.728876 -2.078069 -0.025267 -1.556800
    10 11.481698 -0.000002 0.000001 -1.564936 0.106606 0.044193
    11 -1.359416 1.320353 0.121096 0.688845 -0.095197 -0.100325
    12 11.123100 -1.935452 -15.150156 -0.684337 -0.009375 -1.609104
  time 28
    0 -0.003761 -14.613722 -29.431251 1.570796 0.000000 0.000000
    1 0.000005 3.345127 -2.981899 1.570796 0.086293 1.570796
    2 4.018332 0.000000 0.000000 0.000000 0.000000 -0.029242
    3 3.518565 0.000000 0.000000 0.000000 0.000000 0.100336
    4 8.942641 0.000002 0.000000 0.000000 0.000000 0.194096
    5 2.033355 1.000771 -1.937610 -1.668474 1.286518 2.942953
    6 6.028143 -0.000001 0.000000 1.648221 0.686898 -0.731832
    7 11.692552 0.000000 0.000000 0.000000 0.000000 -0.963106
    8 11.481700 -0.000001 0.000000 -0.876949 0.007843 0.141754
    9 -12.294241 -19.075234 -17.728876 -2.078334 -0.025571 -1.556651
    10 11.481698 -0.000002 0.000001 -1.564936 0.106606 0.044193
    11 -1.359416 1.320353 0.121096 0.687184 -0.098155 -0.098175
    12 11.123100 -1.935452 -15.150156 -0.684337 -0.009375 -1.609104
end
