"GameMenu"
{
	"1"
	{
		"label" "#GameUI_GameMenu_ResumeGame"
		"command" "ResumeGame"
		"OnlyInGame" "1"
	}
		"5"
	{
		"label" "#GameUI_GameMenu_NewGame"
		"command" "OpenNewGameDialog"
		"notmulti" "1"
	}
	"6"
	{
		"label" "#GameUI_GameMenu_LoadGame"
		"command" "OpenLoadGameDialog"
		"notmulti" "1"
	}
	"7"
	{
		"label" "#GameUI_GameMenu_SaveGame"
		"command" "OpenSaveGameDialog"
		"notmulti" "1"
		"OnlyInGame" "1"
	}
	"13"
	{
		"label" "#GameUI_GameMenu_Options"
		"command" "OpenOptionsDialog"
	}
	"14"
	{
		"label" "#GameUI_GameMenu_Quit"
		"command" "Quit"
	}
}