version 1
nodes
  0 "Bip01" -1
  1 "Bip01 Pelvis" 0
  2 "Bip01 L Leg" 1
  3 "Bip01 L Leg1" 2
  4 "Bip01 L Foot" 3
  5 "Bip01 R Leg" 1
  6 "Bip01 R Leg1" 5
  7 "Bip01 R Foot" 6
  8 "Bip01 Spine" 1
  9 "Bip01 Spine1" 8
  10 "Bip01 Spine2" 9
  11 "Bip01 Spine3" 10
  12 "Bip01 Neck" 11
  13 "Bip01 L Arm" 12
  14 "Bip01 L Arm1" 13
  15 "Bip01 L Arm2" 14
  16 "Bip01 L Hand" 15
  17 "Bip01 R Arm" 12
  18 "Bip01 R Arm1" 17
  19 "Bip01 R Arm2" 18
  20 "Bip01 R Hand" 19
  21 "Bip01 Head" 12
  22 "Bone05" 21
  23 "Bone03" 1
end
skeleton
  time 0
    0 0.458009 -0.003561 43.589095 0.000000 0.000000 -1.570844
    1 1.082064 0.000000 0.000000 -1.570795 -1.570796 0.000000
    2 -0.000007 0.000008 4.435206 -0.213125 3.222664 -0.285979
    3 18.336223 0.000000 0.000000 0.000000 0.000000 -0.671111
    4 17.141915 0.000000 0.000000 0.188064 0.129465 -0.291613
    5 0.000006 -0.000004 -4.435206 0.073130 -3.228946 -0.195521
    6 18.168325 0.000000 0.000000 0.000000 0.000000 -1.141990
    7 17.411113 0.000000 0.000000 -0.106876 -0.039225 -0.083908
    8 2.259109 -0.002685 0.000003 -0.000004 -0.000001 -0.060247
    9 3.377682 -0.004248 0.000000 0.000000 0.000000 -0.209330
    10 5.347229 -0.004100 0.000000 0.000000 0.000000 0.296538
    11 5.180379 -0.004197 0.000000 0.000000 0.000000 -0.017444
    12 5.279783 -0.001935 0.000000 0.000000 0.000000 0.134667
    13 -3.132950 0.428427 2.533972 -0.672806 -1.317183 -2.620035
    14 6.075668 0.000000 0.000002 -0.631464 0.325946 -1.497798
    15 7.700847 0.000000 0.000000 0.000000 0.000000 -2.057817
    16 10.265787 0.000000 -0.000003 -1.569107 0.000000 0.000000
    17 -3.027999 0.414136 -2.431778 0.672786 1.317186 -2.620054
    18 6.281226 0.000000 -0.000001 0.658603 -0.194933 -1.222968
    19 8.589427 0.000000 -0.000004 0.000000 0.000000 -2.476442
    20 9.932990 0.000000 0.000003 1.568967 0.165722 0.000000
    21 2.456152 0.000000 0.000000 0.000000 0.000000 -0.170331
    22 0.946167 3.213873 -0.420090 -3.141592 -0.000002 1.413798
    23 1.827063 1.152534 -7.659250 -1.570796 -1.570796 0.000000
  time 1
    0 0.458009 -0.003561 43.589095 0.000000 0.000000 -1.570844
    1 1.476608 0.000000 0.000000 -1.570795 -1.570796 0.000000
    2 -0.000007 0.000008 4.435206 -0.063755 3.190430 0.465798
    3 18.336223 0.000000 0.000000 0.000000 0.000000 -0.671111
    4 17.141915 0.000000 0.000000 0.071678 0.036160 -0.449465
    5 0.000006 -0.000004 -4.435206 -0.094406 -3.227707 0.162816
    6 18.168325 0.000000 0.000000 0.000000 0.000000 -1.141990
    7 17.411113 0.000000 0.000000 -0.085871 0.094584 -0.426486
    8 2.259109 -0.002685 0.000003 -0.000004 -0.000001 -0.060247
    9 3.377682 -0.004248 0.000000 0.000000 0.000000 -0.209330
    10 5.343323 -0.004100 0.000000 0.000000 0.000000 0.153169
    11 5.180379 -0.004197 0.000000 0.000000 0.000000 -0.017444
    12 5.279783 -0.001935 0.000000 0.000000 0.000000 0.134667
    13 -3.132950 0.428427 2.533972 -0.672806 -1.317183 -2.620035
    14 6.075668 0.000000 0.000002 0.245433 0.342647 -0.368073
    15 7.700847 0.000000 0.000000 0.000000 0.000000 -0.900955
    16 10.265787 0.000000 -0.000003 -1.569107 0.000000 0.000000
    17 -3.027999 0.414136 -2.431778 0.672786 1.317186 -2.620054
    18 6.281226 0.000000 -0.000001 -0.069445 -0.244198 -0.183528
    19 8.589427 0.000000 -0.000004 0.000000 0.000000 -1.116881
    20 9.932990 0.000000 0.000003 1.568967 0.165722 0.000000
    21 2.456152 0.000000 0.000000 0.000000 0.000000 -0.026985
    22 0.946167 3.213873 -0.420090 -3.141592 -0.000002 1.413798
    23 1.827063 1.152534 -7.659250 -1.570796 -1.570796 0.000000
  time 2
    0 0.450196 -0.003561 43.589095 0.000000 0.000000 -1.570844
    1 1.769585 0.000000 0.000000 -1.570795 -1.570796 0.000000
    2 -0.000007 0.000008 4.435206 0.062606 3.233599 0.867474
    3 18.336223 0.000000 0.000000 0.000000 0.000000 -0.671111
    4 17.141915 0.000000 0.000000 0.059874 -0.093937 -0.493500
    5 0.000006 -0.000004 -4.435206 -0.223796 -3.258863 0.335022
    6 18.168325 0.000000 0.000000 0.000000 0.000000 -1.141990
    7 17.411113 0.000000 0.000000 -0.124093 0.220154 -0.459782
    8 2.259109 -0.002685 0.000003 -0.000004 -0.000001 -0.060247
    9 3.377682 -0.004248 0.000000 0.000000 0.000000 -0.209330
    10 5.343323 -0.004100 0.000000 0.000000 0.000000 0.043618
    11 5.180379 -0.004197 0.000000 0.000000 0.000000 -0.017444
    12 5.279783 -0.001935 0.000000 0.000000 0.000000 0.134667
    13 -3.132950 0.428427 2.533972 -0.672806 -1.317183 -2.620035
    14 6.075668 0.000000 0.000002 0.634450 -0.053188 0.262064
    15 7.700847 0.000000 0.000000 0.000000 0.000000 -0.016867
    16 10.265787 0.000000 -0.000003 -1.569107 0.000000 0.000000
    17 -3.027999 0.414136 -2.431778 0.672786 1.317186 -2.620054
    18 6.281226 0.000000 -0.000001 -0.427896 0.047446 0.457354
    19 8.589427 0.000000 -0.000004 0.000000 0.000000 -0.077903
    20 9.932990 0.000000 0.000003 1.568967 0.165722 0.000000
    21 2.456152 0.000000 0.000000 0.000000 0.000000 0.082548
    22 0.946167 3.213873 -0.420090 -3.141592 -0.000002 1.413798
    23 1.827063 1.152534 -7.659250 -1.570796 -1.570796 0.000000
  time 3
    0 0.438477 -0.003561 43.572341 0.000000 0.000000 -1.570844
    1 1.488327 0.000000 0.000000 -1.570795 -1.570796 0.000000
    2 -0.000007 0.000008 4.435206 0.108721 3.222664 0.650914
    3 18.336223 0.000000 0.000000 0.000000 0.000000 -0.671111
    4 17.141915 0.000000 0.000000 0.015129 -0.134738 -0.368966
    5 0.000006 -0.000004 -4.435206 -0.262230 -3.251622 0.190848
    6 18.168325 0.000000 0.000000 0.000000 0.000000 -0.862257
    7 17.411113 0.000000 0.000000 -0.013302 0.283618 -0.353233
    8 2.259109 -0.002685 0.000003 -0.000004 -0.000001 -0.060247
    9 3.377682 -0.004248 0.000000 0.000000 0.000000 -0.157041
    10 5.343323 -0.004100 0.000000 0.000000 0.000000 0.043618
    11 5.180379 -0.004197 0.000000 0.000000 0.000000 -0.017444
    12 5.279783 -0.001935 0.000000 0.000000 0.000000 0.134667
    13 -3.132950 0.428427 2.533972 -0.672806 -1.317183 -2.620035
    14 6.075668 0.000000 0.000002 0.558676 0.138221 0.375655
    15 7.700847 0.000000 0.000000 0.000000 0.000000 -0.016867
    16 10.265787 0.000000 -0.000003 -1.569107 0.000000 0.000000
    17 -3.027999 0.414136 -2.431778 0.672786 1.317186 -2.620054
    18 6.281226 0.000000 -0.000001 -0.379024 -0.189668 0.537258
    19 8.589427 0.000000 -0.000004 0.000000 0.000000 -0.077903
    20 9.932990 0.000000 0.000003 1.568967 0.165722 0.000000
    21 2.456152 0.000000 0.000000 0.000000 0.000000 0.030301
    22 0.946167 3.213873 -0.420090 -3.141592 -0.000002 1.413798
    23 1.827063 1.152534 -7.659250 -1.570796 -1.570796 0.000000
  time 4
    0 0.422852 -0.003561 43.555587 0.000000 0.000000 -1.570844
    1 1.168004 0.000000 0.000000 -1.570795 -1.570796 0.000000
    2 -0.000007 0.000008 4.435206 0.131251 3.187292 0.317686
    3 18.336223 0.000000 0.000000 0.000000 0.000000 -0.671111
    4 17.141915 0.000000 0.000000 -0.047853 -0.130570 -0.210843
    5 0.000006 -0.000004 -4.435206 -0.280824 -3.230947 -0.014120
    6 18.168325 0.000000 0.000000 0.000000 0.000000 -0.547187
    7 17.411113 0.000000 0.000000 0.142426 0.258551 -0.199501
    8 2.259109 -0.002685 0.000003 -0.000004 -0.000001 -0.060247
    9 3.377682 -0.004248 0.000000 0.000000 0.000000 -0.098798
    10 5.343323 -0.004100 0.000000 0.000000 0.000000 0.043618
    11 5.180379 -0.004197 0.000000 0.000000 0.000000 -0.017444
    12 5.279783 -0.001935 0.000000 0.000000 0.000000 0.134667
    13 -3.132950 0.428427 2.533972 -0.672806 -1.317183 -2.620035
    14 6.075668 0.000000 0.000002 0.433274 0.510969 0.350828
    15 7.700847 0.000000 0.000000 0.000000 0.000000 -0.016867
    16 10.265787 0.000000 -0.000003 -1.569107 0.000000 0.000000
    17 -3.027999 0.414136 -2.431778 0.672786 1.317186 -2.620054
    18 6.281226 0.000000 -0.000001 -0.263530 -0.584073 0.456116
    19 8.589427 0.000000 -0.000004 0.000000 0.000000 -0.077903
    20 9.932990 0.000000 0.000003 1.568967 0.165722 0.000000
    21 2.456152 0.000000 0.000000 0.000000 0.000000 -0.027933
    22 0.946167 3.213873 -0.420090 -3.141592 -0.000002 1.413798
    23 1.827063 1.152534 -7.659250 -1.570796 -1.570796 0.000000
  time 5
    0 0.403320 -0.003561 43.555587 0.000000 0.000000 -1.570844
    1 0.871120 0.000000 0.000000 -1.570795 -1.570796 0.000000
    2 -0.000007 0.000008 4.435206 0.131731 3.148497 -0.010462
    3 18.336223 0.000000 0.000000 0.000000 0.000000 -0.671111
    4 17.141915 0.000000 0.000000 -0.092704 -0.094058 -0.066504
    5 0.000006 -0.000004 -4.435206 -0.282932 -3.208461 -0.208376
    6 18.168325 0.000000 0.000000 0.000000 0.000000 -0.259707
    7 17.411113 0.000000 0.000000 0.244866 0.158078 -0.066806
    8 2.259109 -0.002685 0.000003 -0.000004 -0.000001 -0.060247
    9 3.377682 -0.004248 0.000000 0.000000 0.000000 -0.044399
    10 5.343323 -0.004100 0.000000 0.000000 0.000000 0.043618
    11 5.180379 -0.004197 0.000000 0.000000 0.000000 -0.017444
    12 5.279783 -0.001935 0.000000 0.000000 0.000000 0.134667
    13 -3.132950 0.428427 2.533972 -0.672806 -1.317183 -2.620035
    14 6.075668 0.000000 0.000002 0.239644 0.848351 0.195910
    15 7.700847 0.000000 0.000000 0.000000 0.000000 -0.016867
    16 10.265787 0.000000 -0.000003 -1.569107 0.000000 0.000000
    17 -3.027999 0.414136 -2.431778 0.672786 1.317186 -2.620054
    18 6.281226 0.000000 -0.000001 -0.031965 -0.922349 0.219293
    19 8.589427 0.000000 -0.000004 0.000000 0.000000 -0.077903
    20 9.932990 0.000000 0.000003 1.568967 0.165722 0.000000
    21 2.456152 0.000000 0.000000 0.000000 0.000000 -0.082291
    22 0.946167 3.213873 -0.420090 -3.141592 -0.000002 1.413798
    23 1.827063 1.152534 -7.659250 -1.570796 -1.570796 0.000000
  time 6
    0 0.379882 -0.003561 43.538833 0.000000 0.000000 -1.570844
    1 0.582049 0.000000 0.000000 -1.570795 -1.570796 0.000000
    2 -0.000007 0.000008 4.435206 0.116966 3.114836 -0.319819
    3 18.336223 0.000000 0.000000 0.000000 0.000000 -0.671111
    4 17.141915 0.000000 0.000000 -0.111047 -0.045401 0.059971
    5 0.000006 -0.000004 -4.435206 -0.270089 -3.189120 -0.381742
    6 18.168325 0.000000 0.000000 0.000000 0.000000 0.001130
    7 17.411113 0.000000 0.000000 0.271897 0.035804 0.047576
    8 2.259109 -0.002685 0.000003 -0.000004 -0.000001 -0.060247
    9 3.377682 -0.004248 0.000000 0.000000 0.000000 0.007789
    10 5.343323 -0.004100 0.000000 0.000000 0.000000 0.043618
    11 5.180379 -0.004197 0.000000 0.000000 0.000000 -0.017444
    12 5.279783 -0.001935 0.000000 0.000000 0.000000 0.134667
    13 -3.132950 0.428427 2.533972 -0.672806 -1.317183 -2.620035
    14 6.075668 0.000000 0.000002 -0.043744 1.056297 -0.073057
    15 7.700847 0.000000 0.000000 0.000000 0.000000 -0.016867
    16 10.265787 0.000000 -0.000003 -1.569107 0.000000 0.000000
    17 -3.027999 0.414136 -2.431778 0.672786 1.317186 -2.620054
    18 6.281226 0.000000 -0.000001 0.341099 -1.109069 -0.165306
    19 8.589427 0.000000 -0.000004 0.000000 0.000000 -0.077903
    20 9.932990 0.000000 0.000003 1.568967 0.165722 0.000000
    21 2.456152 0.000000 0.000000 0.000000 0.000000 -0.134495
    22 0.946167 3.213873 -0.420090 -3.141592 -0.000002 1.413798
    23 1.827063 1.152534 -7.659250 -1.570796 -1.570796 0.000000
  time 7
    0 0.356444 -0.003561 43.522079 0.000000 0.000000 -1.570844
    1 0.332041 0.000000 0.000000 -1.570795 -1.570796 0.000000
    2 -0.000007 0.000008 4.435206 0.100860 3.094393 -0.540214
    3 18.336223 0.000000 0.000000 0.000000 0.000000 -0.671111
    4 17.141915 0.000000 0.000000 -0.110835 -0.010572 0.137907
    5 0.000006 -0.000004 -4.435206 -0.239035 -3.180831 -0.482262
    6 18.168325 0.000000 0.000000 0.000000 0.000000 0.183734
    7 17.411113 0.000000 0.000000 0.238841 -0.040382 0.144968
    8 2.259109 -0.002685 0.000003 -0.000004 -0.000001 -0.060247
    9 3.377682 -0.004248 0.000000 0.000000 0.000000 0.052314
    10 5.343323 -0.004100 0.000000 0.000000 0.000000 0.043618
    11 5.180379 -0.004197 0.000000 0.000000 0.000000 -0.017444
    12 5.279783 -0.001935 0.000000 0.000000 0.000000 0.134667
    13 -3.132950 0.428427 2.533972 -0.672806 -1.317183 -2.620035
    14 6.075668 0.000000 0.000002 -0.309766 1.138330 -0.331024
    15 7.700847 0.000000 0.000000 0.000000 0.000000 -0.016867
    16 10.265787 0.000000 -0.000003 -1.569107 0.000000 0.000000
    17 -3.027999 0.414136 -2.431778 0.672786 1.317186 -2.620054
    18 6.281226 0.000000 -0.000001 0.676105 -1.163129 -0.505482
    19 8.589427 0.000000 -0.000004 0.000000 0.000000 -0.077903
    20 9.932990 0.000000 0.000003 1.568967 0.165722 0.000000
    21 2.456152 0.000000 0.000000 0.000000 0.000000 -0.179075
    22 0.946167 3.213873 -0.420090 -3.141592 -0.000002 1.413798
    23 1.827063 1.152534 -7.659250 -1.570796 -1.570796 0.000000
  time 8
    0 0.329099 -0.003561 43.505325 0.000000 0.000000 -1.570844
    1 0.507828 0.000000 0.000000 -1.570795 -1.570796 0.000000
    2 -0.000007 0.000008 4.435206 0.103736 3.101239 -0.473492
    3 18.336223 0.000000 0.000000 0.000000 0.000000 -0.671111
    4 17.141915 0.000000 0.000000 -0.108467 -0.025201 0.072242
    5 0.000006 -0.000004 -4.435206 -0.155267 -3.195504 -0.335856
    6 18.168325 0.000000 0.000000 0.000000 0.000000 0.117155
    7 17.411113 0.000000 0.000000 0.164291 0.001137 0.211827
    8 2.259109 -0.002685 0.000003 -0.000004 -0.000001 -0.060247
    9 3.377682 -0.004248 0.000000 0.000000 0.000000 0.052314
    10 5.343323 -0.004100 0.000000 0.000000 0.000000 -0.019961
    11 5.180379 -0.004197 0.000000 0.000000 0.000000 -0.017444
    12 5.279783 -0.001935 0.000000 0.000000 0.000000 0.134667
    13 -3.132950 0.428427 2.533972 -0.672806 -1.317183 -2.620035
    14 6.075668 0.000000 0.000002 -0.160560 1.144388 -0.182829
    15 7.700847 0.000000 0.000000 0.000000 0.000000 -0.016867
    16 10.265787 0.000000 -0.000003 -1.569107 0.000000 0.000000
    17 -3.027999 0.414136 -2.431778 0.672786 1.317186 -2.620054
    18 6.281226 0.000000 -0.000001 0.521315 -1.179677 -0.350350
    19 8.589427 0.000000 -0.000004 0.000000 0.000000 -0.077903
    20 9.932990 0.000000 0.000003 1.568967 0.165722 0.000000
    21 2.456152 0.000000 0.000000 0.000000 0.000000 -0.115457
    22 0.946167 3.213873 -0.420090 -3.141592 -0.000002 1.413798
    23 1.827063 1.152534 -7.659250 -1.570796 -1.570796 0.000000
  time 9
    0 0.297848 -0.003561 43.488571 0.000000 0.000000 -1.570844
    1 0.792993 0.000000 0.000000 -1.570795 -1.570796 0.000000
    2 -0.000007 0.000008 4.435206 0.111214 3.136991 -0.145248
    3 18.336223 0.000000 0.000000 0.000000 0.000000 -0.671111
    4 17.141915 0.000000 0.000000 -0.080016 -0.077505 -0.138033
    5 0.000006 -0.000004 -4.435206 -0.013705 -3.190740 0.033908
    6 18.168325 0.000000 0.000000 0.000000 0.000000 -0.203206
    7 17.411113 0.000000 0.000000 0.014160 0.049017 0.213454
    8 2.259109 -0.002685 0.000003 -0.000004 -0.000001 -0.060247
    9 3.377682 -0.004248 0.000000 0.000000 0.000000 0.052314
    10 5.343323 -0.004100 0.000000 0.000000 0.000000 -0.124162
    11 5.180379 -0.004197 0.000000 0.000000 0.000000 -0.017444
    12 5.279783 -0.001935 0.000000 0.000000 0.000000 0.134667
    13 -3.132950 0.428427 2.533972 -0.672806 -1.317183 -2.620035
    14 6.075668 0.000000 0.000002 0.083023 1.134318 0.059173
    15 7.700847 0.000000 0.000000 0.000000 0.000000 -0.016867
    16 10.265787 0.000000 -0.000003 -1.569107 0.000000 0.000000
    17 -3.027999 0.414136 -2.431778 0.672786 1.317186 -2.620054
    18 6.281226 0.000000 -0.000001 0.251114 -1.185318 -0.079694
    19 8.589427 0.000000 -0.000004 0.000000 0.000000 -0.077903
    20 9.932990 0.000000 0.000003 1.568967 0.165722 0.000000
    21 2.456152 0.000000 0.000000 0.000000 0.000000 -0.011307
    22 0.946167 3.213873 -0.420090 -3.141592 -0.000002 1.413798
    23 1.827063 1.152534 -7.659250 -1.570796 -1.570796 0.000000
  time 10
    0 0.270503 -0.003561 43.471817 0.000000 0.000000 -1.570844
    1 0.953154 0.000000 0.000000 -1.570795 -1.570796 0.000000
    2 -0.000007 0.000008 4.435206 0.109680 3.160573 0.066902
    3 18.336223 0.000000 0.000000 0.000000 0.000000 -0.671111
    4 17.141915 0.000000 0.000000 -0.043753 -0.102394 -0.322717
    5 0.000006 -0.000004 -4.435206 0.083577 -3.159965 0.239590
    6 18.168325 0.000000 0.000000 0.000000 0.000000 -0.461648
    7 17.411113 0.000000 0.000000 -0.085010 -0.010255 0.125331
    8 2.259109 -0.002685 0.000003 -0.000004 -0.000001 -0.060247
    9 3.377682 -0.004248 0.000000 0.000000 0.000000 0.052314
    10 5.343323 -0.004100 0.000000 0.000000 0.000000 -0.183149
    11 5.180379 -0.004197 0.000000 0.000000 0.000000 -0.017444
    12 5.279783 -0.001935 0.000000 0.000000 0.000000 0.134667
    13 -3.132950 0.428427 2.533972 -0.672806 -1.317183 -2.620035
    14 6.075668 0.000000 0.000002 0.212261 1.118108 0.187431
    15 7.700847 0.000000 0.000000 0.000000 0.000000 -0.016867
    16 10.265787 0.000000 -0.000003 -1.569107 0.000000 0.000000
    17 -3.027999 0.414136 -2.431778 0.672786 1.317186 -2.620054
    18 6.281226 0.000000 -0.000001 0.100700 -1.176292 0.071106
    19 8.589427 0.000000 -0.000004 0.000000 0.000000 -0.077903
    20 9.932990 0.000000 0.000003 1.568967 0.165722 0.000000
    21 2.456152 0.000000 0.000000 0.000000 0.000000 0.047659
    22 0.946167 3.213873 -0.420090 -3.141592 -0.000002 1.413798
    23 1.827063 1.152534 -7.659250 -1.570796 -1.570796 0.000000
  time 11
    0 0.239252 -0.003561 43.471817 0.000000 0.000000 -1.570844
    1 0.941435 -0.203131 0.000000 -1.570795 -1.570796 0.000000
    2 -0.000007 0.000008 4.435206 0.111214 3.146785 -0.057532
    3 18.336223 0.000000 0.000000 0.000000 0.000000 -0.531106
    4 17.141915 0.000000 0.000000 -0.046616 -0.101152 -0.559514
    5 0.000006 -0.000004 -4.435206 0.101213 -3.172065 0.045602
    6 18.168325 0.000000 0.000000 0.000000 0.000000 -0.461648
    7 17.411113 0.000000 0.000000 -0.102744 -0.024942 -0.068584
    8 2.259109 -0.002685 0.000003 -0.000004 -0.000001 -0.060247
    9 3.377682 -0.004248 0.000000 -0.000026 -0.037608 0.052314
    10 5.343323 -0.004100 0.000000 0.000000 0.000000 -0.179194
    11 5.180379 -0.004197 0.000000 0.000000 0.000000 -0.017444
    12 5.279783 -0.001935 0.000000 0.000000 0.000000 0.134667
    13 -3.132950 0.428427 2.533972 -0.672806 -1.317183 -2.620035
    14 6.075668 0.000000 0.000002 0.181497 1.084133 0.150764
    15 7.700847 0.000000 0.000000 0.000000 0.000000 -0.016867
    16 10.265787 0.000000 -0.000003 -1.569107 0.000000 0.000000
    17 -3.027999 0.414136 -2.431778 0.672786 1.317186 -2.620054
    18 6.281226 0.000000 -0.000001 0.091784 -1.213147 0.086990
    19 8.589427 0.000000 -0.000004 0.000000 0.000000 -0.077903
    20 9.932990 0.000000 0.000003 1.568967 0.165722 0.000000
    21 2.456152 0.000000 0.000000 -0.000649 0.037609 0.043697
    22 0.946167 3.213873 -0.420090 -3.141592 -0.000002 1.413798
    23 1.827063 1.152534 -7.659250 -1.570796 -1.570796 0.000000
  time 12
    0 0.208001 -0.003561 43.455062 0.000000 0.000000 -1.570844
    1 0.863308 -0.476577 0.000000 -1.570795 -1.570796 0.000000
    2 -0.000007 0.000008 4.435206 0.109009 3.119210 -0.305727
    3 18.336223 0.000000 0.000000 0.000000 0.000000 -0.340891
    4 17.141915 0.000000 0.000000 -0.064889 -0.090531 -0.809165
    5 0.000006 -0.000004 -4.435206 0.072268 -3.201316 -0.311664
    6 18.168325 0.000000 0.000000 0.000000 0.000000 -0.461648
    7 17.411113 0.000000 0.000000 -0.091897 -0.018437 -0.426978
    8 2.259109 -0.002685 0.000003 -0.000004 -0.000001 -0.060247
    9 3.377682 -0.004248 0.000000 -0.000052 -0.086852 0.052314
    10 5.343323 -0.004100 0.000000 0.000000 0.000000 -0.151258
    11 5.180379 -0.004197 0.000000 0.000000 0.000000 -0.017444
    12 5.279783 -0.001935 0.000000 0.000000 0.000000 0.134667
    13 -3.132950 0.428427 2.533972 -0.672806 -1.317183 -2.620035
    14 6.075668 0.000000 0.000002 0.104682 1.044508 0.067881
    15 7.700847 0.000000 0.000000 0.000000 0.000000 -0.016867
    16 10.265787 0.000000 -0.000003 -1.569107 0.000000 0.000000
    17 -3.027999 0.414136 -2.431778 0.672786 1.317186 -2.620054
    18 6.281226 0.000000 -0.000001 0.147426 -1.266643 0.039130
    19 8.589427 0.000000 -0.000004 0.000000 0.000000 -0.077903
    20 9.932990 0.000000 0.000003 1.568967 0.165722 0.000000
    21 2.456152 0.000000 0.000000 -0.001514 0.086840 0.015699
    22 0.946167 3.213873 -0.420090 -3.141592 -0.000002 1.413798
    23 1.827063 1.152534 -7.659250 -1.570796 -1.570796 0.000000
  time 13
    0 0.176751 -0.003561 43.438308 0.000000 0.000000 -1.570844
    1 0.765648 -0.730491 0.000000 -1.570795 -1.570796 0.000000
    2 -0.000007 0.000008 4.435206 0.105174 3.105137 -0.436008
    3 18.336223 0.000000 0.000000 0.000000 0.000000 -0.217623
    4 17.141915 0.000000 0.000000 -0.076163 -0.081272 -0.932417
    5 0.000006 -0.000004 -4.435206 0.048690 -3.211987 -0.509490
    6 18.168325 0.000000 0.000000 0.000000 0.000000 -0.461648
    7 17.411113 0.000000 0.000000 -0.085010 -0.010255 -0.624790
    8 2.259109 -0.002685 0.000003 -0.000004 -0.000001 -0.060247
    9 3.377682 -0.004248 0.000000 -0.000104 -0.133293 0.052339
    10 5.343323 -0.004100 0.000000 0.000000 0.000000 -0.114898
    11 5.180379 -0.004197 0.000000 0.000000 0.000000 -0.017444
    12 5.279783 -0.001935 0.000000 0.000000 0.000000 0.134667
    13 -3.132950 0.428427 2.533972 -0.672806 -1.317183 -2.620035
    14 6.075668 0.000000 0.000002 0.024095 1.005866 -0.016453
    15 7.700847 0.000000 0.000000 0.000000 0.000000 -0.016867
    16 10.265787 0.000000 -0.000003 -1.569107 0.000000 0.000000
    17 -3.027999 0.414136 -2.431778 0.672786 1.317186 -2.620054
    18 6.281226 0.000000 -0.000001 0.257141 -1.317413 -0.065254
    19 8.589427 0.000000 -0.000004 0.000000 0.000000 -0.077903
    20 9.932990 0.000000 0.000003 1.568967 0.165722 0.000000
    21 2.456152 0.000000 0.000000 -0.002325 0.133266 -0.020740
    22 0.946167 3.213873 -0.420090 -3.141592 -0.000002 1.413798
    23 1.827063 1.152534 -7.659250 -1.570796 -1.570796 0.000000
  time 14
    0 0.145500 -0.003561 43.438308 0.000000 0.000000 -1.570844
    1 0.675802 -0.886746 0.000000 -1.570795 -1.570796 0.000000
    2 -0.000007 0.000008 4.435206 0.106708 3.109797 -0.392677
    3 18.336223 0.000000 0.000000 0.000000 0.000000 -0.217623
    4 17.141915 0.000000 0.000000 -0.076163 -0.081272 -0.888886
    5 0.000006 -0.000004 -4.435206 0.051182 -3.210272 -0.473871
    6 18.168325 0.000000 0.000000 0.000000 0.000000 -0.406596
    7 17.411113 0.000000 0.000000 -0.083805 -0.017598 -0.731226
    8 2.259109 -0.002685 0.000003 -0.000004 -0.000001 -0.060247
    9 3.377682 -0.004248 0.000000 -0.000104 -0.161205 0.052339
    10 5.343323 -0.004100 0.000000 0.000000 0.000000 -0.081858
    11 5.180379 -0.004197 0.000000 0.000000 0.000000 -0.017444
    12 5.279783 -0.001935 0.000000 0.000000 0.000000 0.134667
    13 -3.132950 0.428427 2.533972 -0.672806 -1.317183 -2.620035
    14 6.075668 0.000000 0.000002 -0.039191 0.981960 -0.080009
    15 7.700847 0.000000 0.000000 0.000000 0.000000 -0.016867
    16 10.265787 0.000000 -0.000003 -1.569107 0.000000 0.000000
    17 -3.027999 0.414136 -2.431778 0.672786 1.317186 -2.620054
    18 6.281226 0.000000 -0.000001 0.394346 -1.345900 -0.200994
    19 8.589427 0.000000 -0.000004 0.000000 0.000000 -0.077903
    20 9.932990 0.000000 0.000003 1.568967 0.165722 0.000000
    21 2.456152 0.000000 0.000000 -0.002811 0.161162 -0.053863
    22 0.946167 3.213873 -0.420090 -3.141592 -0.000002 1.413798
    23 1.827063 1.152534 -7.659250 -1.570796 -1.570796 0.000000
  time 15
    0 0.114249 -0.003561 43.438308 0.000000 0.000000 -1.570844
    1 0.601581 -0.847682 0.000000 -1.570795 -1.570796 0.000000
    2 -0.000007 0.000008 4.435206 0.109488 3.121397 -0.285212
    3 18.336223 0.000000 0.000000 0.000000 0.000000 -0.217623
    4 17.141915 0.000000 0.000000 -0.076163 -0.081272 -0.780895
    5 0.000006 -0.000004 -4.435206 0.059137 -3.203507 -0.351300
    6 18.168325 0.000000 0.000000 0.000000 0.000000 -0.335167
    7 17.411113 0.000000 0.000000 -0.081308 -0.026966 -0.793128
    8 2.259109 -0.002685 0.000003 -0.000004 -0.000001 -0.060247
    9 3.377682 -0.004248 0.000000 -0.000104 -0.154062 0.052339
    10 5.343323 -0.004100 0.000000 0.000000 0.000000 -0.054496
    11 5.180379 -0.004197 0.000000 0.000000 0.000000 -0.017444
    12 5.279783 -0.001935 0.000000 0.000000 0.000000 0.134667
    13 -3.132950 0.428427 2.533972 -0.672806 -1.317183 -2.620035
    14 6.075668 0.000000 0.000002 -0.087192 0.990557 -0.124620
    15 7.700847 0.000000 0.000000 0.000000 0.000000 -0.016867
    16 10.265787 0.000000 -0.000003 -1.569107 0.000000 0.000000
    17 -3.027999 0.414136 -2.431778 0.672786 1.317186 -2.620054
    18 6.281226 0.000000 -0.000001 0.507859 -1.336217 -0.317756
    19 8.589427 0.000000 -0.000004 0.000000 0.000000 -0.077903
    20 9.932990 0.000000 0.000003 1.568967 0.165722 0.000000
    21 2.456152 0.000000 0.000000 -0.002703 0.154022 -0.081171
    22 0.946167 3.213873 -0.420090 -3.141592 -0.000002 1.413798
    23 1.827063 1.152534 -7.659250 -1.570796 -1.570796 0.000000
  time 16
    0 0.086904 -0.003561 43.438308 0.000000 0.000000 -1.570844
    1 0.527360 -0.640645 0.000000 -1.570795 -1.570796 0.000000
    2 -0.000007 0.000008 4.435206 0.111118 3.134900 -0.163750
    3 18.336223 0.000000 0.000000 0.000000 0.000000 -0.217623
    4 17.141915 0.000000 0.000000 -0.076163 -0.081272 -0.658691
    5 0.000006 -0.000004 -4.435206 0.067380 -3.194360 -0.207840
    6 18.168325 0.000000 0.000000 0.000000 0.000000 -0.263675
    7 17.411113 0.000000 0.000000 -0.077693 -0.035958 -0.834105
    8 2.259109 -0.002685 0.000003 -0.000004 -0.000001 -0.060247
    9 3.377682 -0.004248 0.000000 -0.000078 -0.116298 0.052314
    10 5.343323 -0.004100 0.000000 0.000000 0.000000 -0.027360
    11 5.180379 -0.004197 0.000000 0.000000 0.000000 -0.017444
    12 5.279783 -0.001935 0.000000 0.000000 0.000000 0.134667
    13 -3.132950 0.428427 2.533972 -0.672806 -1.317183 -2.620035
    14 6.075668 0.000000 0.000002 -0.137535 1.028544 -0.169232
    15 7.700847 0.000000 0.000000 0.000000 0.000000 -0.016867
    16 10.265787 0.000000 -0.000003 -1.569107 0.000000 0.000000
    17 -3.027999 0.414136 -2.431778 0.672786 1.317186 -2.620054
    18 6.281226 0.000000 -0.000001 0.579434 -1.294285 -0.395597
    19 8.589427 0.000000 -0.000004 0.000000 0.000000 -0.077903
    20 9.932990 0.000000 0.000003 1.568967 0.165722 0.000000
    21 2.456152 0.000000 0.000000 -0.002000 0.116268 -0.108177
    22 0.946167 3.213873 -0.420090 -3.141592 -0.000002 1.413798
    23 1.827063 1.152534 -7.659250 -1.570796 -1.570796 0.000000
  time 17
    0 0.059559 -0.003561 43.455062 0.000000 0.000000 -1.570844
    1 0.476577 -0.335948 0.000000 -1.570795 -1.570796 0.000000
    2 -0.000007 0.000008 4.435206 0.111214 3.145169 -0.071816
    3 18.336223 0.000000 0.000000 0.000000 0.000000 -0.217623
    4 17.141915 0.000000 0.000000 -0.076163 -0.081272 -0.566077
    5 0.000006 -0.000004 -4.435206 0.072747 -3.186833 -0.099732
    6 18.168325 0.000000 0.000000 0.000000 0.000000 -0.208749
    7 17.411113 0.000000 0.000000 -0.074249 -0.042579 -0.867856
    8 2.259109 -0.002685 0.000003 -0.000004 -0.000001 -0.060247
    9 3.377682 -0.004248 0.000000 -0.000026 -0.061050 0.052314
    10 5.343323 -0.004100 0.000000 0.000000 0.000000 -0.008708
    11 5.180379 -0.004197 0.000000 0.000000 0.000000 -0.017444
    12 5.279783 -0.001935 0.000000 0.000000 0.000000 0.134667
    13 -3.132950 0.428427 2.533972 -0.672806 -1.317183 -2.620035
    14 6.075668 0.000000 0.000002 -0.179162 1.083150 -0.205517
    15 7.700847 0.000000 0.000000 0.000000 0.000000 -0.016867
    16 10.265787 0.000000 -0.000003 -1.569107 0.000000 0.000000
    17 -3.027999 0.414136 -2.431778 0.672786 1.317186 -2.620054
    18 6.281226 0.000000 -0.000001 0.591569 -1.236463 -0.414507
    19 8.589427 0.000000 -0.000004 0.000000 0.000000 -0.077903
    20 9.932990 0.000000 0.000003 1.568967 0.165722 0.000000
    21 2.456152 0.000000 0.000000 -0.001027 0.061025 -0.126742
    22 0.946167 3.213873 -0.420090 -3.141592 -0.000002 1.413798
    23 1.827063 1.152534 -7.659250 -1.570796 -1.570796 0.000000
  time 18
    0 0.036121 -0.003561 43.488571 0.000000 0.000000 -1.570844
    1 0.476577 0.222663 0.000000 -1.570795 -1.570796 0.000000
    2 -0.000007 0.000008 4.435206 0.111214 3.145169 -0.071816
    3 18.336223 0.000000 0.000000 0.000000 0.000000 -0.217623
    4 17.141915 0.000000 0.000000 -0.076163 -0.081272 -0.566077
    5 0.000006 -0.000004 -4.435206 0.072747 -3.186833 -0.099732
    6 18.168325 0.000000 0.000000 0.000000 0.000000 -0.208749
    7 17.411113 0.000000 0.000000 -0.074249 -0.042579 -0.867856
    8 2.259109 -0.002685 0.000003 -0.000004 -0.000001 -0.060247
    9 3.377682 -0.004248 0.000000 0.000026 0.040664 0.052314
    10 5.343323 -0.004100 0.000000 0.000000 0.000000 -0.008708
    11 5.180379 -0.004197 0.000000 0.000000 0.000000 -0.017444
    12 5.279783 -0.001935 0.000000 0.000000 0.000000 0.134667
    13 -3.132950 0.428427 2.533972 -0.672806 -1.317183 -2.620035
    14 6.075668 0.000000 0.000002 -0.193601 1.184504 -0.212850
    15 7.700847 0.000000 0.000000 0.000000 0.000000 -0.016867
    16 10.265787 0.000000 -0.000003 -1.569107 0.000000 0.000000
    17 -3.027999 0.414136 -2.431778 0.672786 1.317186 -2.620054
    18 6.281226 0.000000 -0.000001 0.527424 -1.137745 -0.360665
    19 8.589427 0.000000 -0.000004 0.000000 0.000000 -0.077903
    20 9.932990 0.000000 0.000003 1.568967 0.165722 0.000000
    21 2.456152 0.000000 0.000000 0.000703 -0.040645 -0.126742
    22 0.946167 3.213873 -0.420090 -3.141592 -0.000002 1.413798
    23 1.827063 1.152534 -7.659250 -1.570796 -1.570796 0.000000
  time 19
    0 0.012683 -0.003561 43.522079 0.000000 0.000000 -1.570844
    1 0.476577 0.839869 0.000000 -1.570795 -1.570796 0.000000
    2 -0.000007 0.000008 4.435206 0.111214 3.145169 -0.071816
    3 18.336223 0.000000 0.000000 0.000000 0.000000 -0.217623
    4 17.141915 0.000000 0.000000 -0.076163 -0.081272 -0.566077
    5 0.000006 -0.000004 -4.435206 0.072747 -3.186833 -0.099732
    6 18.168325 0.000000 0.000000 0.000000 0.000000 -0.208749
    7 17.411113 0.000000 0.000000 -0.074249 -0.042579 -0.867856
    8 2.259109 -0.002685 0.000003 -0.000004 -0.000001 -0.060247
    9 3.377682 -0.004248 0.000000 0.000104 0.152240 0.052339
    10 5.343323 -0.004100 0.000000 0.000000 0.000000 -0.008708
    11 5.180379 -0.004197 0.000000 0.000000 0.000000 -0.017444
    12 5.279783 -0.001935 0.000000 0.000000 0.000000 0.134667
    13 -3.132950 0.428427 2.533972 -0.672806 -1.317183 -2.620035
    14 6.075668 0.000000 0.000002 -0.218512 1.295600 -0.230114
    15 7.700847 0.000000 0.000000 0.000000 0.000000 -0.016867
    16 10.265787 0.000000 -0.000003 -1.569107 0.000000 0.000000
    17 -3.027999 0.414136 -2.431778 0.672786 1.317186 -2.620054
    18 6.281226 0.000000 -0.000001 0.481441 -1.028496 -0.326420
    19 8.589427 0.000000 -0.000004 0.000000 0.000000 -0.077903
    20 9.932990 0.000000 0.000003 1.568967 0.165722 0.000000
    21 2.456152 0.000000 0.000000 0.002649 -0.152200 -0.126914
    22 0.946167 3.213873 -0.420090 -3.141592 -0.000002 1.413798
    23 1.827063 1.152534 -7.659250 -1.570796 -1.570796 0.000000
  time 20
    0 -0.006849 -0.003561 43.572341 0.000000 0.000000 -1.570844
    1 0.476577 1.007843 0.000000 -1.570795 -1.570796 0.000000
    2 -0.000007 0.000008 4.435206 0.111214 3.145169 -0.071816
    3 18.336223 0.000000 0.000000 0.000000 0.000000 -0.217623
    4 17.141915 0.000000 0.000000 -0.076163 -0.081272 -0.566077
    5 0.000006 -0.000004 -4.435206 0.072747 -3.186833 -0.099732
    6 18.168325 0.000000 0.000000 0.000000 0.000000 -0.208749
    7 17.411113 0.000000 0.000000 -0.074249 -0.042579 -0.867856
    8 2.259109 -0.002685 0.000003 -0.000004 -0.000001 -0.060247
    9 3.377682 -0.004248 0.000000 0.000130 0.183161 0.052339
    10 5.343323 -0.004100 0.000000 0.000000 0.000000 -0.008708
    11 5.180379 -0.004197 0.000000 0.000000 0.000000 -0.017444
    12 5.279783 -0.001935 0.000000 0.000000 0.000000 0.134667
    13 -3.132950 0.428427 2.533972 -0.672806 -1.317183 -2.620035
    14 6.075668 0.000000 0.000002 -0.228789 1.326382 -0.238288
    15 7.700847 0.000000 0.000000 0.000000 0.000000 -0.016867
    16 10.265787 0.000000 -0.000003 -1.569107 0.000000 0.000000
    17 -3.027999 0.414136 -2.431778 0.672786 1.317186 -2.620054
    18 6.281226 0.000000 -0.000001 0.471287 -0.998034 -0.319544
    19 8.589427 0.000000 -0.000004 0.000000 0.000000 -0.077903
    20 9.932990 0.000000 0.000003 1.568967 0.165722 0.000000
    21 2.456152 0.000000 0.000000 0.003189 -0.183132 -0.127000
    22 0.946167 3.213873 -0.420090 -3.141592 -0.000002 1.413798
    23 1.827063 1.152534 -7.659250 -1.570796 -1.570796 0.000000
  time 21
    0 -0.002942 -0.003561 43.672866 0.000000 0.000000 -1.570844
    1 0.476577 0.921903 0.000000 -1.570795 -1.570796 0.000000
    2 -0.000007 0.000008 4.435206 0.108146 3.155248 -0.033374
    3 18.336223 0.000000 0.000000 0.000000 0.000000 -0.284933
    4 17.141915 0.000000 0.000000 -0.070119 -0.083557 -0.459833
    5 0.000006 -0.000004 -4.435206 0.073226 -3.178544 -0.085359
    6 18.168325 0.000000 0.000000 0.000000 0.000000 -0.264998
    7 17.411113 0.000000 0.000000 -0.067965 -0.045991 -0.796949
    8 2.259109 -0.002685 0.000003 -0.000004 -0.000001 -0.060247
    9 3.377682 -0.004248 0.000000 0.000130 0.167053 0.052339
    10 5.343323 -0.004100 0.000000 0.000000 0.000000 -0.008708
    11 5.180379 -0.004197 0.000000 0.000000 0.000000 -0.017444
    12 5.279783 -0.001935 0.000000 0.000000 0.000000 0.134667
    13 -3.132950 0.428427 2.533972 -0.672806 -1.317183 -2.620035
    14 6.075668 0.000000 0.000002 -0.223130 1.310336 -0.233781
    15 7.700847 0.000000 0.000000 0.000000 0.000000 -0.016867
    16 10.265787 0.000000 -0.000003 -1.569107 0.000000 0.000000
    17 -3.027999 0.414136 -2.431778 0.672786 1.317186 -2.620054
    18 6.281226 0.000000 -0.000001 0.476488 -1.013923 -0.322982
    19 8.589427 0.000000 -0.000004 0.000000 0.000000 -0.077903
    20 9.932990 0.000000 0.000003 1.568967 0.165722 0.000000
    21 2.456152 0.000000 0.000000 0.002919 -0.167001 -0.126957
    22 0.946167 3.213873 -0.420090 -3.141592 -0.000002 1.413798
    23 1.827063 1.152534 -7.659250 -1.570796 -1.570796 0.000000
  time 22
    0 0.000964 -0.003561 43.823652 0.000000 0.000000 -1.570844
    1 0.476577 0.750023 0.000000 -1.570795 -1.570796 0.000000
    2 -0.000007 0.000008 4.435206 0.103928 3.167134 0.016093
    3 18.336223 0.000000 0.000000 0.000000 0.000000 -0.362721
    4 17.141915 0.000000 0.000000 -0.063298 -0.086362 -0.332231
    5 0.000006 -0.000004 -4.435206 0.073705 -3.168826 -0.066345
    6 18.168325 0.000000 0.000000 0.000000 0.000000 -0.330065
    7 17.411113 0.000000 0.000000 -0.060734 -0.049981 -0.712534
    8 2.259109 -0.002685 0.000003 -0.000004 -0.000001 -0.060247
    9 3.377682 -0.004248 0.000000 0.000104 0.136049 0.052339
    10 5.343323 -0.004100 0.000000 0.000000 0.000000 -0.008708
    11 5.180379 -0.004197 0.000000 0.000000 0.000000 -0.017444
    12 5.279783 -0.001935 0.000000 0.000000 0.000000 0.134667
    13 -3.132950 0.428427 2.533972 -0.672806 -1.317183 -2.620035
    14 6.075668 0.000000 0.000002 -0.213894 1.279553 -0.226600
    15 7.700847 0.000000 0.000000 0.000000 0.000000 -0.016867
    16 10.265787 0.000000 -0.000003 -1.569107 0.000000 0.000000
    17 -3.027999 0.414136 -2.431778 0.672786 1.317186 -2.620054
    18 6.281226 0.000000 -0.000001 0.487055 -1.044385 -0.330340
    19 8.589427 0.000000 -0.000004 0.000000 0.000000 -0.077903
    20 9.932990 0.000000 0.000003 1.568967 0.165722 0.000000
    21 2.456152 0.000000 0.000000 0.002379 -0.136012 -0.126871
    22 0.946167 3.213873 -0.420090 -3.141592 -0.000002 1.413798
    23 1.827063 1.152534 -7.659250 -1.570796 -1.570796 0.000000
  time 23
    0 0.004870 -0.003561 44.024701 0.000000 0.000000 -1.570844
    1 0.476577 0.562517 0.000000 -1.570795 -1.570796 0.000000
    2 -0.000007 0.000008 4.435206 0.099230 3.178639 0.062971
    3 18.336223 0.000000 0.000000 0.000000 0.000000 -0.440728
    4 17.141915 0.000000 0.000000 -0.056583 -0.089569 -0.207037
    5 0.000006 -0.000004 -4.435206 0.073993 -3.159203 -0.048669
    6 18.168325 0.000000 0.000000 0.000000 0.000000 -0.395258
    7 17.411113 0.000000 0.000000 -0.053503 -0.054145 -0.629331
    8 2.259109 -0.002685 0.000003 -0.000004 -0.000001 -0.060247
    9 3.377682 -0.004248 0.000000 0.000078 0.101773 0.052314
    10 5.343323 -0.004100 0.000000 0.000000 0.000000 -0.008708
    11 5.180379 -0.004197 0.000000 0.000000 0.000000 -0.017444
    12 5.279783 -0.001935 0.000000 0.000000 0.000000 0.134667
    13 -3.132950 0.428427 2.533972 -0.672806 -1.317183 -2.620035
    14 6.075668 0.000000 0.000002 -0.205504 1.245414 -0.220565
    15 7.700847 0.000000 0.000000 0.000000 0.000000 -0.016867
    16 10.265787 0.000000 -0.000003 -1.569107 0.000000 0.000000
    17 -3.027999 0.414136 -2.431778 0.672786 1.317186 -2.620054
    18 6.281226 0.000000 -0.000001 0.500099 -1.078043 -0.339692
    19 8.589427 0.000000 -0.000004 0.000000 0.000000 -0.077903
    20 9.932990 0.000000 0.000003 1.568967 0.165722 0.000000
    21 2.456152 0.000000 0.000000 0.001730 -0.101756 -0.126828
    22 0.946167 3.213873 -0.420090 -3.141592 -0.000002 1.413798
    23 1.827063 1.152534 -7.659250 -1.570796 -1.570796 0.000000
  time 24
    0 0.004870 -0.003561 44.292767 0.000000 0.000000 -1.570844
    1 0.476577 0.375011 0.000000 -1.570795 -1.570796 0.000000
    2 -0.000007 0.000008 4.435206 0.094148 3.189574 0.104097
    3 18.336223 0.000000 0.000000 0.000000 0.000000 -0.520845
    4 17.141915 0.000000 0.000000 -0.049832 -0.093256 -0.085648
    5 0.000006 -0.000004 -4.435206 0.074185 -3.149485 -0.034028
    6 18.168325 0.000000 0.000000 0.000000 0.000000 -0.462089
    7 17.411113 0.000000 0.000000 -0.046186 -0.058626 -0.547640
    8 2.259109 -0.002685 0.000003 -0.000004 -0.000001 -0.060247
    9 3.377682 -0.004248 0.000000 0.000052 0.068037 0.052314
    10 5.343323 -0.004100 0.000000 0.000000 0.000000 -0.008708
    11 5.180379 -0.004197 0.000000 0.000000 0.000000 -0.017444
    12 5.279783 -0.001935 0.000000 0.000000 0.000000 0.134667
    13 -3.132950 0.428427 2.533972 -0.672806 -1.317183 -2.620035
    14 6.075668 0.000000 0.000002 -0.198544 1.211766 -0.215905
    15 7.700847 0.000000 0.000000 0.000000 0.000000 -0.016867
    16 10.265787 0.000000 -0.000003 -1.569107 0.000000 0.000000
    17 -3.027999 0.414136 -2.431778 0.672786 1.317186 -2.620054
    18 6.281226 0.000000 -0.000001 0.514381 -1.111044 -0.350488
    19 8.589427 0.000000 -0.000004 0.000000 0.000000 -0.077903
    20 9.932990 0.000000 0.000003 1.568967 0.165722 0.000000
    21 2.456152 0.000000 0.000000 0.001135 -0.068020 -0.126742
    22 0.946167 3.213873 -0.420090 -3.141592 -0.000002 1.413798
    23 1.827063 1.152534 -7.659250 -1.570796 -1.570796 0.000000
  time 25
    0 0.004870 -0.003561 44.594340 0.000000 0.000000 -1.570844
    1 0.476577 0.191412 0.000000 -1.570795 -1.570796 0.000000
    2 -0.000007 0.000008 4.435206 0.089259 3.199844 0.133049
    3 18.336223 0.000000 0.000000 0.000000 0.000000 -0.605765
    4 17.141915 0.000000 0.000000 -0.042764 -0.097625 0.028362
    5 0.000006 -0.000004 -4.435206 0.074185 -3.139576 -0.025904
    6 18.168325 0.000000 0.000000 0.000000 0.000000 -0.532763
    7 17.411113 0.000000 0.000000 -0.038352 -0.063599 -0.468636
    8 2.259109 -0.002685 0.000003 -0.000004 -0.000001 -0.060247
    9 3.377682 -0.004248 0.000000 0.000026 0.035199 0.052314
    10 5.343323 -0.004100 0.000000 0.000000 0.000000 -0.008708
    11 5.180379 -0.004197 0.000000 0.000000 0.000000 -0.017444
    12 5.279783 -0.001935 0.000000 0.000000 0.000000 0.134667
    13 -3.132950 0.428427 2.533972 -0.672806 -1.317183 -2.620035
    14 6.075668 0.000000 0.000002 -0.192691 1.179100 -0.212315
    15 7.700847 0.000000 0.000000 0.000000 0.000000 -0.016867
    16 10.265787 0.000000 -0.000003 -1.569107 0.000000 0.000000
    17 -3.027999 0.414136 -2.431778 0.672786 1.317186 -2.620054
    18 6.281226 0.000000 -0.000001 0.530149 -1.143104 -0.362865
    19 8.589427 0.000000 -0.000004 0.000000 0.000000 -0.077903
    20 9.932990 0.000000 0.000003 1.568967 0.165722 0.000000
    21 2.456152 0.000000 0.000000 0.000595 -0.035181 -0.126742
    22 0.946167 3.213873 -0.420090 -3.141592 -0.000002 1.413798
    23 1.827063 1.152534 -7.659250 -1.570796 -1.570796 0.000000
  time 26
    0 0.004870 -0.003561 44.912668 0.000000 0.000000 -1.570844
    1 0.476577 0.011719 0.000000 -1.570795 -1.570796 0.000000
    2 -0.000007 0.000008 4.435206 0.086287 3.206975 0.125955
    3 18.336223 0.000000 0.000000 0.000000 0.000000 -0.689011
    4 17.141915 0.000000 0.000000 -0.035695 -0.102234 0.104511
    5 0.000006 -0.000004 -4.435206 0.074376 -3.130905 -0.035635
    6 18.168325 0.000000 0.000000 0.000000 0.000000 -0.601483
    7 17.411113 0.000000 0.000000 -0.030432 -0.068688 -0.409573
    8 2.259109 -0.002685 0.000003 -0.000004 -0.000001 -0.060247
    9 3.377682 -0.004248 0.000000 0.000000 0.002517 0.052314
    10 5.343323 -0.004100 0.000000 0.000000 0.000000 -0.008708
    11 5.180379 -0.004197 0.000000 0.000000 0.000000 -0.017444
    12 5.279783 -0.001935 0.000000 0.000000 0.000000 0.134667
    13 -3.132950 0.428427 2.533972 -0.672806 -1.317183 -2.620035
    14 6.075668 0.000000 0.000002 -0.187552 1.146517 -0.209489
    15 7.700847 0.000000 0.000000 0.000000 0.000000 -0.016867
    16 10.265787 0.000000 -0.000003 -1.569107 0.000000 0.000000
    17 -3.027999 0.414136 -2.431778 0.672786 1.317186 -2.620054
    18 6.281226 0.000000 -0.000001 0.548063 -1.174976 -0.377443
    19 8.589427 0.000000 -0.000004 0.000000 0.000000 -0.077903
    20 9.932990 0.000000 0.000003 1.568967 0.165722 0.000000
    21 2.456152 0.000000 0.000000 0.000000 -0.002515 -0.126742
    22 0.946167 3.213873 -0.420090 -3.141592 -0.000002 1.413798
    23 1.827063 1.152534 -7.659250 -1.570796 -1.570796 0.000000
  time 27
    0 0.008777 -0.003561 45.197487 0.000000 0.000000 -1.570844
    1 0.476577 -0.164068 0.000000 -1.570795 -1.570796 0.000000
    2 -0.000007 0.000008 4.435206 0.090697 3.204408 -0.000108
    3 18.336223 0.000000 0.000000 0.000000 0.000000 -0.783900
    4 17.141915 0.000000 0.000000 -0.027566 -0.106803 0.073058
    5 0.000006 -0.000004 -4.435206 0.075431 -3.126046 -0.108838
    6 18.168325 0.000000 0.000000 0.000000 0.000000 -0.680660
    7 17.411113 0.000000 0.000000 -0.021566 -0.073921 -0.403708
    8 2.259109 -0.002685 0.000003 -0.000004 -0.000001 -0.060247
    9 3.377682 -0.004248 0.000000 0.000000 -0.030093 0.052314
    10 5.343323 -0.004100 0.000000 0.000000 0.000000 -0.008708
    11 5.180379 -0.004197 0.000000 0.000000 0.000000 -0.017444
    12 5.279783 -0.001935 0.000000 0.000000 0.000000 0.134667
    13 -3.132950 0.428427 2.533972 -0.672806 -1.317183 -2.620035
    14 6.075668 0.000000 0.000002 -0.183064 1.114015 -0.207197
    15 7.700847 0.000000 0.000000 0.000000 0.000000 -0.016867
    16 10.265787 0.000000 -0.000003 -1.569107 0.000000 0.000000
    17 -3.027999 0.414136 -2.431778 0.672786 1.317186 -2.620054
    18 6.281226 0.000000 -0.000001 0.568784 -1.206566 -0.394772
    19 8.589427 0.000000 -0.000004 0.000000 0.000000 -0.077903
    20 9.932990 0.000000 0.000003 1.568967 0.165722 0.000000
    21 2.456152 0.000000 0.000000 -0.000487 0.030093 -0.126742
    22 0.946167 3.213873 -0.420090 -3.141592 -0.000002 1.413798
    23 1.827063 1.152534 -7.659250 -1.570796 -1.570796 0.000000
  time 28
    0 0.008777 -0.003561 45.398536 0.000000 0.000000 -1.570844
    1 0.476577 -0.332041 0.000000 -1.570795 -1.570796 0.000000
    2 -0.000007 0.000008 4.435206 0.100668 3.187863 -0.264217
    3 18.336223 0.000000 0.000000 0.000000 0.000000 -0.883301
    4 17.141915 0.000000 0.000000 -0.017917 -0.109368 -0.092794
    5 0.000006 -0.000004 -4.435206 0.077443 -3.126237 -0.253994
    6 18.168325 0.000000 0.000000 0.000000 0.000000 -0.763364
    7 17.411113 0.000000 0.000000 -0.011408 -0.078085 -0.466480
    8 2.259109 -0.002685 0.000003 -0.000004 -0.000001 -0.060247
    9 3.377682 -0.004248 0.000000 -0.000026 -0.060031 0.052314
    10 5.343323 -0.004100 0.000000 0.000000 0.000000 -0.008708
    11 5.180379 -0.004197 0.000000 0.000000 0.000000 -0.017444
    12 5.279783 -0.001935 0.000000 0.000000 0.000000 0.134667
    13 -3.132950 0.428427 2.533972 -0.672806 -1.317183 -2.620035
    14 6.075668 0.000000 0.000002 -0.179227 1.084133 -0.205517
    15 7.700847 0.000000 0.000000 0.000000 0.000000 -0.016867
    16 10.265787 0.000000 -0.000003 -1.569107 0.000000 0.000000
    17 -3.027999 0.414136 -2.431778 0.672786 1.317186 -2.620054
    18 6.281226 0.000000 -0.000001 0.590826 -1.235523 -0.413820
    19 8.589427 0.000000 -0.000004 0.000000 0.000000 -0.077903
    20 9.932990 0.000000 0.000003 1.568967 0.165722 0.000000
    21 2.456152 0.000000 0.000000 -0.001027 0.060013 -0.126742
    22 0.946167 3.213873 -0.420090 -3.141592 -0.000002 1.413798
    23 1.827063 1.152534 -7.659250 -1.570796 -1.570796 0.000000
  time 29
    0 0.008777 -0.003561 45.465552 0.000000 0.000000 -1.570844
    1 0.476577 -0.433607 0.000000 -1.570795 -1.570796 0.000000
    2 -0.000007 0.000008 4.435206 0.104886 3.173600 -0.451922
    3 18.336223 0.000000 0.000000 0.000000 0.000000 -0.889195
    4 17.141915 0.000000 0.000000 -0.011838 -0.109047 -0.275653
    5 0.000006 -0.000004 -4.435206 0.078402 -3.126332 -0.340231
    6 18.168325 0.000000 0.000000 0.000000 0.000000 -0.758199
    7 17.411113 0.000000 0.000000 -0.004951 -0.079704 -0.558121
    8 2.259109 -0.002685 0.000003 -0.000004 -0.000001 -0.060247
    9 3.377682 -0.004248 0.000000 -0.000052 -0.078499 0.052314
    10 5.343323 -0.004100 0.000000 0.000000 0.000000 -0.008708
    11 5.180379 -0.004197 0.000000 0.000000 0.000000 -0.017444
    12 5.279783 -0.001935 0.000000 0.000000 0.000000 0.134667
    13 -3.132950 0.428427 2.533972 -0.672806 -1.317183 -2.620035
    14 6.075668 0.000000 0.000002 -0.177080 1.065794 -0.204676
    15 7.700847 0.000000 0.000000 0.000000 0.000000 -0.016867
    16 10.265787 0.000000 -0.000003 -1.569107 0.000000 0.000000
    17 -3.027999 0.414136 -2.431778 0.672786 1.317186 -2.620054
    18 6.281226 0.000000 -0.000001 0.606264 -1.253293 -0.427366
    19 8.589427 0.000000 -0.000004 0.000000 0.000000 -0.077903
    20 9.932990 0.000000 0.000003 1.568967 0.165722 0.000000
    21 2.456152 0.000000 0.000000 -0.001351 0.078485 -0.126785
    22 0.946167 3.213873 -0.420090 -3.141592 -0.000002 1.413798
    23 1.827063 1.152534 -7.659250 -1.570796 -1.570796 0.000000
  time 30
    0 0.004870 -0.003561 45.381782 0.000000 0.000000 -1.570844
    1 0.476577 -0.402356 0.000000 -1.570795 -1.570796 0.000000
    2 -0.000007 0.000008 4.435206 0.099901 3.188053 -0.288088
    3 18.336223 0.000000 0.000000 0.000000 0.000000 -0.585318
    4 17.141915 0.000000 0.000000 -0.014630 -0.109208 -0.414827
    5 0.000006 -0.000004 -4.435206 0.075910 -3.116233 -0.170168
    6 18.168325 0.000000 0.000000 0.000000 0.000000 -0.444264
    7 17.411113 0.000000 0.000000 -0.008223 -0.079646 -0.701486
    8 2.259109 -0.002685 0.000003 -0.000004 -0.000001 -0.060247
    9 3.377682 -0.004248 0.000000 -0.000052 -0.073058 0.052314
    10 5.343323 -0.004100 0.000000 0.000000 0.000000 -0.008708
    11 5.180379 -0.004197 0.000000 0.000000 0.000000 -0.017444
    12 5.279783 -0.001935 0.000000 0.000000 0.000000 0.134667
    13 -3.132950 0.428427 2.533972 -0.672806 -1.317183 -2.620035
    14 6.075668 0.000000 0.000002 -0.177731 1.071197 -0.204905
    15 7.700847 0.000000 0.000000 0.000000 0.000000 -0.016867
    16 10.265787 0.000000 -0.000003 -1.569107 0.000000 0.000000
    17 -3.027999 0.414136 -2.431778 0.672786 1.317186 -2.620054
    18 6.281226 0.000000 -0.000001 0.601558 -1.248028 -0.423240
    19 8.589427 0.000000 -0.000004 0.000000 0.000000 -0.077903
    20 9.932990 0.000000 0.000003 1.568967 0.165722 0.000000
    21 2.456152 0.000000 0.000000 -0.001243 0.073050 -0.126785
    22 0.946167 3.213873 -0.420090 -3.141592 -0.000002 1.413798
    23 1.827063 1.152534 -7.659250 -1.570796 -1.570796 0.000000
  time 31
    0 0.000964 -0.003561 45.130471 0.000000 0.000000 -1.570844
    1 0.476577 -0.199225 0.000000 -1.570795 -1.570796 0.000000
    2 -0.000007 0.000008 4.435206 0.090409 3.201650 -0.041522
    3 18.336223 0.000000 0.000000 0.000000 0.000000 -0.274091
    4 17.141915 0.000000 0.000000 -0.024739 -0.105721 -0.478511
    5 0.000006 -0.000004 -4.435206 0.071022 -3.113660 0.026945
    6 18.168325 0.000000 0.000000 0.000000 0.000000 -0.157476
    7 17.411113 0.000000 0.000000 -0.018725 -0.073979 -0.790744
    8 2.259109 -0.002685 0.000003 -0.000004 -0.000001 -0.060247
    9 3.377682 -0.004248 0.000000 -0.000026 -0.035990 0.052314
    10 5.343323 -0.004100 0.000000 0.000000 0.000000 -0.008708
    11 5.180379 -0.004197 0.000000 0.000000 0.000000 -0.017444
    12 5.279783 -0.001935 0.000000 0.000000 0.000000 0.134667
    13 -3.132950 0.428427 2.533972 -0.672806 -1.317183 -2.620035
    14 6.075668 0.000000 0.000002 -0.182284 1.108120 -0.206892
    15 7.700847 0.000000 0.000000 0.000000 0.000000 -0.016867
    16 10.265787 0.000000 -0.000003 -1.569107 0.000000 0.000000
    17 -3.027999 0.414136 -2.431778 0.672786 1.317186 -2.620054
    18 6.281226 0.000000 -0.000001 0.572829 -1.212301 -0.398279
    19 8.589427 0.000000 -0.000004 0.000000 0.000000 -0.077903
    20 9.932990 0.000000 0.000003 1.568967 0.165722 0.000000
    21 2.456152 0.000000 0.000000 -0.000595 0.035962 -0.126742
    22 0.946167 3.213873 -0.420090 -3.141592 -0.000002 1.413798
    23 1.827063 1.152534 -7.659250 -1.570796 -1.570796 0.000000
  time 32
    0 -0.002942 -0.003561 44.728373 0.000000 0.000000 -1.570844
    1 0.476577 0.156255 0.000000 -1.570795 -1.570796 0.000000
    2 -0.000007 0.000008 4.435206 0.097408 3.180921 -0.103068
    3 18.336223 0.000000 0.000000 0.000000 0.000000 -0.511022
    4 17.141915 0.000000 0.000000 -0.038063 -0.097985 -0.303457
    5 0.000006 -0.000004 -4.435206 0.071213 -3.140910 -0.111605
    6 18.168325 0.000000 0.000000 0.000000 0.000000 -0.520543
    7 17.411113 0.000000 0.000000 -0.032412 -0.063368 -0.566824
    8 2.259109 -0.002685 0.000003 -0.000004 -0.000001 -0.060247
    9 3.377682 -0.004248 0.000000 0.000000 0.028487 0.052314
    10 5.343323 -0.004100 0.000000 0.000000 0.000000 -0.008708
    11 5.180379 -0.004197 0.000000 0.000000 0.000000 -0.017444
    12 5.279783 -0.001935 0.000000 0.000000 0.000000 0.134667
    13 -3.132950 0.428427 2.533972 -0.672806 -1.317183 -2.620035
    14 6.075668 0.000000 0.000002 -0.191585 1.172387 -0.211704
    15 7.700847 0.000000 0.000000 0.000000 0.000000 -0.016867
    16 10.265787 0.000000 -0.000003 -1.569107 0.000000 0.000000
    17 -3.027999 0.414136 -2.431778 0.672786 1.317186 -2.620054
    18 6.281226 0.000000 -0.000001 0.533698 -1.149685 -0.365685
    19 8.589427 0.000000 -0.000004 0.000000 0.000000 -0.077903
    20 9.932990 0.000000 0.000003 1.568967 0.165722 0.000000
    21 2.456152 0.000000 0.000000 0.000487 -0.028474 -0.126742
    22 0.946167 3.213873 -0.420090 -3.141592 -0.000002 1.413798
    23 1.827063 1.152534 -7.659250 -1.570796 -1.570796 0.000000
  time 33
    0 -0.010755 -0.003561 44.276013 0.000000 0.000000 -1.570844
    1 0.476577 0.500015 0.000000 -1.570795 -1.570796 0.000000
    2 -0.000007 0.000008 4.435206 0.104982 3.154963 -0.199796
    3 18.336223 0.000000 0.000000 0.000000 0.000000 -0.757413
    4 17.141915 0.000000 0.000000 -0.053579 -0.091372 -0.154497
    5 0.000006 -0.000004 -4.435206 0.067763 -3.171208 -0.274348
    6 18.168325 0.000000 0.000000 0.000000 0.000000 -0.875484
    7 17.411113 0.000000 0.000000 -0.049457 -0.054983 -0.375406
    8 2.259109 -0.002685 0.000003 -0.000004 -0.000001 -0.060247
    9 3.377682 -0.004248 0.000000 0.000052 0.090747 0.052314
    10 5.343323 -0.004100 0.000000 0.000000 0.000000 -0.008708
    11 5.180379 -0.004197 0.000000 0.000000 0.000000 -0.017444
    12 5.279783 -0.001935 0.000000 0.000000 0.000000 0.134667
    13 -3.132950 0.428427 2.533972 -0.672806 -1.317183 -2.620035
    14 6.075668 0.000000 0.000002 -0.203097 1.234444 -0.218885
    15 7.700847 0.000000 0.000000 0.000000 0.000000 -0.016867
    16 10.265787 0.000000 -0.000003 -1.569107 0.000000 0.000000
    17 -3.027999 0.414136 -2.431778 0.672786 1.317186 -2.620054
    18 6.281226 0.000000 -0.000001 0.504557 -1.088761 -0.343061
    19 8.589427 0.000000 -0.000004 0.000000 0.000000 -0.077903
    20 9.932990 0.000000 0.000003 1.568967 0.165722 0.000000
    21 2.456152 0.000000 0.000000 0.001568 -0.090713 -0.126785
    22 0.946167 3.213873 -0.420090 -3.141592 -0.000002 1.413798
    23 1.827063 1.152534 -7.659250 -1.570796 -1.570796 0.000000
  time 34
    0 -0.014662 -0.003561 43.873915 0.000000 0.000000 -1.570844
    1 0.476577 0.792993 0.000000 -1.570795 -1.570796 0.000000
    2 -0.000007 0.000008 4.435206 0.108721 3.146976 -0.145632
    3 18.336223 0.000000 0.000000 0.000000 0.000000 -0.517716
    4 17.141915 0.000000 0.000000 -0.066903 -0.085922 -0.340036
    5 0.000006 -0.000004 -4.435206 0.069201 -3.182736 -0.205876
    6 18.168325 0.000000 0.000000 0.000000 0.000000 -0.586933
    7 17.411113 0.000000 0.000000 -0.064264 -0.048478 -0.595656
    8 2.259109 -0.002685 0.000003 -0.000004 -0.000001 -0.060247
    9 3.377682 -0.004248 0.000000 0.000104 0.143527 0.052339
    10 5.343323 -0.004100 0.000000 0.000000 0.000000 -0.008708
    11 5.180379 -0.004197 0.000000 0.000000 0.000000 -0.017444
    12 5.279783 -0.001935 0.000000 0.000000 0.000000 0.134667
    13 -3.132950 0.428427 2.533972 -0.672806 -1.317183 -2.620035
    14 6.075668 0.000000 0.000002 -0.215976 1.286922 -0.228204
    15 7.700847 0.000000 0.000000 0.000000 0.000000 -0.016867
    16 10.265787 0.000000 -0.000003 -1.569107 0.000000 0.000000
    17 -3.027999 0.414136 -2.431778 0.672786 1.317186 -2.620054
    18 6.281226 0.000000 -0.000001 0.484413 -1.037051 -0.328483
    19 8.589427 0.000000 -0.000004 0.000000 0.000000 -0.077903
    20 9.932990 0.000000 0.000003 1.568967 0.165722 0.000000
    21 2.456152 0.000000 0.000000 0.002487 -0.143499 -0.126914
    22 0.946167 3.213873 -0.420090 -3.141592 -0.000002 1.413798
    23 1.827063 1.152534 -7.659250 -1.570796 -1.570796 0.000000
  time 35
    0 -0.014662 -0.003561 43.622603 0.000000 0.000000 -1.570844
    1 0.476577 1.007843 0.000000 -1.570795 -1.570796 0.000000
    2 -0.000007 0.000008 4.435206 0.111214 3.145169 -0.071816
    3 18.336223 0.000000 0.000000 0.000000 0.000000 -0.217623
    4 17.141915 0.000000 0.000000 -0.076163 -0.081272 -0.566077
    5 0.000006 -0.000004 -4.435206 0.072747 -3.186833 -0.099732
    6 18.168325 0.000000 0.000000 0.000000 0.000000 -0.208749
    7 17.411113 0.000000 0.000000 -0.074249 -0.042579 -0.867856
    8 2.259109 -0.002685 0.000003 -0.000004 -0.000001 -0.060247
    9 3.377682 -0.004248 0.000000 0.000130 0.183161 0.052339
    10 5.343323 -0.004100 0.000000 0.000000 0.000000 -0.008708
    11 5.180379 -0.004197 0.000000 0.000000 0.000000 -0.017444
    12 5.279783 -0.001935 0.000000 0.000000 0.000000 0.134667
    13 -3.132950 0.428427 2.533972 -0.672806 -1.317183 -2.620035
    14 6.075668 0.000000 0.000002 -0.228789 1.326382 -0.238288
    15 7.700847 0.000000 0.000000 0.000000 0.000000 -0.016867
    16 10.265787 0.000000 -0.000003 -1.569107 0.000000 0.000000
    17 -3.027999 0.414136 -2.431778 0.672786 1.317186 -2.620054
    18 6.281226 0.000000 -0.000001 0.471287 -0.998034 -0.319544
    19 8.589427 0.000000 -0.000004 0.000000 0.000000 -0.077903
    20 9.932990 0.000000 0.000003 1.568967 0.165722 0.000000
    21 2.456152 0.000000 0.000000 0.003189 -0.183132 -0.127000
    22 0.946167 3.213873 -0.420090 -3.141592 -0.000002 1.413798
    23 1.827063 1.152534 -7.659250 -1.570796 -1.570796 0.000000
end
