version 1
nodes
  0 "Bip01" -1
  1 "Bip01 Pelvis" 0
  2 "Bip01 L Leg" 1
  3 "Bip01 L Leg1" 2
  4 "Bip01 L Foot" 3
  5 "Bip01 R Leg" 1
  6 "Bip01 R Leg1" 5
  7 "Bip01 R Foot" 6
  8 "Bip01 Spine" 1
  9 "Bip01 Spine1" 8
  10 "Bip01 Spine2" 9
  11 "Bip01 Spine3" 10
  12 "Bip01 Neck" 11
  13 "Bip01 L Arm" 12
  14 "Bip01 L Arm1" 13
  15 "Bip01 L Arm2" 14
  16 "Bip01 L Hand" 15
  17 "Bip01 R Arm" 12
  18 "Bip01 R Arm1" 17
  19 "Bip01 R Arm2" 18
  20 "Bip01 R Hand" 19
  21 "Bip01 Head" 12
  22 "Bone05" 21
  23 "Bone03" 1
end
skeleton
  time 0
    0 0.571294 0.261504 41.293786 0.000000 0.078446 -1.570844
    1 -0.855495 -0.160161 0.000000 -1.570795 -1.570796 0.000000
    2 -0.000007 0.000008 4.427393 0.001247 3.154487 0.233516
    3 18.301065 0.000000 0.000000 0.000000 0.000000 -0.001867
    4 17.106758 0.000000 0.000000 -0.026294 -0.006364 0.296341
    5 0.000006 -0.000004 -4.427393 -0.000766 -3.157964 -0.178113
    6 18.133167 0.000000 0.000000 0.000000 0.000000 -0.181601
    7 17.375956 0.000000 0.000000 0.243317 0.016374 0.081932
    8 2.255203 -0.002685 0.000003 -0.000004 -0.000001 0.000796
    9 3.373776 -0.004248 0.000000 0.121194 -0.014933 0.121186
    10 5.335510 -0.004100 0.000000 0.043179 -0.006088 0.139416
    11 5.172566 -0.004197 0.000000 0.095635 -0.007586 0.078123
    12 5.271970 -0.001935 0.000000 0.000072 0.104661 0.527161
    13 -2.980602 1.592525 2.233182 -0.122473 -1.278266 -3.551488
    14 6.063949 0.000000 0.000002 0.498121 0.980241 0.215695
    15 7.685221 0.000000 0.000000 0.000000 0.000000 -0.749464
    16 10.246255 0.000000 -0.000003 -1.577768 0.244064 -0.035942
    17 -2.371729 1.539170 -2.689599 1.017880 1.366791 -2.679277
    18 6.269507 0.000000 -0.000001 0.164102 -1.003393 -0.375930
    19 8.573802 0.000000 -0.000004 0.000000 0.000000 -1.107064
    20 9.913458 0.000000 0.000003 1.925539 -0.060310 -0.297821
    21 2.452246 0.000000 0.000000 -0.198397 -0.048594 -0.569183
    22 0.946167 3.213873 -0.420090 -3.141592 -0.000002 1.413798
    23 1.827063 1.152534 -7.643625 -1.570796 -1.570796 0.000000
  time 1
    0 0.579107 -0.429558 40.874934 -0.000096 0.132819 -1.575350
    1 -0.843776 -0.003906 0.000000 -0.000025 -1.589264 -1.570793
    2 -0.000007 0.000008 4.427393 -0.166914 3.171603 -0.383762
    3 18.301065 0.000000 0.000000 0.000000 0.000000 -0.493921
    4 17.106758 0.000000 0.000000 0.166010 0.036601 0.209979
    5 0.000006 -0.000004 -4.427393 0.094983 -3.227612 -0.346212
    6 18.133167 0.000000 0.000000 0.000000 0.000000 -1.064640
    7 17.375956 0.000000 0.000000 -0.039041 0.056246 -0.129691
    8 2.255203 -0.002685 -0.039061 -0.027138 0.018906 0.016578
    9 3.373776 -0.004248 0.000000 0.051243 -0.001342 0.101637
    10 5.335510 -0.004100 0.000000 0.010167 -0.001354 0.132058
    11 5.172566 -0.004197 0.000000 0.060551 -0.003535 0.057512
    12 5.271970 -0.001935 0.000000 0.067761 0.071932 0.521664
    13 -2.914194 1.729248 2.217556 0.010146 -1.297196 -3.670626
    14 6.063949 0.000000 0.000002 0.442055 1.018146 0.245334
    15 7.685221 0.000000 0.000000 0.000000 0.000000 -0.839171
    16 10.246255 0.000000 -0.000003 -1.565698 0.213575 -0.028597
    17 -2.465482 1.343852 -2.705224 1.378443 1.331316 -2.310639
    18 6.269507 0.000000 -0.000001 -0.162649 -1.052658 -0.224512
    19 8.573802 0.000000 -0.000004 0.000000 0.000000 -1.192655
    20 9.913458 0.000000 0.000003 1.932770 -0.085391 -0.073695
    21 2.452246 0.000000 0.000000 -0.112767 -0.096986 -0.506771
    22 0.946167 3.213873 -0.420090 -3.141592 -0.000002 1.413798
    23 1.827063 1.152534 -7.643625 -1.570796 -1.570796 0.000000
  time 2
    0 0.598638 -0.353825 40.824671 -0.000288 0.085603 -1.582253
    1 -0.785180 0.179693 0.000000 -0.000025 -1.616122 -1.570793
    2 -0.000007 0.000008 4.427393 -0.150041 3.193283 -0.361521
    3 18.301065 0.000000 0.000000 0.000000 0.000000 -0.544349
    4 17.106758 0.000000 0.000000 0.149646 0.041852 0.236346
    5 0.000006 -0.000004 -4.427393 0.113864 -3.197409 -0.554572
    6 18.133167 0.000000 0.000000 0.000000 0.000000 -1.019351
    7 17.375956 0.000000 0.000000 0.047819 0.050203 0.029754
    8 2.255203 -0.002685 -0.101563 -0.067313 0.048096 0.040466
    9 3.373776 -0.004248 0.000000 -0.055705 0.013830 0.069601
    10 5.335510 -0.004100 0.000000 -0.040123 0.004902 0.120703
    11 5.172566 -0.004197 0.000000 0.006943 -0.000180 0.025893
    12 5.271970 -0.001935 0.000000 0.171476 0.024580 0.510220
    13 -2.816535 1.940192 2.162867 0.243370 -1.313440 -3.885342
    14 6.063949 0.000000 0.000002 0.377924 1.048356 0.324015
    15 7.685221 0.000000 0.000000 0.000000 0.000000 -0.972329
    16 10.246255 0.000000 -0.000003 -1.543862 0.172197 -0.015954
    17 -2.602205 1.046968 -2.709131 -1.447430 1.903150 -5.119673
    18 6.269507 0.000000 -0.000001 -0.647822 -1.052188 -0.012237
    19 8.573802 0.000000 -0.000004 0.000000 0.000000 -1.313142
    20 9.913458 0.000000 0.000003 1.932604 -0.121756 0.249440
    21 2.452246 0.000000 0.000000 0.015893 -0.163619 -0.415328
    22 0.946167 3.213873 -0.420090 -3.141592 -0.000002 1.413798
    23 1.827063 1.152534 -7.643625 -1.570796 -1.570460 0.000000
  time 3
    0 0.618170 -1.234218 40.087492 -0.000288 0.035319 -1.590498
    1 -0.738304 0.289071 0.000000 -0.000025 -1.642798 -1.570793
    2 -0.000007 0.000008 4.427393 -0.126264 3.221523 -0.363151
    3 18.301065 0.000000 0.000000 0.000000 0.000000 -0.716518
    4 17.106758 0.000000 0.000000 0.126885 0.041531 0.356880
    5 0.000006 -0.000004 -4.427393 0.122874 -3.121378 -0.197485
    6 18.133167 0.000000 0.000000 0.000000 0.000000 -0.465806
    7 17.375956 0.000000 0.000000 0.109025 0.032219 0.298852
    8 2.251297 -0.002685 -0.160158 -0.099977 0.078515 0.063646
    9 3.373776 -0.004248 0.000000 -0.147155 0.021536 0.042414
    10 5.335510 -0.004100 0.000000 -0.083109 0.009024 0.107176
    11 5.172566 -0.004197 0.000000 -0.038750 -0.000048 -0.002190
    12 5.271970 -0.001935 0.000000 0.262451 -0.013962 0.497523
    13 -2.738407 2.123791 2.092553 0.410760 -1.331882 -4.039297
    14 6.063949 0.000000 0.000002 0.291483 1.042625 0.328370
    15 7.685221 0.000000 0.000000 0.000000 0.000000 -1.129626
    16 10.246255 0.000000 -0.000003 -1.519354 0.122605 -0.002529
    17 -2.715490 0.789147 -2.685692 -1.253876 2.001567 -4.901532
    18 6.269507 0.000000 -0.000001 -1.054155 -0.989572 0.154517
    19 8.573802 0.000000 -0.000004 0.000000 0.000000 -1.452956
    20 9.913458 0.000000 0.000003 1.920902 -0.164107 0.590448
    21 2.452246 0.000000 0.000000 0.123904 -0.212213 -0.341200
    22 0.946167 3.213873 -0.420090 -3.141592 -0.000002 1.413798
    23 1.827063 1.152534 -7.643625 -1.570796 -1.570796 0.000000
  time 4
    0 0.622077 3.120416 39.584869 0.000000 0.000000 -1.605743
    1 -0.742210 0.324229 0.000000 -0.000025 -1.658014 -1.570793
    2 -0.000007 0.000008 4.427393 -0.079670 3.307957 -0.659950
    3 18.301065 0.000000 0.000000 0.000000 0.000000 -1.193364
    4 17.106758 0.000000 0.000000 0.100306 0.043335 0.222560
    5 0.000006 -0.000004 -4.427393 0.133704 -3.113851 -0.355764
    6 18.133167 0.000000 0.000000 0.000000 0.000000 -0.571501
    7 17.375956 0.000000 0.000000 0.093616 0.014379 0.211637
    8 2.247390 -0.002685 -0.195315 -0.114843 0.096581 0.079056
    9 3.373776 -0.004248 0.000000 -0.191798 0.023921 0.030906
    10 5.335510 -0.004100 0.000000 -0.104151 0.010079 0.095432
    11 5.172566 -0.004197 0.000000 -0.061047 -0.001007 -0.017413
    12 5.271970 -0.001935 0.000000 0.309059 -0.032598 0.490161
    13 -2.703250 2.213638 2.045676 0.402685 -1.372182 -4.025370
    14 6.063949 0.000000 0.000002 0.170895 1.009550 0.185750
    15 7.685221 0.000000 0.000000 0.000000 0.000000 -1.291425
    16 10.246255 0.000000 -0.000003 -1.498715 0.067778 0.007766
    17 -2.770179 0.660237 -2.662254 -1.115705 2.067789 -4.738884
    18 6.269507 0.000000 -0.000001 -1.274163 -0.907401 0.258351
    19 8.573802 0.000000 -0.000004 0.000000 0.000000 -1.594457
    20 9.913458 0.000000 0.000003 1.903957 -0.208463 0.844333
    21 2.452246 0.000000 0.000000 0.175638 -0.231350 -0.306010
    22 0.946167 3.213873 -0.420090 -3.141592 -0.000002 1.413798
    23 1.827063 1.152534 -7.643625 -1.570796 -1.570796 0.000000
  time 5
    0 0.606451 4.379473 39.752410 0.000288 -0.009759 -1.641984
    1 -0.781274 0.316416 0.000000 -0.000025 -1.646127 -1.570793
    2 -0.000007 0.000008 4.427393 -0.107665 3.300445 -0.429010
    3 18.301065 0.000000 0.000000 0.000000 0.000000 -1.202169
    4 17.106758 0.000000 0.000000 0.081716 0.025259 0.256500
    5 0.000006 -0.000004 -4.427393 0.131979 -3.117281 -0.366655
    6 18.133167 0.000000 0.000000 0.000000 0.000000 -0.514055
    7 17.375956 0.000000 0.000000 0.058407 0.003682 0.134714
    8 2.251297 -0.002685 -0.167971 -0.114946 0.085866 0.088764
    9 3.373776 -0.004248 0.000000 -0.191798 0.023658 0.029524
    10 5.335510 -0.004100 0.000000 -0.104248 0.009000 0.085020
    11 5.172566 -0.004197 0.000000 -0.061025 -0.001450 -0.024608
    12 5.271970 -0.001935 0.000000 0.309059 -0.032598 0.490161
    13 -2.703250 2.213638 2.045676 0.114931 -1.425446 -3.736443
    14 6.063949 0.000000 0.000002 0.035607 0.960511 -0.068015
    15 7.685221 0.000000 0.000000 0.000000 0.000000 -1.438414
    16 10.246255 0.000000 -0.000003 -1.487751 0.010965 0.012131
    17 -2.770179 0.660237 -2.662254 2.183216 1.019968 -1.415786
    18 6.269507 0.000000 -0.000001 -1.391555 -0.728390 0.406813
    19 8.573802 0.000000 -0.000004 0.000000 0.000000 -1.812346
    20 9.913458 0.000000 0.000003 1.887012 -0.302982 0.943622
    21 2.452246 0.000000 0.000000 0.175963 -0.226089 -0.297352
    22 0.946167 3.213873 -0.420090 -3.141592 -0.000002 1.413798
    23 1.827063 1.152534 -7.643625 -1.570796 -1.570796 0.000000
  time 6
    0 0.590826 5.051601 39.936705 0.000192 -0.003811 -1.686183
    1 -0.820338 0.312510 0.000000 -0.000025 -1.614998 -1.570793
    2 -0.000007 0.000008 4.427393 -0.161641 3.207165 -0.076034
    3 18.301065 0.000000 0.000000 0.000000 0.000000 -0.603509
    4 17.106758 0.000000 0.000000 0.029726 -0.001755 0.504131
    5 0.000006 -0.000004 -4.427393 0.123449 -3.141100 -0.382278
    6 18.133167 0.000000 0.000000 0.000000 0.000000 -0.453901
    7 17.375956 0.000000 0.000000 0.014504 -0.003113 0.065510
    8 2.255203 -0.002685 -0.097656 -0.117260 0.055835 0.096832
    9 3.373776 -0.004248 0.000000 -0.191798 0.023933 0.030931
    10 5.335510 -0.004100 0.000000 -0.104344 0.007850 0.074075
    11 5.172566 -0.004197 0.000000 -0.061025 -0.001750 -0.029548
    12 5.271970 -0.001935 0.000000 0.309059 -0.032598 0.490161
    13 -2.703250 2.213638 2.045676 -0.253858 -1.455061 -3.365102
    14 6.063949 0.000000 0.000002 -0.098770 0.908033 -0.301462
    15 7.685221 0.000000 0.000000 0.000000 0.000000 -1.551086
    16 10.246255 0.000000 -0.000003 -1.491897 -0.044549 0.008368
    17 -2.770179 0.660237 -2.662254 2.304963 0.955878 -1.270168
    18 6.269507 0.000000 -0.000001 -1.392794 -0.549380 0.481009
    19 8.573802 0.000000 -0.000004 0.000000 0.000000 -2.032535
    20 9.913458 0.000000 0.000003 1.890820 -0.410581 0.889205
    21 2.452246 0.000000 0.000000 0.176449 -0.221811 -0.291710
    22 0.946167 3.213873 -0.420090 -3.141592 -0.000002 1.413798
    23 1.827063 1.152534 -7.643625 -1.570796 -1.570796 0.000000
  time 7
    0 0.575200 5.610131 40.020475 0.000000 0.000000 -1.710440
    1 -0.859401 0.308603 0.000000 -0.000025 -1.596955 -1.570745
    2 -0.000007 0.000008 4.427393 -0.163559 3.185486 -0.088304
    3 18.301065 0.000000 0.000000 0.000000 0.000000 -0.588665
    4 17.106758 0.000000 0.000000 0.005940 0.003135 0.481375
    5 0.000006 -0.000004 -4.427393 0.119232 -3.149675 -0.388348
    6 18.133167 0.000000 0.000000 0.000000 0.000000 -0.417493
    7 17.375956 0.000000 0.000000 -0.008739 -0.011613 0.027862
    8 2.255203 -0.002685 -0.058593 -0.118726 0.038718 0.103782
    9 3.373776 -0.004248 0.000000 -0.191772 0.024449 0.033594
    10 5.335510 -0.004100 0.000000 -0.104441 0.006771 0.063786
    11 5.172566 -0.004197 0.000000 -0.061003 -0.001965 -0.033053
    12 5.271970 -0.001935 0.000000 0.309059 -0.032598 0.490161
    13 -2.703250 2.213638 2.045676 -0.518337 -1.467644 -3.098686
    14 6.063949 0.000000 0.000002 -0.225016 0.856210 -0.497477
    15 7.685221 0.000000 0.000000 0.000000 0.000000 -1.610000
    16 10.246255 0.000000 -0.000003 -1.516590 -0.095784 -0.005027
    17 -2.770179 0.660237 -2.662254 2.332941 0.937129 -1.235629
    18 6.269507 0.000000 -0.000001 -1.304873 -0.646595 0.433287
    19 8.573802 0.000000 -0.000004 0.000000 0.000000 -2.038441
    20 9.913458 0.000000 0.000003 1.926532 -0.405463 0.769889
    21 2.452246 0.000000 0.000000 0.176990 -0.218371 -0.288135
    22 0.946167 3.213873 -0.420090 -3.141592 -0.000002 1.413798
    23 1.827063 1.152534 -7.643625 -1.570796 -1.570796 0.000000
  time 8
    0 0.571294 4.975869 40.003721 0.000000 0.000000 -1.710440
    1 -0.902371 0.308603 0.000000 -0.000025 -1.596955 -1.570745
    2 -0.000007 0.000008 4.427393 -0.164422 3.181302 -0.061079
    3 18.301065 0.000000 0.000000 0.000000 0.000000 -0.567635
    4 17.106758 0.000000 0.000000 0.005763 0.002774 0.487899
    5 0.000006 -0.000004 -4.427393 0.118465 -3.153867 -0.386652
    6 18.133167 0.000000 0.000000 0.000000 0.000000 -0.448673
    7 17.375956 0.000000 0.000000 -0.009600 -0.007305 0.060175
    8 2.255203 -0.002685 -0.058593 -0.118495 0.039451 0.109950
    9 3.373776 -0.004248 0.000000 -0.191746 0.025072 0.036810
    10 5.335510 -0.004100 0.000000 -0.104505 0.005789 0.054358
    11 5.172566 -0.004197 0.000000 -0.061003 -0.002121 -0.035677
    12 5.271970 -0.001935 0.000000 0.309059 -0.032598 0.490161
    13 -2.703250 2.213638 2.045676 -0.482712 -1.469651 -3.134647
    14 6.063949 0.000000 0.000002 -0.333312 0.798902 -0.647812
    15 7.685221 0.000000 0.000000 0.000000 0.000000 -1.608695
    16 10.246255 0.000000 -0.000003 -1.563579 -0.142511 -0.027092
    17 -2.770179 0.660237 -2.662254 2.441033 1.014857 -1.142920
    18 6.269507 0.000000 -0.000001 -1.174932 -0.869699 0.390859
    19 8.573802 0.000000 -0.000004 0.000000 0.000000 -1.916957
    20 9.913458 0.000000 0.000003 1.959319 -0.330009 0.658902
    21 2.452246 0.000000 0.000000 0.177584 -0.215538 -0.285895
    22 0.946167 3.213873 -0.420090 -3.141592 -0.000002 1.413798
    23 1.827063 1.152534 -7.643625 -1.570796 -1.570796 0.000000
  time 9
    0 0.575200 4.388940 39.953459 0.000000 0.000000 -1.710440
    1 -0.941435 0.312510 0.000000 -0.000025 -1.596955 -1.570745
    2 -0.000007 0.000008 4.427393 -0.165093 3.177974 -0.039413
    3 18.301065 0.000000 0.000000 0.000000 0.000000 -0.555483
    4 17.106758 0.000000 0.000000 0.005657 0.002574 0.497607
    5 0.000006 -0.000004 -4.427393 0.117506 -3.158155 -0.388794
    6 18.133167 0.000000 0.000000 0.000000 0.000000 -0.484072
    7 17.375956 0.000000 0.000000 -0.010289 -0.003171 0.092980
    8 2.255203 -0.002685 -0.058593 -0.118263 0.040141 0.115651
    9 3.373776 -0.004248 0.000000 -0.191719 0.025767 0.040378
    10 5.335510 -0.004100 0.000000 -0.104538 0.004854 0.045483
    11 5.172566 -0.004197 0.000000 -0.061003 -0.002253 -0.037746
    12 5.271970 -0.001935 0.000000 0.309059 -0.032598 0.490161
    13 -2.703250 2.213638 2.045676 -0.306772 -1.476865 -3.311972
    14 6.063949 0.000000 0.000002 -0.434842 0.746096 -0.774389
    15 7.685221 0.000000 0.000000 0.000000 0.000000 -1.573856
    16 10.246255 0.000000 -0.000003 -1.622269 -0.187136 -0.051836
    17 -2.770179 0.660237 -2.662254 2.575672 1.099909 -1.023517
    18 6.269507 0.000000 -0.000001 -0.888716 -1.094402 0.195363
    19 8.573802 0.000000 -0.000004 0.000000 0.000000 -1.766789
    20 9.913458 0.000000 0.000003 1.981398 -0.237585 0.550863
    21 2.452246 0.000000 0.000000 0.178125 -0.213052 -0.284689
    22 0.946167 3.213873 -0.420090 -3.141592 -0.000002 1.413798
    23 1.827063 1.152534 -7.643625 -1.570796 -1.570796 0.000000
  time 10
    0 0.575200 3.877744 39.869689 0.000000 0.000000 -1.710440
    1 -0.984405 0.312510 0.000000 -0.000025 -1.596955 -1.570745
    2 -0.000007 0.000008 4.427393 -0.165668 3.175216 -0.022541
    3 18.301065 0.000000 0.000000 0.000000 0.000000 -0.548788
    4 17.106758 0.000000 0.000000 0.005551 0.002454 0.507975
    5 0.000006 -0.000004 -4.427393 0.116548 -3.162157 -0.391740
    6 18.133167 0.000000 0.000000 0.000000 0.000000 -0.516764
    7 17.375956 0.000000 0.000000 -0.010891 0.000443 0.122266
    8 2.255203 -0.002685 -0.058593 -0.118032 0.040809 0.121297
    9 3.373776 -0.004248 0.000000 -0.191693 0.026534 0.044374
    10 5.335510 -0.004100 0.000000 -0.104570 0.003943 0.036834
    11 5.172566 -0.004197 0.000000 -0.061003 -0.002361 -0.039491
    12 5.271970 -0.001935 0.000000 0.309059 -0.032598 0.490161
    13 -2.703250 2.213638 2.045676 -0.007524 -1.481259 -3.613108
    14 6.063949 0.000000 0.000002 -0.531560 0.689607 -0.887216
    15 7.685221 0.000000 0.000000 0.000000 0.000000 -1.518270
    16 10.246255 0.000000 -0.000003 -1.689344 -0.233022 -0.077694
    17 -2.770179 0.660237 -2.662254 2.742489 1.174139 -0.867853
    18 6.269507 0.000000 -0.000001 -0.301340 -1.226121 -0.310054
    19 8.573802 0.000000 -0.000004 0.000000 0.000000 -1.619152
    20 9.913458 0.000000 0.000003 1.991665 -0.146478 0.454756
    21 2.452246 0.000000 0.000000 0.178774 -0.210768 -0.284344
    22 0.946167 3.213873 -0.420090 -3.141592 -0.000002 1.413798
    23 1.827063 1.152534 -7.643625 -1.570796 -1.570796 0.000000
  time 11
    0 0.575200 3.470680 39.802672 0.000000 0.000000 -1.710440
    1 -1.031281 0.316416 0.000000 -0.000025 -1.596955 -1.570745
    2 -0.000007 0.000008 4.427393 -0.165956 3.173029 -0.009503
    3 18.301065 0.000000 0.000000 0.000000 0.000000 -0.543840
    4 17.106758 0.000000 0.000000 0.005515 0.002494 0.516285
    5 0.000006 -0.000004 -4.427393 0.115781 -3.165301 -0.393615
    6 18.133167 0.000000 0.000000 0.000000 0.000000 -0.541518
    7 17.375956 0.000000 0.000000 -0.011322 0.003392 0.144779
    8 2.255203 -0.002685 -0.058593 -0.117800 0.041499 0.127223
    9 3.373776 -0.004248 0.000000 -0.191641 0.027421 0.048896
    10 5.335510 -0.004100 0.000000 -0.104602 0.003032 0.028143
    11 5.172566 -0.004197 0.000000 -0.061003 -0.002445 -0.040988
    12 5.271970 -0.001935 0.000000 0.309059 -0.032598 0.490161
    13 -2.703250 2.213638 2.045676 0.387960 -1.474045 -4.011348
    14 6.063949 0.000000 0.000002 -0.628407 0.621410 -0.994849
    15 7.685221 0.000000 0.000000 0.000000 0.000000 -1.441676
    16 10.246255 0.000000 -0.000003 -1.768489 -0.284754 -0.105298
    17 -2.770179 0.660237 -2.662254 2.977581 1.237463 -0.640528
    18 6.269507 0.000000 -0.000001 0.457583 -1.168583 -0.990201
    19 8.573802 0.000000 -0.000004 0.000000 0.000000 -1.464383
    20 9.913458 0.000000 0.000003 1.992438 -0.051181 0.358976
    21 2.452246 0.000000 0.000000 0.179531 -0.208629 -0.285033
    22 0.946167 3.213873 -0.420090 -3.141592 -0.000002 1.413798
    23 1.827063 1.152534 -7.643625 -1.570796 -1.570796 0.000000
  time 12
    0 0.575200 3.470680 39.802672 0.000000 0.000000 -1.710440
    1 -1.085971 0.320322 0.000000 -0.000025 -1.596955 -1.570745
    2 -0.000007 0.000008 4.427393 -0.165956 3.173124 -0.012667
    3 18.301065 0.000000 0.000000 0.000000 0.000000 -0.547260
    4 17.106758 0.000000 0.000000 0.005586 0.002895 0.516557
    5 0.000006 -0.000004 -4.427393 0.115685 -3.165301 -0.394776
    6 18.133167 0.000000 0.000000 0.000000 0.000000 -0.540573
    7 17.375956 0.000000 0.000000 -0.011235 0.003364 0.142660
    8 2.255203 -0.002685 -0.058593 -0.117518 0.042254 0.133670
    9 3.373776 -0.004248 0.000000 -0.191589 0.028427 0.054098
    10 5.335510 -0.004100 0.000000 -0.104634 0.002133 0.019597
    11 5.172566 -0.004197 0.000000 -0.060982 -0.002529 -0.042239
    12 5.271970 -0.001935 0.000000 0.309059 -0.032598 0.490161
    13 -2.703250 2.213638 2.045676 0.762449 -1.446708 -4.389367
    14 6.063949 0.000000 0.000002 -0.726036 0.533811 -1.099656
    15 7.685221 0.000000 0.000000 0.000000 0.000000 -1.339965
    16 10.246255 0.000000 -0.000003 -1.864218 -0.346610 -0.134799
    17 -2.770179 0.660237 -2.662254 3.352085 1.280973 -0.270263
    18 6.269507 0.000000 -0.000001 0.901066 -0.921033 -1.352589
    19 8.573802 0.000000 -0.000004 0.000000 0.000000 -1.281467
    20 9.913458 0.000000 0.000003 1.981453 0.060219 0.247989
    21 2.452246 0.000000 0.000000 0.180395 -0.206634 -0.287316
    22 0.946167 3.213873 -0.420090 -3.141592 -0.000002 1.413798
    23 1.827063 1.152534 -7.643625 -1.570796 -1.570796 0.000000
  time 13
    0 0.575200 3.470680 39.802672 0.000000 0.000000 -1.710440
    1 -1.152379 0.328135 0.000000 -0.000025 -1.596955 -1.570745
    2 -0.000007 0.000008 4.427393 -0.166051 3.173124 -0.015830
    3 18.301065 0.000000 0.000000 0.000000 0.000000 -0.549953
    4 17.106758 0.000000 0.000000 0.005692 0.003456 0.516130
    5 0.000006 -0.000004 -4.427393 0.115685 -3.165396 -0.395401
    6 18.133167 0.000000 0.000000 0.000000 0.000000 -0.538054
    7 17.375956 0.000000 0.000000 -0.011235 0.003364 0.139482
    8 2.255203 -0.002685 -0.058593 -0.117209 0.043094 0.140713
    9 3.373776 -0.004248 0.000000 -0.191537 0.029530 0.059801
    10 5.335510 -0.004100 0.000000 -0.104634 0.001354 0.012198
    11 5.172566 -0.004197 0.000000 -0.060982 -0.002589 -0.043165
    12 5.271970 -0.001935 0.000000 0.309059 -0.032598 0.490161
    13 -2.703250 2.213638 2.045676 1.016098 -1.399682 -4.647293
    14 6.063949 0.000000 0.000002 -0.815469 0.423943 -1.194837
    15 7.685221 0.000000 0.000000 0.000000 0.000000 -1.216593
    16 10.246255 0.000000 -0.000003 -1.973583 -0.419011 -0.163998
    17 -2.770179 0.660237 -2.662254 -2.428665 1.269440 0.234138
    18 6.269507 0.000000 -0.000001 1.094409 -0.547030 -1.471688
    19 8.573802 0.000000 -0.000004 0.000000 0.000000 -1.060281
    20 9.913458 0.000000 0.000003 1.951316 0.191192 0.111221
    21 2.452246 0.000000 0.000000 0.181477 -0.205102 -0.292183
    22 0.946167 3.213873 -0.420090 -3.141592 -0.000002 1.413798
    23 1.827063 1.152534 -7.643625 -1.570796 -1.570796 0.000000
  time 14
    0 0.575200 4.559338 39.551361 0.000000 0.000000 -1.710440
    1 -1.226600 0.339854 0.000000 -0.000025 -1.596955 -1.570745
    2 -0.000007 0.000008 4.427393 -0.163559 3.184630 -0.094152
    3 18.301065 0.000000 0.000000 0.000000 0.000000 -0.648262
    4 17.106758 0.000000 0.000000 0.006046 0.004979 0.535274
    5 0.000006 -0.000004 -4.427393 0.116644 -3.162538 -0.437626
    6 18.133167 0.000000 0.000000 0.000000 0.000000 -0.553738
    7 17.375956 0.000000 0.000000 -0.009858 -0.004472 0.113639
    8 2.255203 -0.002685 -0.058593 -0.116900 0.043957 0.148092
    9 3.373776 -0.004248 0.000000 -0.191458 0.030573 0.065153
    10 5.335510 -0.004100 0.000000 -0.104634 0.000983 0.008672
    11 5.172566 -0.004197 0.000000 -0.060982 -0.002601 -0.043520
    12 5.271970 -0.001935 0.000000 0.336383 0.033401 0.293368
    13 -3.105606 1.666746 1.990987 1.150047 -1.323502 -4.577565
    14 6.063949 0.000000 0.000002 -0.874136 0.309490 -1.264046
    15 7.685221 0.000000 0.000000 0.000000 0.000000 -1.107183
    16 10.246255 0.000000 -0.000003 -2.068391 -0.489808 -0.188411
    17 -2.840494 0.007874 -2.673973 -2.124059 1.213194 -5.524189
    18 6.269507 0.000000 -0.000001 1.157150 -0.162120 -1.495206
    19 8.573802 0.000000 -0.000004 0.000000 0.000000 -0.845767
    20 9.913458 0.000000 0.000003 1.903515 0.311361 -0.032613
    21 2.452246 0.000000 0.000000 0.168070 -0.200014 -0.149785
    22 0.946167 3.213873 -0.420090 -3.141592 -0.000002 1.413798
    23 1.827063 1.152534 -7.643625 -1.570796 -1.570796 0.000000
  time 15
    0 0.559575 4.294274 39.785918 0.000000 0.000000 -1.710440
    1 -1.359416 0.375011 0.000000 -0.000025 -1.596955 -1.570745
    2 -0.000007 0.000008 4.427393 -0.164709 3.179590 -0.069611
    3 18.301065 0.000000 0.000000 0.000000 0.000000 -0.602054
    4 17.106758 0.000000 0.000000 0.006152 0.005900 0.514110
    5 0.000006 -0.000004 -4.427393 0.116644 -3.161585 -0.411827
    6 18.133167 0.000000 0.000000 0.000000 0.000000 -0.511032
    7 17.375956 0.000000 0.000000 -0.010202 -0.002390 0.096688
    8 2.255203 -0.002685 -0.058593 -0.116566 0.044884 0.155881
    9 3.373776 -0.004248 0.000000 -0.191354 0.032071 0.072892
    10 5.335510 -0.004100 0.000000 -0.104634 0.002229 0.020498
    11 5.172566 -0.004197 0.000000 -0.061003 -0.002385 -0.039969
    12 5.271970 -0.001935 0.000000 0.329229 0.012140 0.354894
    13 -2.992321 1.846439 2.006613 1.235832 -1.268503 -4.733809
    14 6.063949 0.000000 0.000002 -0.875828 0.287222 -1.211948
    15 7.685221 0.000000 0.000000 0.000000 0.000000 -1.022500
    16 10.246255 0.000000 -0.000003 -2.021033 -0.533287 -0.285130
    17 -2.832681 0.214911 -2.670067 -2.023892 1.147327 -5.488023
    18 6.269507 0.000000 -0.000001 1.142538 -0.122445 -1.446589
    19 8.573802 0.000000 -0.000004 0.000000 0.000000 -0.725740
    20 9.913458 0.000000 0.000003 1.873047 0.341172 -0.127691
    21 2.452246 0.000000 0.000000 0.176665 -0.206576 -0.230030
    22 0.946167 3.213873 -0.420090 -3.141592 -0.000002 1.413798
    23 1.827063 1.152534 -7.643625 -1.570796 -1.570796 0.000000
  time 16
    0 0.532230 3.764144 39.953459 0.000000 0.000000 -1.710440
    1 -1.558641 0.449232 0.000000 -0.000025 -1.596955 -1.570745
    2 -0.000007 0.000008 4.427393 -0.166339 3.172459 -0.038359
    3 18.301065 0.000000 0.000000 0.000000 0.000000 -0.553591
    4 17.106758 0.000000 0.000000 0.006540 0.007864 0.497646
    5 0.000006 -0.000004 -4.427393 0.115973 -3.163300 -0.388170
    6 18.133167 0.000000 0.000000 0.000000 0.000000 -0.483191
    7 17.375956 0.000000 0.000000 -0.010891 0.002178 0.092072
    8 2.255203 -0.002685 -0.058593 -0.116334 0.045423 0.160576
    9 3.373776 -0.004248 0.000000 -0.191198 0.034120 0.083521
    10 5.335510 -0.004100 0.000000 -0.104441 0.006568 0.061839
    11 5.172566 -0.004197 0.000000 -0.061025 -0.001630 -0.027526
    12 5.271970 -0.001935 0.000000 0.318155 -0.014370 0.433939
    13 -2.828254 2.069102 2.026144 1.309266 -1.196689 -4.896920
    14 6.063949 0.000000 0.000002 -0.887600 0.230405 -1.147475
    15 7.685221 0.000000 0.000000 0.000000 0.000000 -0.915243
    16 10.246255 0.000000 -0.000003 -2.085068 -0.472080 -0.152469
    17 -2.805336 0.472732 -2.670067 -1.933560 1.060089 -5.480178
    18 6.269507 0.000000 -0.000001 1.104893 -0.047794 -1.383395
    19 8.573802 0.000000 -0.000004 0.000000 0.000000 -0.573808
    20 9.913458 0.000000 0.000003 1.914334 0.299180 0.003416
    21 2.452246 0.000000 0.000000 0.189748 -0.223141 -0.360626
    22 0.946167 3.213873 -0.420090 -3.141592 -0.000002 1.413798
    23 1.827063 1.152534 -7.643625 -1.570796 -1.570796 0.000000
  time 17
    0 0.575200 3.470680 39.802672 0.000000 0.000000 -1.710440
    1 -1.789117 0.515641 0.000000 -0.000025 -1.596955 -1.570745
    2 -0.000007 0.000008 4.427393 -0.167298 3.170082 -0.047657
    3 18.301065 0.000000 0.000000 0.000000 0.000000 -0.578768
    4 17.106758 0.000000 0.000000 0.007495 0.011792 0.513994
    5 0.000006 -0.000004 -4.427393 0.114535 -3.169588 -0.403881
    6 18.133167 0.000000 0.000000 0.000000 0.000000 -0.517519
    7 17.375956 0.000000 0.000000 -0.011580 0.006602 0.110158
    8 2.255203 -0.002685 -0.058593 -0.115717 0.046997 0.174104
    9 3.373776 -0.004248 0.000000 -0.191067 0.035546 0.090858
    10 5.335510 -0.004100 0.000000 -0.104151 0.010079 0.095432
    11 5.172566 -0.004197 0.000000 -0.061047 -0.001007 -0.017413
    12 5.271970 -0.001935 0.000000 0.309059 -0.032598 0.490161
    13 -2.703250 2.213638 2.045676 1.347931 -1.142937 -4.999080
    14 6.063949 0.000000 0.000002 -0.895470 0.174571 -1.098510
    15 7.685221 0.000000 0.000000 0.000000 0.000000 -0.836953
    16 10.246255 0.000000 -0.000003 -2.230366 -0.192255 0.282481
    17 -2.770179 0.660237 -2.662254 -1.884479 0.995015 -5.489745
    18 6.269507 0.000000 -0.000001 1.070220 0.018770 -1.339386
    19 8.573802 0.000000 -0.000004 0.000000 0.000000 -0.462908
    20 9.913458 0.000000 0.000003 2.010321 0.105652 0.470150
    21 2.452246 0.000000 0.000000 0.200560 -0.234935 -0.466154
    22 0.946167 3.213873 -0.420090 -3.141592 -0.000002 1.413798
    23 1.827063 1.152534 -7.643625 -1.570796 -1.570796 0.000000
  time 18
    0 0.622077 3.565346 38.897952 0.000000 0.000000 -1.710152
    1 -2.066469 0.214850 0.000000 -0.000025 -1.596347 -1.570793
    2 -0.000007 0.000008 4.427393 -0.162216 3.189479 -0.132594
    3 18.301065 0.000000 0.000000 0.000000 0.000000 -0.746934
    4 17.106758 0.000000 0.000000 0.006470 0.005900 0.595114
    5 0.000006 -0.000004 -4.427393 0.114152 -3.171970 -0.496635
    6 18.133167 0.000000 0.000000 0.000000 0.000000 -0.677259
    7 17.375956 0.000000 0.000000 -0.009944 -0.002361 0.177470
    8 2.255203 -0.002685 -0.054686 -0.058594 0.012589 0.208110
    9 3.373776 -0.004248 0.000000 -0.191067 0.035546 0.090858
    10 5.335510 -0.004100 0.000000 -0.104151 0.010079 0.095432
    11 5.172566 -0.004197 0.000000 -0.061047 -0.001007 -0.017413
    12 5.271970 -0.001935 0.000000 0.309059 -0.032598 0.490161
    13 -2.703250 2.213638 2.045676 1.347931 -1.142937 -4.999080
    14 6.063949 0.000000 0.000002 -0.873226 0.027207 -1.194913
    15 7.685221 0.000000 0.000000 0.000000 0.000000 -0.653885
    16 10.246255 0.000000 -0.000003 -2.230366 -0.192255 0.282481
    17 -2.770179 0.660237 -2.662254 -1.884479 0.995015 -5.489745
    18 6.269507 0.000000 -0.000001 1.106214 0.058916 -1.287331
    19 8.573802 0.000000 -0.000004 0.000000 0.000000 -0.462908
    20 9.913458 0.000000 0.000003 2.010321 0.105652 0.470150
    21 2.452246 0.000000 0.000000 0.151636 -0.190908 -0.470159
    22 0.946167 3.213873 -0.420090 -3.141592 -0.000002 1.413798
    23 1.827063 1.152534 -7.643625 -1.570796 -1.570796 0.000000
  time 19
    0 0.668953 3.669478 37.641396 0.000000 0.000000 -1.709961
    1 -2.375072 -0.246101 0.000000 -0.000025 -1.595633 -1.570793
    2 -0.000007 0.000008 4.427393 -0.152342 3.213821 -0.224242
    3 18.301065 0.000000 0.000000 0.000000 0.000000 -0.931109
    4 17.106758 0.000000 0.000000 0.004349 -0.005202 0.685010
    5 0.000006 -0.000004 -4.427393 0.116069 -3.170731 -0.601261
    6 18.133167 0.000000 0.000000 0.000000 0.000000 -0.854005
    7 17.375956 0.000000 0.000000 -0.007017 -0.016933 0.250572
    8 2.255203 -0.002685 -0.054686 0.018566 -0.040423 0.246159
    9 3.373776 -0.004248 0.000000 -0.191067 0.035546 0.090858
    10 5.335510 -0.004100 0.000000 -0.104151 0.010079 0.095432
    11 5.172566 -0.004197 0.000000 -0.061047 -0.001007 -0.017413
    12 5.271970 -0.001935 0.000000 0.309059 -0.032598 0.490161
    13 -2.703250 2.213638 2.045676 1.347931 -1.142937 -4.999080
    14 6.063949 0.000000 0.000002 -0.815078 -0.101982 -1.307511
    15 7.685221 0.000000 0.000000 0.000000 0.000000 -0.508853
    16 10.246255 0.000000 -0.000003 -2.230366 -0.192255 0.282481
    17 -2.770179 0.660237 -2.662254 -1.884479 0.995015 -5.489745
    18 6.269507 0.000000 -0.000001 1.162764 0.105831 -1.212860
    19 8.573802 0.000000 -0.000004 0.000000 0.000000 -0.462908
    20 9.913458 0.000000 0.000003 2.010321 0.105652 0.470150
    21 2.452246 0.000000 0.000000 0.087306 -0.125056 -0.488638
    22 0.946167 3.213873 -0.420090 -3.141592 -0.000002 1.413798
    23 1.827063 1.152534 -7.643625 -1.570796 -1.570796 0.000000
  time 20
    0 0.715829 3.773611 36.820445 0.000000 0.000000 -1.709673
    1 -2.578204 -0.613300 0.000000 -0.000025 -1.594873 -1.570793
    2 -0.000007 0.000008 4.427393 -0.143713 3.229701 -0.278501
    3 18.301065 0.000000 0.000000 0.000000 0.000000 -1.035895
    4 17.106758 0.000000 0.000000 0.002617 -0.014500 0.733860
    5 0.000006 -0.000004 -4.427393 0.119232 -3.167683 -0.662680
    6 18.133167 0.000000 0.000000 0.000000 0.000000 -0.950945
    7 17.375956 0.000000 0.000000 -0.004607 -0.028875 0.286971
    8 2.255203 -0.002685 -0.050780 0.073863 -0.083087 0.272767
    9 3.373776 -0.004248 0.000000 -0.191067 0.035546 0.090858
    10 5.335510 -0.004100 0.000000 -0.104151 0.010079 0.095432
    11 5.172566 -0.004197 0.000000 -0.061047 -0.001007 -0.017413
    12 5.271970 -0.001935 0.000000 0.309059 -0.032598 0.490161
    13 -2.703250 2.213638 2.045676 1.347931 -1.142937 -4.999080
    14 6.063949 0.000000 0.000002 -0.756280 -0.149057 -1.370456
    15 7.685221 0.000000 0.000000 0.000000 0.000000 -0.472710
    16 10.246255 0.000000 -0.000003 -2.230366 -0.192255 0.282481
    17 -2.770179 0.660237 -2.662254 -1.884479 0.995015 -5.489745
    18 6.269507 0.000000 -0.000001 1.208169 0.138925 -1.156336
    19 8.573802 0.000000 -0.000004 0.000000 0.000000 -0.462908
    20 9.913458 0.000000 0.000003 2.010321 0.105652 0.470150
    21 2.452246 0.000000 0.000000 0.041680 -0.074583 -0.520684
    22 0.946167 3.213873 -0.420090 -3.141592 -0.000002 1.413798
    23 1.827063 1.152534 -7.643625 -1.570796 -1.570796 0.000000
  time 21
    0 0.758800 3.877744 36.920970 0.000000 0.000000 -1.709385
    1 -2.718833 -0.625019 0.000000 -0.000025 -1.594037 -1.570793
    2 -0.000007 0.000008 4.427393 -0.144288 3.228084 -0.285020
    3 18.301065 0.000000 0.000000 0.000000 0.000000 -1.031747
    4 17.106758 0.000000 0.000000 0.003218 -0.012656 0.723298
    5 0.000006 -0.000004 -4.427393 0.118848 -3.168064 -0.661966
    6 18.133167 0.000000 0.000000 0.000000 0.000000 -0.934568
    7 17.375956 0.000000 0.000000 -0.004349 -0.029048 0.271344
    8 2.255203 -0.002685 -0.050780 0.073709 -0.085308 0.291997
    9 3.373776 -0.004248 0.000000 -0.191067 0.035546 0.090858
    10 5.335510 -0.004100 0.000000 -0.104151 0.010079 0.095432
    11 5.172566 -0.004197 0.000000 -0.061047 -0.001007 -0.017413
    12 5.271970 -0.001935 0.000000 0.309059 -0.032598 0.490161
    13 -2.703250 2.213638 2.045676 1.347931 -1.142937 -4.999080
    14 6.063949 0.000000 0.000002 -0.746264 -0.173535 -1.365797
    15 7.685221 0.000000 0.000000 0.000000 0.000000 -0.474993
    16 10.246255 0.000000 -0.000003 -2.230366 -0.192255 0.282481
    17 -2.770179 0.660237 -2.662254 -1.884479 0.995015 -5.489745
    18 6.269507 0.000000 -0.000001 1.207096 0.158105 -1.154891
    19 8.573802 0.000000 -0.000004 0.000000 0.000000 -0.462908
    20 9.913458 0.000000 0.000003 2.010321 0.105652 0.470150
    21 2.452246 0.000000 0.000000 0.043410 -0.072732 -0.545623
    22 0.946167 3.213873 -0.420090 -3.141592 -0.000002 1.413798
    23 1.827063 1.152534 -7.643625 -1.570796 -1.570796 0.000000
  time 22
    0 0.801770 3.981876 37.457101 0.000000 0.000000 -1.709098
    1 -2.796960 -0.628925 0.000000 -0.000025 -1.593186 -1.570745
    2 -0.000007 0.000008 4.427393 -0.146781 3.222855 -0.266614
    3 18.301065 0.000000 0.000000 0.000000 0.000000 -0.972878
    4 17.106758 0.000000 0.000000 0.003678 -0.010732 0.683301
    5 0.000006 -0.000004 -4.427393 0.119040 -3.165301 -0.628489
    6 18.133167 0.000000 0.000000 0.000000 0.000000 -0.860934
    7 17.375956 0.000000 0.000000 -0.004349 -0.028528 0.231313
    8 2.255203 -0.002685 -0.046873 0.073477 -0.086882 0.302468
    9 3.373776 -0.004248 0.000000 -0.191067 0.035546 0.090858
    10 5.335510 -0.004100 0.000000 -0.104151 0.010079 0.095432
    11 5.172566 -0.004197 0.000000 -0.061047 -0.001007 -0.017413
    12 5.271970 -0.001935 0.000000 0.309059 -0.032598 0.490161
    13 -2.703250 2.213638 2.045676 1.347931 -1.142937 -4.999080
    14 6.063949 0.000000 0.000002 -0.738979 -0.187944 -1.356706
    15 7.685221 0.000000 0.000000 0.000000 0.000000 -0.486280
    16 10.246255 0.000000 -0.000003 -2.230366 -0.192255 0.282481
    17 -2.770179 0.660237 -2.662254 -1.884479 0.995015 -5.489745
    18 6.269507 0.000000 -0.000001 1.206518 0.168541 -1.154135
    19 8.573802 0.000000 -0.000004 0.000000 0.000000 -0.462908
    20 9.913458 0.000000 0.000003 2.010321 0.105652 0.470150
    21 2.452246 0.000000 0.000000 0.044004 -0.071518 -0.563713
    22 0.946167 3.213873 -0.420090 -3.141592 -0.000002 1.413798
    23 1.827063 1.152534 -7.643625 -1.570796 -1.570796 0.000000
  time 23
    0 0.840833 4.086009 37.758674 0.000000 0.000000 -1.708810
    1 -2.832118 -0.632832 0.000000 -0.000025 -1.592319 -1.570745
    2 -0.000007 0.000008 4.427393 -0.148315 3.219146 -0.257794
    3 18.301065 0.000000 0.000000 0.000000 0.000000 -0.940642
    4 17.106758 0.000000 0.000000 0.004137 -0.009089 0.660157
    5 0.000006 -0.000004 -4.427393 0.118944 -3.164443 -0.610099
    6 18.133167 0.000000 0.000000 0.000000 0.000000 -0.817535
    7 17.375956 0.000000 0.000000 -0.004263 -0.028065 0.206416
    8 2.255203 -0.002685 -0.046873 0.073194 -0.088089 0.307611
    9 3.373776 -0.004248 0.000000 -0.191067 0.035546 0.090858
    10 5.335510 -0.004100 0.000000 -0.104151 0.010079 0.095432
    11 5.172566 -0.004197 0.000000 -0.061047 -0.001007 -0.017413
    12 5.271970 -0.001935 0.000000 0.309059 -0.032598 0.490161
    13 -2.703250 2.213638 2.045676 1.347931 -1.142937 -4.999080
    14 6.063949 0.000000 0.000002 -0.733646 -0.195394 -1.346088
    15 7.685221 0.000000 0.000000 0.000000 0.000000 -0.501155
    16 10.246255 0.000000 -0.000003 -2.230366 -0.192255 0.282481
    17 -2.770179 0.660237 -2.662254 -1.884479 0.995015 -5.489745
    18 6.269507 0.000000 -0.000001 1.206187 0.173618 -1.153722
    19 8.573802 0.000000 -0.000004 0.000000 0.000000 -0.462908
    20 9.913458 0.000000 0.000003 2.010321 0.105652 0.470150
    21 2.452246 0.000000 0.000000 0.044112 -0.070709 -0.577496
    22 0.946167 3.213873 -0.420090 -3.141592 -0.000002 1.413798
    23 1.827063 1.152534 -7.643625 -1.570796 -1.570796 0.000000
  time 24
    0 0.883803 4.199608 37.758674 0.000000 0.000000 -1.708522
    1 -2.832118 -0.632832 0.000000 -0.000025 -1.591438 -1.570793
    2 -0.000007 0.000008 4.427393 -0.148698 3.217625 -0.261533
    3 18.301065 0.000000 0.000000 0.000000 0.000000 -0.940933
    4 17.106758 0.000000 0.000000 0.004526 -0.007767 0.656779
    5 0.000006 -0.000004 -4.427393 0.118369 -3.165682 -0.610992
    6 18.133167 0.000000 0.000000 0.000000 0.000000 -0.812559
    7 17.375956 0.000000 0.000000 -0.004263 -0.027631 0.200513
    8 2.255203 -0.002685 -0.042967 0.072937 -0.088930 0.307649
    9 3.373776 -0.004248 0.000000 -0.191067 0.035546 0.090858
    10 5.335510 -0.004100 0.000000 -0.104151 0.010079 0.095432
    11 5.172566 -0.004197 0.000000 -0.061047 -0.001007 -0.017413
    12 5.271970 -0.001935 0.000000 0.309059 -0.032598 0.490161
    13 -2.703250 2.213638 2.045676 1.347931 -1.142937 -4.999080
    14 6.063949 0.000000 0.000002 -0.729938 -0.196377 -1.335164
    15 7.685221 0.000000 0.000000 0.000000 0.000000 -0.517139
    16 10.246255 0.000000 -0.000003 -2.230366 -0.192255 0.282481
    17 -2.770179 0.660237 -2.662254 -1.884479 0.995015 -5.489745
    18 6.269507 0.000000 -0.000001 1.206187 0.173618 -1.153722
    19 8.573802 0.000000 -0.000004 0.000000 0.000000 -0.462908
    20 9.913458 0.000000 0.000003 2.010321 0.105652 0.470150
    21 2.452246 0.000000 0.000000 0.043788 -0.070333 -0.586542
    22 0.946167 3.213873 -0.420090 -3.141592 -0.000002 1.413798
    23 1.827063 1.152534 -7.643625 -1.570796 -1.570796 0.000000
  time 25
    0 0.922867 4.313207 37.691658 0.000000 0.000000 -1.708235
    1 -2.832118 -0.632832 0.000000 -0.000025 -1.590541 -1.570793
    2 -0.000007 0.000008 4.427393 -0.148794 3.216769 -0.269682
    3 18.301065 0.000000 0.000000 0.000000 0.000000 -0.951193
    4 17.106758 0.000000 0.000000 0.004915 -0.006484 0.659070
    5 0.000006 -0.000004 -4.427393 0.117698 -3.167683 -0.617955
    6 18.133167 0.000000 0.000000 0.000000 0.000000 -0.818858
    7 17.375956 0.000000 0.000000 -0.004177 -0.027313 0.199794
    8 2.255203 -0.002685 -0.042967 0.072680 -0.089771 0.307667
    9 3.373776 -0.004248 0.000000 -0.191067 0.035546 0.090858
    10 5.335510 -0.004100 0.000000 -0.104151 0.010079 0.095432
    11 5.172566 -0.004197 0.000000 -0.061047 -0.001007 -0.017413
    12 5.271970 -0.001935 0.000000 0.309059 -0.032598 0.490161
    13 -2.703250 2.213638 2.045676 1.347931 -1.142937 -4.999080
    14 6.063949 0.000000 0.000002 -0.726491 -0.196213 -1.324775
    15 7.685221 0.000000 0.000000 0.000000 0.000000 -0.532993
    16 10.246255 0.000000 -0.000003 -2.230366 -0.192255 0.282481
    17 -2.770179 0.660237 -2.662254 -1.884479 0.995015 -5.489745
    18 6.269507 0.000000 -0.000001 1.206187 0.173618 -1.153722
    19 8.573802 0.000000 -0.000004 0.000000 0.000000 -0.462908
    20 9.913458 0.000000 0.000003 2.010321 0.105652 0.470150
    21 2.452246 0.000000 0.000000 0.043572 -0.069957 -0.595630
    22 0.946167 3.213873 -0.420090 -3.141592 -0.000002 1.413798
    23 1.827063 1.152534 -7.643625 -1.570796 -1.570796 0.000000
  time 26
    0 0.965837 4.417340 37.624641 0.000000 0.000000 -1.707947
    1 -2.832118 -0.632832 0.000000 -0.000025 -1.589674 -1.570745
    2 -0.000007 0.000008 4.427393 -0.148794 3.216008 -0.278310
    3 18.301065 0.000000 0.000000 0.000000 0.000000 -0.962545
    4 17.106758 0.000000 0.000000 0.005303 -0.005202 0.661943
    5 0.000006 -0.000004 -4.427393 0.116931 -3.169588 -0.625543
    6 18.133167 0.000000 0.000000 0.000000 0.000000 -0.826479
    7 17.375956 0.000000 0.000000 -0.004090 -0.027024 0.199643
    8 2.255203 -0.002685 -0.039061 0.072397 -0.090611 0.307686
    9 3.373776 -0.004248 0.000000 -0.191067 0.035546 0.090858
    10 5.335510 -0.004100 0.000000 -0.104151 0.010079 0.095432
    11 5.172566 -0.004197 0.000000 -0.061047 -0.001007 -0.017413
    12 5.271970 -0.001935 0.000000 0.309059 -0.032598 0.490161
    13 -2.703250 2.213638 2.045676 1.347931 -1.142937 -4.999080
    14 6.063949 0.000000 0.000002 -0.723109 -0.195067 -1.314845
    15 7.685221 0.000000 0.000000 0.000000 0.000000 -0.548651
    16 10.246255 0.000000 -0.000003 -2.230366 -0.192255 0.282481
    17 -2.770179 0.660237 -2.662254 -1.884479 0.995015 -5.489745
    18 6.269507 0.000000 -0.000001 1.206187 0.173618 -1.153722
    19 8.573802 0.000000 -0.000004 0.000000 0.000000 -0.462908
    20 9.913458 0.000000 0.000003 2.010321 0.105652 0.470150
    21 2.452246 0.000000 0.000000 0.043410 -0.069581 -0.604460
    22 0.946167 3.213873 -0.420090 -3.141592 -0.000002 1.413798
    23 1.827063 1.152534 -7.643625 -1.570796 -1.570796 0.000000
  time 27
    0 1.004901 4.530939 37.574379 0.000000 0.000000 -1.707660
    1 -2.832118 -0.632832 0.000000 -0.000025 -1.588808 -1.570745
    2 -0.000007 0.000008 4.427393 -0.148986 3.214962 -0.285404
    3 18.301065 0.000000 0.000000 0.000000 0.000000 -0.970549
    4 17.106758 0.000000 0.000000 0.005657 -0.003879 0.662837
    5 0.000006 -0.000004 -4.427393 0.116260 -3.171398 -0.631168
    6 18.133167 0.000000 0.000000 0.000000 0.000000 -0.830133
    7 17.375956 0.000000 0.000000 -0.004004 -0.026706 0.197675
    8 2.255203 -0.002685 -0.039061 0.072140 -0.091431 0.307723
    9 3.373776 -0.004248 0.000000 -0.191067 0.035546 0.090858
    10 5.335510 -0.004100 0.000000 -0.104151 0.010079 0.095432
    11 5.172566 -0.004197 0.000000 -0.061047 -0.001007 -0.017413
    12 5.271970 -0.001935 0.000000 0.309059 -0.032598 0.490161
    13 -2.703250 2.213638 2.045676 1.347931 -1.142937 -4.999080
    14 6.063949 0.000000 0.000002 -0.719662 -0.192938 -1.304914
    15 7.685221 0.000000 0.000000 0.000000 0.000000 -0.564570
    16 10.246255 0.000000 -0.000003 -2.230366 -0.192255 0.282481
    17 -2.770179 0.660237 -2.662254 -1.884479 0.995015 -5.489745
    18 6.269507 0.000000 -0.000001 1.206187 0.173618 -1.153722
    19 8.573802 0.000000 -0.000004 0.000000 0.000000 -0.462908
    20 9.913458 0.000000 0.000003 2.010321 0.105652 0.470150
    21 2.452246 0.000000 0.000000 0.043464 -0.069206 -0.612945
    22 0.946167 3.213873 -0.420090 -3.141592 -0.000002 1.413798
    23 1.827063 1.152534 -7.643625 -1.570796 -1.570796 0.000000
  time 28
    0 1.043965 4.644538 37.574379 0.000000 0.000000 -1.707372
    1 -2.832118 -0.632832 0.000000 -0.000025 -1.587957 -1.570745
    2 -0.000007 0.000008 4.427393 -0.149369 3.213631 -0.290101
    3 18.301065 0.000000 0.000000 0.000000 0.000000 -0.972732
    4 17.106758 0.000000 0.000000 0.006010 -0.002596 0.660468
    5 0.000006 -0.000004 -4.427393 0.115685 -3.172732 -0.633310
    6 18.133167 0.000000 0.000000 0.000000 0.000000 -0.827298
    7 17.375956 0.000000 0.000000 -0.004004 -0.026388 0.192681
    8 2.255203 -0.002685 -0.035154 0.071883 -0.092250 0.307742
    9 3.373776 -0.004248 0.000000 -0.191067 0.035546 0.090858
    10 5.335510 -0.004100 0.000000 -0.104151 0.010079 0.095432
    11 5.172566 -0.004197 0.000000 -0.061047 -0.001007 -0.017413
    12 5.271970 -0.001935 0.000000 0.309059 -0.032598 0.490161
    13 -2.703250 2.213638 2.045676 1.347931 -1.142937 -4.999080
    14 6.063949 0.000000 0.000002 -0.715954 -0.189745 -1.294678
    15 7.685221 0.000000 0.000000 0.000000 0.000000 -0.581467
    16 10.246255 0.000000 -0.000003 -2.230366 -0.192255 0.282481
    17 -2.770179 0.660237 -2.662254 -1.884479 0.995015 -5.489745
    18 6.269507 0.000000 -0.000001 1.206187 0.173618 -1.153722
    19 8.573802 0.000000 -0.000004 0.000000 0.000000 -0.462908
    20 9.913458 0.000000 0.000003 2.010321 0.105652 0.470150
    21 2.452246 0.000000 0.000000 0.043626 -0.068859 -0.621000
    22 0.946167 3.213873 -0.420090 -3.141592 -0.000002 1.413798
    23 1.827063 1.152534 -7.643625 -1.570796 -1.570796 0.000000
  time 29
    0 1.079122 4.758137 37.624641 0.000000 0.000000 -1.707084
    1 -2.832118 -0.632832 0.000000 -0.000025 -1.587136 -1.570793
    2 -0.000007 0.000008 4.427393 -0.149945 3.211920 -0.291827
    3 18.301065 0.000000 0.000000 0.000000 0.000000 -0.968002
    4 17.106758 0.000000 0.000000 0.006328 -0.001274 0.654138
    5 0.000006 -0.000004 -4.427393 0.115302 -3.173495 -0.631078
    6 18.133167 0.000000 0.000000 0.000000 0.000000 -0.816401
    7 17.375956 0.000000 0.000000 -0.003918 -0.026041 0.183978
    8 2.255203 -0.002685 -0.035154 0.071626 -0.093026 0.307760
    9 3.373776 -0.004248 0.000000 -0.191067 0.035546 0.090858
    10 5.335510 -0.004100 0.000000 -0.104151 0.010079 0.095432
    11 5.172566 -0.004197 0.000000 -0.061047 -0.001007 -0.017413
    12 5.271970 -0.001935 0.000000 0.309059 -0.032598 0.490161
    13 -2.703250 2.213638 2.045676 1.347931 -1.142937 -4.999080
    14 6.063949 0.000000 0.000002 -0.711596 -0.184915 -1.283449
    15 7.685221 0.000000 0.000000 0.000000 0.000000 -0.600387
    16 10.246255 0.000000 -0.000003 -2.230366 -0.192255 0.282481
    17 -2.770179 0.660237 -2.662254 -1.884479 0.995015 -5.489745
    18 6.269507 0.000000 -0.000001 1.206187 0.173618 -1.153722
    19 8.573802 0.000000 -0.000004 0.000000 0.000000 -0.462908
    20 9.913458 0.000000 0.000003 2.010321 0.105652 0.470150
    21 2.452246 0.000000 0.000000 0.043896 -0.068512 -0.628580
    22 0.946167 3.213873 -0.420090 -3.141592 -0.000002 1.413798
    23 1.827063 1.152534 -7.643625 -1.570796 -1.570796 0.000000
  time 30
    0 1.118186 4.862270 37.758674 0.000000 0.000000 -1.706893
    1 -2.832118 -0.632832 0.000000 -0.000025 -1.586330 -1.570793
    2 -0.000007 0.000008 4.427393 -0.150712 3.209542 -0.289909
    3 18.301065 0.000000 0.000000 0.000000 0.000000 -0.954831
    4 17.106758 0.000000 0.000000 0.006646 0.000049 0.643110
    5 0.000006 -0.000004 -4.427393 0.115014 -3.173780 -0.623579
    6 18.133167 0.000000 0.000000 0.000000 0.000000 -0.795678
    7 17.375956 0.000000 0.000000 -0.003918 -0.025636 0.170735
    8 2.255203 -0.002685 -0.035154 0.071394 -0.093802 0.307779
    9 3.373776 -0.004248 0.000000 -0.191067 0.035546 0.090858
    10 5.335510 -0.004100 0.000000 -0.104151 0.010079 0.095432
    11 5.172566 -0.004197 0.000000 -0.061047 -0.001007 -0.017413
    12 5.271970 -0.001935 0.000000 0.309059 -0.032598 0.490161
    13 -2.703250 2.213638 2.045676 1.347931 -1.142937 -4.999080
    14 6.063949 0.000000 0.000002 -0.706198 -0.177629 -1.270615
    15 7.685221 0.000000 0.000000 0.000000 0.000000 -0.622439
    16 10.246255 0.000000 -0.000003 -2.230366 -0.192255 0.282481
    17 -2.770179 0.660237 -2.662254 -1.884479 0.995015 -5.489745
    18 6.269507 0.000000 -0.000001 1.206187 0.173618 -1.153722
    19 8.573802 0.000000 -0.000004 0.000000 0.000000 -0.462908
    20 9.913458 0.000000 0.000003 2.010321 0.105652 0.470150
    21 2.452246 0.000000 0.000000 0.044383 -0.068194 -0.635731
    22 0.946167 3.213873 -0.420090 -3.141592 -0.000002 1.413798
    23 1.827063 1.152534 -7.643625 -1.570796 -1.570796 0.000000
  time 31
    0 1.157249 4.975869 37.959723 0.000000 0.000000 -1.706605
    1 -2.578204 -0.613300 0.000000 -0.000025 -1.585555 -1.570793
    2 -0.000007 0.000008 4.427393 -0.152246 3.205739 -0.272749
    3 18.301065 0.000000 0.000000 0.000000 0.000000 -0.925288
    4 17.106758 0.000000 0.000000 0.006929 0.000570 0.630994
    5 0.000006 -0.000004 -4.427393 0.114439 -3.174161 -0.605725
    6 18.133167 0.000000 0.000000 0.000000 0.000000 -0.770356
    7 17.375956 0.000000 0.000000 -0.004177 -0.023786 0.163244
    8 2.255203 -0.002685 -0.031248 0.071368 -0.092056 0.272935
    9 3.373776 -0.004248 0.000000 -0.191067 0.035546 0.090858
    10 5.335510 -0.004100 0.000000 -0.104151 0.010079 0.095432
    11 5.172566 -0.004197 0.000000 -0.061047 -0.001007 -0.017413
    12 5.271970 -0.001935 0.000000 0.309059 -0.032598 0.490161
    13 -2.703250 2.213638 2.045676 1.347931 -1.142937 -4.999080
    14 6.063949 0.000000 0.000002 -0.705612 -0.132028 -1.254650
    15 7.685221 0.000000 0.000000 0.000000 0.000000 -0.648666
    16 10.246255 0.000000 -0.000003 -2.230366 -0.192255 0.282481
    17 -2.770179 0.660237 -2.662254 -1.884479 0.995015 -5.489745
    18 6.269507 0.000000 -0.000001 1.202720 0.062959 -1.143133
    19 8.573802 0.000000 -0.000004 0.000000 0.000000 -0.544281
    20 9.913458 0.000000 0.000003 2.010321 0.105652 0.470150
    21 2.452246 0.000000 0.000000 0.042328 -0.071027 -0.607647
    22 0.946167 3.213873 -0.420090 -3.141592 -0.000002 1.413798
    23 1.827063 1.152534 -7.643625 -1.570796 -1.570796 0.000000
  time 32
    0 1.192407 5.089468 38.244543 0.000000 0.000000 -1.706317
    1 -2.234443 -0.589862 0.000000 -0.000025 -1.584795 -1.570745
    2 -0.000007 0.000008 4.427393 -0.154163 3.200795 -0.246962
    3 18.301065 0.000000 0.000000 0.000000 0.000000 -0.882937
    4 17.106758 0.000000 0.000000 0.007212 0.000850 0.614646
    5 0.000006 -0.000004 -4.427393 0.113960 -3.174161 -0.580283
    6 18.133167 0.000000 0.000000 0.000000 0.000000 -0.735901
    7 17.375956 0.000000 0.000000 -0.004435 -0.021415 0.154201
    8 2.255203 -0.002685 -0.031248 0.071317 -0.089447 0.226072
    9 3.373776 -0.004248 0.000000 -0.191067 0.035546 0.090858
    10 5.335510 -0.004100 0.000000 -0.104151 0.010079 0.095432
    11 5.172566 -0.004197 0.000000 -0.061047 -0.001007 -0.017413
    12 5.271970 -0.001935 0.000000 0.309059 -0.032598 0.490161
    13 -2.703250 2.213638 2.045676 1.347931 -1.142937 -4.999080
    14 6.063949 0.000000 0.000002 -0.703336 -0.067843 -1.236775
    15 7.685221 0.000000 0.000000 0.000000 0.000000 -0.679786
    16 10.246255 0.000000 -0.000003 -2.230366 -0.192255 0.282481
    17 -2.770179 0.660237 -2.662254 -1.884479 0.995015 -5.489745
    18 6.269507 0.000000 -0.000001 1.193887 -0.097060 -1.126561
    19 8.573802 0.000000 -0.000004 0.000000 0.000000 -0.665842
    20 9.913458 0.000000 0.000003 2.010321 0.105652 0.470150
    21 2.452246 0.000000 0.000000 0.039463 -0.074843 -0.567159
    22 0.946167 3.213873 -0.420090 -3.141592 -0.000002 1.413798
    23 1.827063 1.152534 -7.643625 -1.570796 -1.570796 0.000000
  time 33
    0 1.231470 5.193600 38.579624 0.000000 0.000000 -1.706126
    1 -1.824274 -0.562517 0.000000 -3.141565 -1.557511 1.570793
    2 -0.000007 0.000008 4.427393 -0.156081 3.194994 -0.215134
    3 18.301065 0.000000 0.000000 0.000000 0.000000 -0.830981
    4 17.106758 0.000000 0.000000 0.007459 0.000891 0.594920
    5 0.000006 -0.000004 -4.427393 0.113577 -3.173780 -0.549395
    6 18.133167 0.000000 0.000000 0.000000 0.000000 -0.694707
    7 17.375956 0.000000 0.000000 -0.004693 -0.018697 0.143682
    8 2.255203 -0.002685 -0.027342 0.071214 -0.086278 0.171588
    9 3.373776 -0.004248 0.000000 -0.191067 0.035546 0.090858
    10 5.335510 -0.004100 0.000000 -0.104151 0.010079 0.095432
    11 5.172566 -0.004197 0.000000 -0.061047 -0.001007 -0.017413
    12 5.271970 -0.001935 0.000000 0.309059 -0.032598 0.490161
    13 -2.703250 2.213638 2.045676 1.347931 -1.142937 -4.999080
    14 6.063949 0.000000 0.000002 -0.696702 0.014517 -1.217907
    15 7.685221 0.000000 0.000000 0.000000 0.000000 -0.715799
    16 10.246255 0.000000 -0.000003 -2.230366 -0.192255 0.282481
    17 -2.770179 0.660237 -2.662254 -1.884479 0.995015 -5.489745
    18 6.269507 0.000000 -0.000001 1.177376 -0.287446 -1.104487
    19 8.573802 0.000000 -0.000004 0.000000 0.000000 -0.812174
    20 9.913458 0.000000 0.000003 2.010321 0.105652 0.470150
    21 2.452246 0.000000 0.000000 0.036003 -0.079150 -0.518745
    22 0.946167 3.213873 -0.420090 -3.141592 -0.000002 1.413798
    23 1.827063 1.152534 -7.643625 -1.570796 -1.570796 0.000000
  time 34
    0 1.266628 5.307200 38.931460 0.000000 0.000000 -1.705838
    1 -1.363323 -0.527360 0.000000 -0.000025 -1.583366 -1.570793
    2 -0.000007 0.000008 4.427393 -0.158094 3.188623 -0.178226
    3 18.301065 0.000000 0.000000 0.000000 0.000000 -0.771312
    4 17.106758 0.000000 0.000000 0.007707 0.000810 0.572475
    5 0.000006 -0.000004 -4.427393 0.113193 -3.173304 -0.514936
    6 18.133167 0.000000 0.000000 0.000000 0.000000 -0.648914
    7 17.375956 0.000000 0.000000 -0.004951 -0.015748 0.132331
    8 2.255203 -0.002685 -0.027342 0.070931 -0.082699 0.111347
    9 3.373776 -0.004248 0.000000 -0.191067 0.035546 0.090858
    10 5.335510 -0.004100 0.000000 -0.104151 0.010079 0.095432
    11 5.172566 -0.004197 0.000000 -0.061047 -0.001007 -0.017413
    12 5.271970 -0.001935 0.000000 0.309059 -0.032598 0.490161
    13 -2.703250 2.213638 2.045676 1.347931 -1.142937 -4.999080
    14 6.063949 0.000000 0.000002 -0.683433 0.119473 -1.199497
    15 7.685221 0.000000 0.000000 0.000000 0.000000 -0.755075
    16 10.246255 0.000000 -0.000003 -2.230366 -0.192255 0.282481
    17 -2.770179 0.660237 -2.662254 -1.884479 0.995015 -5.489745
    18 6.269507 0.000000 -0.000001 1.151454 -0.489209 -1.076294
    19 8.573802 0.000000 -0.000004 0.000000 0.000000 -0.965026
    20 9.913458 0.000000 0.000003 2.010321 0.105652 0.470150
    21 2.452246 0.000000 0.000000 0.032003 -0.083717 -0.464302
    22 0.946167 3.213873 -0.420090 -3.141592 -0.000002 1.413798
    23 1.827063 1.152534 -7.643625 -1.570796 -1.570796 0.000000
  time 35
    0 1.305691 5.411332 39.283296 0.000000 0.000000 -1.705646
    1 -0.871120 -0.496109 0.000000 -0.000025 -1.582698 -1.570793
    2 -0.000007 0.000008 4.427393 -0.159915 3.181682 -0.137675
    3 18.301065 0.000000 0.000000 0.000000 0.000000 -0.705602
    4 17.106758 0.000000 0.000000 0.007919 0.000610 0.547739
    5 0.000006 -0.000004 -4.427393 0.112906 -3.172637 -0.478245
    6 18.133167 0.000000 0.000000 0.000000 0.000000 -0.600161
    7 17.375956 0.000000 0.000000 -0.005123 -0.012625 0.120261
    8 2.255203 -0.002685 -0.023435 0.070442 -0.078862 0.047565
    9 3.373776 -0.004248 0.000000 -0.191067 0.035546 0.090858
    10 5.335510 -0.004100 0.000000 -0.104151 0.010079 0.095432
    11 5.172566 -0.004197 0.000000 -0.061047 -0.001007 -0.017413
    12 5.271970 -0.001935 0.000000 0.309059 -0.032598 0.490161
    13 -2.703250 2.213638 2.045676 1.347931 -1.142937 -4.999080
    14 6.063949 0.000000 0.000002 -0.577610 0.441545 -1.137927
    15 7.685221 0.000000 0.000000 0.000000 0.000000 -0.917200
    16 10.246255 0.000000 -0.000003 -2.230366 -0.192255 0.282481
    17 -2.770179 0.660237 -2.662254 -1.884479 0.995015 -5.489745
    18 6.269507 0.000000 -0.000001 1.116038 -0.679595 -1.042187
    19 8.573802 0.000000 -0.000004 0.000000 0.000000 -1.102923
    20 9.913458 0.000000 0.000003 2.010321 0.105652 0.470150
    21 2.452246 0.000000 0.000000 0.027732 -0.088256 -0.406067
    22 0.946167 3.213873 -0.420090 -3.141592 -0.000002 1.413798
    23 1.827063 1.152534 -7.643625 -1.570796 -1.570796 0.000000
  time 36
    0 1.340849 5.515465 39.618377 0.000000 0.000000 -1.705454
    1 -0.390637 -0.460952 0.000000 -0.000025 -1.582044 -1.570793
    2 -0.000007 0.000008 4.427393 -0.161545 3.174456 -0.095974
    3 18.301065 0.000000 0.000000 0.000000 0.000000 -0.636109
    4 17.106758 0.000000 0.000000 0.008166 0.000410 0.520595
    5 0.000006 -0.000004 -4.427393 0.112714 -3.171875 -0.440840
    6 18.133167 0.000000 0.000000 0.000000 0.000000 -0.548825
    7 17.375956 0.000000 0.000000 -0.005210 -0.009676 0.106185
    8 2.255203 -0.002685 -0.023435 0.069799 -0.075219 -0.013701
    9 3.373776 -0.004248 0.000000 -0.191067 0.035546 0.090858
    10 5.335510 -0.004100 0.000000 -0.104151 0.010079 0.095432
    11 5.172566 -0.004197 0.000000 -0.061047 -0.001007 -0.017413
    12 5.271970 -0.001935 0.000000 0.309059 -0.032598 0.490161
    13 -2.703250 2.213638 2.045676 1.347931 -1.142937 -4.999080
    14 6.063949 0.000000 0.000002 -0.199000 1.004556 -0.847341
    15 7.685221 0.000000 0.000000 0.000000 0.000000 -1.107575
    16 10.246255 0.000000 -0.000003 -2.230366 -0.192255 0.282481
    17 -2.770179 0.660237 -2.662254 -1.884479 0.995015 -5.489745
    18 6.269507 0.000000 -0.000001 1.077733 -0.829178 -1.008149
    19 8.573802 0.000000 -0.000004 0.000000 0.000000 -1.200094
    20 9.913458 0.000000 0.000003 2.010321 0.105652 0.470150
    21 2.452246 0.000000 0.000000 0.023732 -0.092274 -0.350030
    22 0.946167 3.213873 -0.420090 -3.141592 -0.000002 1.413798
    23 1.827063 1.152534 -7.643625 -1.570796 -1.570796 0.000000
  time 37
    0 1.376006 5.619597 39.919951 0.000000 0.000000 -1.705263
    1 -0.046876 -0.437513 0.000000 -0.000025 -1.581421 -1.570745
    2 -0.000007 0.000008 4.427393 -0.162696 3.167609 -0.059257
    3 18.301065 0.000000 0.000000 0.000000 0.000000 -0.569309
    4 17.106758 0.000000 0.000000 0.008414 0.000570 0.490967
    5 0.000006 -0.000004 -4.427393 0.112906 -3.170446 -0.405131
    6 18.133167 0.000000 0.000000 0.000000 0.000000 -0.492387
    7 17.375956 0.000000 0.000000 -0.005210 -0.007479 0.085413
    8 2.255203 -0.002685 -0.023435 0.069234 -0.072804 -0.057433
    9 3.373776 -0.004248 0.000000 -0.191067 0.035546 0.090858
    10 5.335510 -0.004100 0.000000 -0.104151 0.010079 0.095432
    11 5.172566 -0.004197 0.000000 -0.061047 -0.001007 -0.017413
    12 5.271970 -0.001935 0.000000 0.309059 -0.032598 0.490161
    13 -2.703250 2.213638 2.045676 1.347931 -1.142937 -4.999080
    14 6.063949 0.000000 0.000002 0.438088 1.239438 -0.179850
    15 7.685221 0.000000 0.000000 0.000000 0.000000 -0.541344
    16 10.246255 0.000000 -0.000003 -2.230366 -0.192255 0.282481
    17 -2.770179 0.660237 -2.662254 -1.884479 0.995015 -5.489745
    18 6.269507 0.000000 -0.000001 1.071624 -0.872708 -1.007255
    19 8.573802 0.000000 -0.000004 0.000000 0.000000 -1.200094
    20 9.913458 0.000000 0.000003 2.010321 0.105652 0.470150
    21 2.452246 0.000000 0.000000 0.021624 -0.094876 -0.311437
    22 0.946167 3.213873 -0.420090 -3.141592 -0.000002 1.413798
    23 1.827063 1.152534 -7.643625 -1.570796 -1.570796 0.000000
  time 38
    0 1.407257 5.723730 40.188016 0.000000 0.000000 -1.704975
    1 -0.023438 -0.433607 0.000000 -3.141565 -1.560779 1.570745
    2 -0.000007 0.000008 4.427393 -0.163367 3.162570 -0.038454
    3 18.301065 0.000000 0.000000 0.000000 0.000000 -0.517207
    4 17.106758 0.000000 0.000000 0.008732 0.001612 0.460095
    5 0.000006 -0.000004 -4.427393 0.113481 -3.167873 -0.373172
    6 18.133167 0.000000 0.000000 0.000000 0.000000 -0.424485
    7 17.375956 0.000000 0.000000 -0.005123 -0.007045 0.049657
    8 2.255203 -0.002685 -0.019529 0.069208 -0.073192 -0.060619
    9 3.373776 -0.004248 0.000000 -0.191067 0.035546 0.090858
    10 5.335510 -0.004100 0.000000 -0.104151 0.010079 0.095432
    11 5.172566 -0.004197 0.000000 -0.061047 -0.001007 -0.017413
    12 5.271970 -0.001935 0.000000 0.300993 -0.029147 0.485950
    13 -2.718875 2.186293 2.057395 1.028068 -1.285073 -4.654828
    14 6.063949 0.000000 0.000002 0.174407 1.175662 -0.379455
    15 7.685221 0.000000 0.000000 0.000000 0.000000 -0.386656
    16 10.246255 0.000000 -0.000003 -2.230366 -0.192255 0.282481
    17 -2.770179 0.668050 -2.662254 -1.876745 0.987745 -5.478264
    18 6.269507 0.000000 -0.000001 1.071128 -0.875905 -1.007117
    19 8.573802 0.000000 -0.000004 0.000000 0.000000 -1.200094
    20 9.913458 0.000000 0.000003 2.010321 0.105652 0.470150
    21 2.452246 0.000000 0.000000 0.032490 -0.094211 -0.309197
    22 0.946167 3.213873 -0.420090 -3.141592 -0.000002 1.413798
    23 1.827063 1.152534 -7.643625 -1.570796 -1.570796 0.000000
  time 39
    0 1.442414 5.818396 40.405819 0.000000 0.000000 -1.704783
    1 -0.421888 -0.464858 0.000000 -0.000025 -1.580220 -1.570745
    2 -0.000007 0.000008 4.427393 -0.163559 3.160288 -0.041426
    3 18.301065 0.000000 0.000000 0.000000 0.000000 -0.490429
    4 17.106758 0.000000 0.000000 0.009014 0.003776 0.430661
    5 0.000006 -0.000004 -4.427393 0.114535 -3.163109 -0.342552
    6 18.133167 0.000000 0.000000 0.000000 0.000000 -0.334411
    7 17.375956 0.000000 0.000000 -0.004865 -0.008867 -0.009407
    8 2.255203 -0.002685 -0.019529 0.069877 -0.077331 -0.009508
    9 3.373776 -0.004248 0.000000 -0.191067 0.035546 0.090858
    10 5.335510 -0.004100 0.000000 -0.104151 0.010079 0.095432
    11 5.172566 -0.004197 0.000000 -0.061047 -0.001007 -0.017413
    12 5.271970 -0.001935 0.000000 0.291214 -0.025084 0.480871
    13 -2.734501 2.147229 2.073021 0.283935 -1.354446 -3.896121
    14 6.063949 0.000000 0.000002 -0.171682 1.055970 -0.659117
    15 7.685221 0.000000 0.000000 0.000000 0.000000 -0.289250
    16 10.246255 0.000000 -0.000003 -2.230366 -0.192255 0.282481
    17 -2.766273 0.675863 -2.662254 -1.867578 0.978890 -5.464583
    18 6.269507 0.000000 -0.000001 1.078311 -0.824947 -1.008217
    19 8.573802 0.000000 -0.000004 0.000000 0.000000 -1.200094
    20 9.913458 0.000000 0.000003 2.010321 0.105652 0.470150
    21 2.452246 0.000000 0.000000 0.050762 -0.088719 -0.360497
    22 0.946167 3.213873 -0.420090 -3.141592 -0.000002 1.413798
    23 1.827063 1.152534 -7.643625 -1.570796 -1.570796 0.000000
  time 40
    0 1.473665 5.922528 40.573360 0.000000 0.000000 -1.704592
    1 -0.863308 -0.492203 0.000000 -0.000025 -1.579658 -1.570793
    2 -0.000007 0.000008 4.427393 -0.163655 3.158956 -0.050342
    3 18.301065 0.000000 0.000000 0.000000 0.000000 -0.474711
    4 17.106758 0.000000 0.000000 0.009226 0.006021 0.406313
    5 0.000006 -0.000004 -4.427393 0.115590 -3.157488 -0.305861
    6 18.133167 0.000000 0.000000 0.000000 0.000000 -0.229787
    7 17.375956 0.000000 0.000000 -0.004607 -0.010891 -0.076946
    8 2.255203 -0.002685 -0.019529 0.070288 -0.081859 0.046876
    9 3.373776 -0.004248 0.000000 -0.191067 0.035546 0.090858
    10 5.335510 -0.004100 0.000000 -0.104151 0.010079 0.095432
    11 5.172566 -0.004197 0.000000 -0.061047 -0.001007 -0.017413
    12 5.271970 -0.001935 0.000000 0.279984 -0.020566 0.475021
    13 -2.757939 2.104259 2.088646 -0.274568 -1.312112 -3.332575
    14 6.063949 0.000000 0.000002 -0.355881 0.973774 -0.779278
    15 7.685221 0.000000 0.000000 0.000000 0.000000 -0.246648
    16 10.246255 0.000000 -0.000003 -2.230366 -0.192255 0.282481
    17 -2.766273 0.687582 -2.662254 -1.857361 0.968723 -5.449275
    18 6.269507 0.000000 -0.000001 1.085575 -0.768818 -1.008699
    19 8.573802 0.000000 -0.000004 0.000000 0.000000 -1.200094
    20 9.913458 0.000000 0.000003 2.010321 0.105652 0.470150
    21 2.452246 0.000000 0.000000 0.070818 -0.080913 -0.416146
    22 0.946167 3.213873 -0.420090 -3.141592 -0.000002 1.413798
    23 1.827063 1.152534 -7.643625 -1.570796 -1.570796 0.000000
  time 41
    0 1.504916 6.017194 40.673885 0.000000 0.000000 -1.704400
    1 -0.046876 -0.437513 0.000000 -0.000025 -1.579095 -1.570745
    2 -0.000007 0.000008 4.427393 -0.164422 3.151540 -0.001259
    3 18.301065 0.000000 0.000000 0.000000 0.000000 -0.413368
    4 17.106758 0.000000 0.000000 0.009615 0.004698 0.394469
    5 0.000006 -0.000004 -4.427393 0.114631 -3.160918 -0.292559
    6 18.133167 0.000000 0.000000 0.000000 0.000000 -0.244778
    7 17.375956 0.000000 0.000000 -0.004779 -0.006322 -0.049060
    8 2.255203 -0.002685 -0.015622 0.069362 -0.075111 -0.057452
    9 3.373776 -0.004248 0.000000 -0.191067 0.035546 0.090858
    10 5.335510 -0.004100 0.000000 -0.104151 0.010079 0.095432
    11 5.172566 -0.004197 0.000000 -0.061047 -0.001007 -0.017413
    12 5.271970 -0.001935 0.000000 0.267544 -0.015772 0.468560
    13 -2.777471 2.057383 2.108178 -0.497722 -1.262943 -3.106604
    14 6.063949 0.000000 0.000002 -0.218187 1.036158 -0.584638
    15 7.685221 0.000000 0.000000 0.000000 0.000000 -0.241233
    16 10.246255 0.000000 -0.000003 -2.230366 -0.192255 0.282481
    17 -2.762366 0.699301 -2.662254 -1.846475 0.957436 -5.432723
    18 6.269507 0.000000 -0.000001 1.071624 -0.872708 -1.007255
    19 8.573802 0.000000 -0.000004 0.000000 0.000000 -1.200094
    20 9.913458 0.000000 0.000003 2.010321 0.105652 0.470150
    21 2.452246 0.000000 0.000000 0.078061 -0.089644 -0.310145
    22 0.946167 3.213873 -0.420090 -3.141592 -0.000002 1.413798
    23 1.827063 1.152534 -7.643625 -1.570796 -1.570796 0.000000
  time 42
    0 1.536167 6.102394 40.707393 0.000000 0.000000 -1.704304
    1 -0.058596 -0.398450 0.000000 -0.000025 -1.578548 -1.570745
    2 -0.000007 0.000008 4.427393 -0.164901 3.149067 -0.001834
    3 18.301065 0.000000 0.000000 0.000000 0.000000 -0.407546
    4 17.106758 0.000000 0.000000 0.010216 0.006702 0.388489
    5 0.000006 -0.000004 -4.427393 0.114535 -3.161490 -0.282382
    6 18.133167 0.000000 0.000000 0.000000 0.000000 -0.217945
    7 17.375956 0.000000 0.000000 -0.004693 -0.005108 -0.065747
    8 2.255203 -0.002685 -0.015622 0.069362 -0.065776 -0.056762
    9 3.373776 -0.004248 0.000000 -0.179743 0.031579 0.091787
    10 5.335510 -0.004100 0.000000 -0.104151 0.005165 0.095944
    11 5.172566 -0.004197 0.000000 -0.061047 -0.003967 -0.017243
    12 5.271970 -0.001935 0.000000 0.254073 -0.010810 0.461552
    13 -2.800909 2.006600 2.127710 -0.604216 -1.228338 -2.996622
    14 6.063949 0.000000 0.000002 -0.143194 1.042625 -0.454394
    15 7.685221 0.000000 0.000000 0.000000 0.000000 -0.264915
    16 10.246255 0.000000 -0.000003 -2.230366 -0.192255 0.282481
    17 -2.758460 0.714926 -2.662254 -1.851249 1.163316 -5.425547
    18 6.269507 0.000000 -0.000001 0.818016 -0.973307 -0.982912
    19 8.573802 0.000000 -0.000004 0.000000 0.000000 -0.993710
    20 9.913458 0.000000 0.000003 2.010321 0.105652 0.470150
    21 2.452246 0.000000 0.000000 0.084170 -0.082966 -0.311652
    22 0.946167 3.213873 -0.420090 -3.141592 -0.000002 1.413798
    23 1.827063 1.152534 -7.643625 -1.570796 -1.570796 0.000000
  time 43
    0 1.567418 6.197060 40.707393 0.000000 0.000000 -1.704112
    1 -0.074221 -0.355480 0.000000 -3.141565 -1.563561 1.570793
    2 -0.000007 0.000008 4.427393 -0.165380 3.147356 -0.007682
    3 18.301065 0.000000 0.000000 0.000000 0.000000 -0.413732
    4 17.106758 0.000000 0.000000 0.010852 0.008906 0.388994
    5 0.000006 -0.000004 -4.427393 0.114152 -3.163490 -0.282472
    6 18.133167 0.000000 0.000000 0.000000 0.000000 -0.212150
    7 17.375956 0.000000 0.000000 -0.004693 -0.003662 -0.071838
    8 2.255203 -0.002685 -0.015622 0.069336 -0.054544 -0.055942
    9 3.373776 -0.004248 0.000000 -0.166985 0.026905 0.092767
    10 5.335510 -0.004100 0.000000 -0.104184 -0.000683 0.096538
    11 5.172566 -0.004197 0.000000 -0.061047 -0.007502 -0.017027
    12 5.271970 -0.001935 0.000000 0.239776 -0.005789 0.454159
    13 -2.824347 1.951911 2.147242 -0.673471 -1.200649 -2.923556
    14 6.063949 0.000000 0.000002 -0.019288 1.045982 -0.268309
    15 7.685221 0.000000 0.000000 0.000000 0.000000 -0.308431
    16 10.246255 0.000000 -0.000003 -2.230366 -0.192255 0.282481
    17 -2.758460 0.730552 -2.658348 -1.866336 1.503962 -5.446883
    18 6.269507 0.000000 -0.000001 0.184163 -1.061120 -0.713563
    19 8.573802 0.000000 -0.000004 0.000000 0.000000 -0.662084
    20 9.913458 0.000000 0.000003 2.010321 0.105652 0.470150
    21 2.452246 0.000000 0.000000 0.089522 -0.075421 -0.312944
    22 0.946167 3.213873 -0.420090 -3.141592 -0.000002 1.413798
    23 1.827063 1.152534 -7.643625 -1.570796 -1.570796 0.000000
  time 44
    0 1.594763 6.272792 40.673885 0.000000 0.000000 -1.703920
    1 -0.085940 -0.312510 0.000000 -0.000025 -1.577545 -1.570793
    2 -0.000007 0.000008 4.427393 -0.165860 3.146215 -0.016693
    3 18.301065 0.000000 0.000000 0.000000 0.000000 -0.426830
    4 17.106758 0.000000 0.000000 0.011488 0.011031 0.393421
    5 0.000006 -0.000004 -4.427393 0.113577 -3.166158 -0.289792
    6 18.133167 0.000000 0.000000 0.000000 0.000000 -0.221031
    7 17.375956 0.000000 0.000000 -0.004693 -0.002303 -0.070438
    8 2.255203 -0.002685 -0.011716 0.069336 -0.043722 -0.055160
    9 3.373776 -0.004248 0.000000 -0.154826 0.022399 0.093622
    10 5.335510 -0.004100 0.000000 -0.104184 -0.006328 0.097133
    11 5.172566 -0.004197 0.000000 -0.061047 -0.010906 -0.016811
    12 5.271970 -0.001935 0.000000 0.224807 -0.000815 0.446444
    13 -2.847785 1.897222 2.166774 -0.723251 -1.178817 -2.869567
    14 6.063949 0.000000 0.000002 0.120097 1.036321 -0.065571
    15 7.685221 0.000000 0.000000 0.000000 0.000000 -0.359842
    16 10.246255 0.000000 -0.000003 -2.230366 -0.192255 0.282481
    17 -2.754553 0.746177 -2.658348 1.288779 1.450067 -2.303559
    18 6.269507 0.000000 -0.000001 -0.279463 -1.027556 -0.440913
    19 8.573802 0.000000 -0.000004 0.000000 0.000000 -0.489751
    20 9.913458 0.000000 0.000003 2.010321 0.105652 0.470150
    21 2.452246 0.000000 0.000000 0.096063 -0.067905 -0.313332
    22 0.946167 3.213873 -0.420090 -3.141592 -0.000002 1.413798
    23 1.827063 1.152534 -7.643625 -1.570796 -1.570796 0.000000
  time 45
    0 1.622107 6.357992 40.623622 0.000000 0.000000 -1.703729
    1 -0.097659 -0.277352 0.000000 -0.000025 -1.577043 -1.570793
    2 -0.000007 0.000008 4.427393 -0.166339 3.145549 -0.027238
    3 18.301065 0.000000 0.000000 0.000000 0.000000 -0.444003
    4 17.106758 0.000000 0.000000 0.012054 0.012954 0.400178
    5 0.000006 -0.000004 -4.427393 0.112906 -3.169112 -0.301308
    6 18.133167 0.000000 0.000000 0.000000 0.000000 -0.238668
    7 17.375956 0.000000 0.000000 -0.004693 -0.001060 -0.064498
    8 2.255203 -0.002685 -0.011716 0.069336 -0.034214 -0.054470
    9 3.373776 -0.004248 0.000000 -0.144050 0.018408 0.094275
    10 5.335510 -0.004100 0.000000 -0.104184 -0.011313 0.097645
    11 5.172566 -0.004197 0.000000 -0.061047 -0.013902 -0.016626
    12 5.271970 -0.001935 0.000000 0.209311 0.004027 0.438472
    13 -2.871224 1.838626 2.186306 -0.762201 -1.161487 -2.826071
    14 6.063949 0.000000 0.000002 0.250506 1.013071 0.126625
    15 7.685221 0.000000 0.000000 0.000000 0.000000 -0.412753
    16 10.246255 0.000000 -0.000003 -2.230366 -0.192255 0.282481
    17 -2.754553 0.761803 -2.654441 1.213630 1.463349 -2.369288
    18 6.269507 0.000000 -0.000001 -0.405854 -1.019940 -0.297814
    19 8.573802 0.000000 -0.000004 0.000000 0.000000 -0.447876
    20 9.913458 0.000000 0.000003 2.010321 0.105652 0.470150
    21 2.452246 0.000000 0.000000 0.104496 -0.060765 -0.312686
    22 0.946167 3.213873 -0.420090 -3.141592 -0.000002 1.413798
    23 1.827063 1.152534 -7.643625 -1.570796 -1.570796 0.000000
  time 46
    0 1.649452 6.433724 40.556606 0.000000 0.000000 -1.703633
    1 -0.105472 -0.246101 0.000000 -0.000025 -1.576542 -1.570745
    2 -0.000007 0.000008 4.427393 -0.166722 3.145264 -0.038742
    3 18.301065 0.000000 0.000000 0.000000 0.000000 -0.463577
    4 17.106758 0.000000 0.000000 0.012584 0.014718 0.408371
    5 0.000006 -0.000004 -4.427393 0.112139 -3.172256 -0.315145
    6 18.133167 0.000000 0.000000 0.000000 0.000000 -0.261344
    7 17.375956 0.000000 0.000000 -0.004693 0.000010 -0.055871
    8 2.255203 -0.002685 -0.011716 0.069362 -0.026108 -0.053874
    9 3.373776 -0.004248 0.000000 -0.134710 0.014957 0.094803
    10 5.335510 -0.004100 0.000000 -0.104184 -0.015592 0.098096
    11 5.172566 -0.004197 0.000000 -0.061047 -0.016479 -0.016471
    12 5.271970 -0.001935 0.000000 0.193443 0.008689 0.430339
    13 -2.894662 1.776124 2.205837 -0.794501 -1.147629 -2.788679
    14 6.063949 0.000000 0.000002 0.360427 0.979914 0.295522
    15 7.685221 0.000000 0.000000 0.000000 0.000000 -0.464032
    16 10.246255 0.000000 -0.000003 -2.230366 -0.192255 0.282481
    17 -2.754553 0.781335 -2.650535 1.116137 1.476085 -2.457501
    18 6.269507 0.000000 -0.000001 -0.469669 -1.025487 -0.219698
    19 8.573802 0.000000 -0.000004 0.000000 0.000000 -0.436219
    20 9.913458 0.000000 0.000003 2.010321 0.105652 0.470150
    21 2.452246 0.000000 0.000000 0.114714 -0.054087 -0.311135
    22 0.946167 3.213873 -0.420090 -3.141592 -0.000002 1.413798
    23 1.827063 1.152534 -7.643625 -1.570796 -1.570796 0.000000
  time 47
    0 1.676796 6.509457 40.472836 0.000000 0.000000 -1.703441
    1 -0.113285 -0.218757 0.000000 -3.141565 -1.565506 1.570793
    2 -0.000007 0.000008 4.427393 -0.167106 3.145264 -0.050917
    3 18.301065 0.000000 0.000000 0.000000 0.000000 -0.484898
    4 17.106758 0.000000 0.000000 0.013044 0.016281 0.417652
    5 0.000006 -0.000004 -4.427393 0.111372 -3.175400 -0.330500
    6 18.133167 0.000000 0.000000 0.000000 0.000000 -0.287233
    7 17.375956 0.000000 0.000000 -0.004693 0.000964 -0.045466
    8 2.255203 -0.002685 -0.011716 0.069388 -0.019123 -0.053352
    9 3.373776 -0.004248 0.000000 -0.126465 0.011937 0.095205
    10 5.335510 -0.004100 0.000000 -0.104216 -0.019307 0.098485
    11 5.172566 -0.004197 0.000000 -0.061068 -0.018720 -0.016332
    12 5.271970 -0.001935 0.000000 0.177336 0.013135 0.422110
    13 -2.914194 1.713622 2.225369 -0.822430 -1.136564 -2.755484
    14 6.063949 0.000000 0.000002 0.447844 0.941435 0.438676
    15 7.685221 0.000000 0.000000 0.000000 0.000000 -0.512246
    16 10.246255 0.000000 -0.000003 -2.230366 -0.192255 0.282481
    17 -2.754553 0.796960 -2.642722 0.988374 1.487810 -2.575852
    18 6.269507 0.000000 -0.000001 -0.518459 -1.033103 -0.156298
    19 8.573802 0.000000 -0.000004 0.000000 0.000000 -0.449103
    20 9.913458 0.000000 0.000003 2.010321 0.105652 0.470150
    21 2.452246 0.000000 0.000000 0.126336 -0.047756 -0.308896
    22 0.946167 3.213873 -0.420090 -3.141592 -0.000002 1.413798
    23 1.827063 1.152534 -7.643625 -1.570796 -1.570796 0.000000
  time 48
    0 1.700235 6.575723 40.389065 0.000000 0.000000 -1.703249
    1 -0.117191 -0.191412 0.000000 -0.000025 -1.575614 -1.570745
    2 -0.000007 0.000008 4.427393 -0.167489 3.145454 -0.063571
    3 18.301065 0.000000 0.000000 0.000000 0.000000 -0.507893
    4 17.106758 0.000000 0.000000 0.013468 0.017804 0.428020
    5 0.000006 -0.000004 -4.427393 0.110510 -3.178544 -0.346926
    6 18.133167 0.000000 0.000000 0.000000 0.000000 -0.315641
    7 17.375956 0.000000 0.000000 -0.004693 0.001860 -0.033736
    8 2.255203 -0.002685 -0.007810 0.069414 -0.012828 -0.052886
    9 3.373776 -0.004248 0.000000 -0.118898 0.009192 0.095531
    10 5.335510 -0.004100 0.000000 -0.104216 -0.022675 0.098834
    11 5.172566 -0.004197 0.000000 -0.061068 -0.020745 -0.016209
    12 5.271970 -0.001935 0.000000 0.161085 0.017306 0.413881
    13 -2.933726 1.655027 2.244901 -0.847130 -1.127994 -2.725247
    14 6.063949 0.000000 0.000002 0.515162 0.901483 0.557920
    15 7.685221 0.000000 0.000000 0.000000 0.000000 -0.556675
    16 10.246255 0.000000 -0.000003 -2.230366 -0.192255 0.282481
    17 -2.754553 0.816492 -2.638816 0.821747 1.497785 -2.733047
    18 6.269507 0.000000 -0.000001 -0.574761 -1.034419 -0.082720
    19 8.573802 0.000000 -0.000004 0.000000 0.000000 -0.485840
    20 9.913458 0.000000 0.000003 2.010321 0.105652 0.470150
    21 2.452246 0.000000 0.000000 0.138608 -0.041541 -0.306139
    22 0.946167 3.213873 -0.420090 -3.141592 -0.000002 1.413798
    23 1.827063 1.152534 -7.643625 -1.570796 -1.570796 0.000000
  time 49
    0 1.723673 6.641990 40.271787 0.000000 0.000000 -1.703153
    1 -0.125004 -0.167974 0.000000 -0.000025 -1.575174 -1.570745
    2 -0.000007 0.000008 4.427393 -0.167873 3.145834 -0.076896
    3 18.301065 0.000000 0.000000 0.000000 0.000000 -0.532561
    4 17.106758 0.000000 0.000000 0.013892 0.019207 0.439475
    5 0.000006 -0.000004 -4.427393 0.109455 -3.181784 -0.364513
    6 18.133167 0.000000 0.000000 0.000000 0.000000 -0.346442
    7 17.375956 0.000000 0.000000 -0.004693 0.002699 -0.020720
    8 2.255203 -0.002685 -0.007810 0.069439 -0.006749 -0.052421
    9 3.373776 -0.004248 0.000000 -0.111436 0.006520 0.095808
    10 5.335510 -0.004100 0.000000 -0.104216 -0.025935 0.099182
    11 5.172566 -0.004197 0.000000 -0.061068 -0.022711 -0.016101
    12 5.271970 -0.001935 0.000000 0.144834 0.021189 0.405684
    13 -2.957164 1.592525 2.264433 -0.868980 -1.122028 -2.697584
    14 6.063949 0.000000 0.000002 0.565375 0.863906 0.655011
    15 7.685221 0.000000 0.000000 0.000000 0.000000 -0.596081
    16 10.246255 0.000000 -0.000003 -2.230366 -0.192255 0.282481
    17 -2.754553 0.836024 -2.631003 0.611292 1.505165 -2.934348
    18 6.269507 0.000000 -0.000001 -0.655334 -1.019470 0.020839
    19 8.573802 0.000000 -0.000004 0.000000 0.000000 -0.552564
    20 9.913458 0.000000 0.000003 2.010321 0.105652 0.470150
    21 2.452246 0.000000 0.000000 0.150879 -0.035326 -0.303124
    22 0.946167 3.213873 -0.420090 -3.141592 -0.000002 1.413798
    23 1.827063 1.152534 -7.643625 -1.570796 -1.570796 0.000000
  time 50
    0 1.743205 6.708256 40.154508 0.000000 0.000000 -1.702962
    1 -0.128910 -0.144536 0.000000 -0.000025 -1.574702 -1.570745
    2 -0.000007 0.000008 4.427393 -0.168161 3.146405 -0.090893
    3 18.301065 0.000000 0.000000 0.000000 0.000000 -0.559194
    4 17.106758 0.000000 0.000000 0.014281 0.020650 0.452135
    5 0.000006 -0.000004 -4.427393 0.108401 -3.185118 -0.383170
    6 18.133167 0.000000 0.000000 0.000000 0.000000 -0.379448
    7 17.375956 0.000000 0.000000 -0.004693 0.003566 -0.006532
    8 2.255203 -0.002685 -0.007810 0.069465 -0.000454 -0.051955
    9 3.373776 -0.004248 0.000000 -0.103557 0.003739 0.096059
    10 5.335510 -0.004100 0.000000 -0.104248 -0.029290 0.099531
    11 5.172566 -0.004197 0.000000 -0.061068 -0.024724 -0.015977
    12 5.271970 -0.001935 0.000000 0.128691 0.024748 0.397583
    13 -2.972789 1.530023 2.280058 -0.888455 -1.119018 -2.671925
    14 6.063949 0.000000 0.000002 0.599977 0.833205 0.728803
    15 7.685221 0.000000 0.000000 0.000000 0.000000 -0.628245
    16 10.246255 0.000000 -0.000003 -2.230366 -0.192255 0.282481
    17 -2.754553 0.855556 -2.627097 0.364169 1.509018 -3.172484
    18 6.269507 0.000000 -0.000001 -0.773222 -0.967008 0.172808
    19 8.573802 0.000000 -0.000004 0.000000 0.000000 -0.665381
    20 9.913458 0.000000 0.000003 2.010321 0.105652 0.470150
    21 2.452246 0.000000 0.000000 0.162394 -0.028908 -0.299937
    22 0.946167 3.213873 -0.420090 -3.141592 -0.000002 1.413798
    23 1.827063 1.152534 -7.643625 -1.570796 -1.570796 0.000000
  time 51
    0 1.762736 6.755589 40.020475 0.000000 0.000000 -1.702866
    1 -0.132817 -0.117191 0.000000 -0.000025 -1.574246 -1.570745
    2 -0.000007 0.000008 4.427393 -0.168544 3.146976 -0.105368
    3 18.301065 0.000000 0.000000 0.000000 0.000000 -0.587428
    4 17.106758 0.000000 0.000000 0.014669 0.022053 0.465881
    5 0.000006 -0.000004 -4.427393 0.107155 -3.188548 -0.402721
    6 18.133167 0.000000 0.000000 0.000000 0.000000 -0.414344
    7 17.375956 0.000000 0.000000 -0.004779 0.004462 0.008641
    8 2.255203 -0.002685 -0.007810 0.069491 0.006359 -0.051452
    9 3.373776 -0.004248 0.000000 -0.094764 0.000707 0.096310
    10 5.335510 -0.004100 0.000000 -0.104248 -0.032922 0.099900
    11 5.172566 -0.004197 0.000000 -0.061090 -0.026917 -0.015838
    12 5.271970 -0.001935 0.000000 0.112763 0.027996 0.389643
    13 -2.992321 1.471428 2.299590 -0.905650 -1.119696 -2.648174
    14 6.063949 0.000000 0.000002 0.618449 0.816422 0.773644
    15 7.685221 0.000000 0.000000 0.000000 0.000000 -0.648535
    16 10.246255 0.000000 -0.000003 -2.230366 -0.192255 0.282481
    17 -2.754553 0.871181 -2.619284 0.195728 1.536923 -3.332071
    18 6.269507 0.000000 -0.000001 -0.916702 -0.883238 0.364179
    19 8.573802 0.000000 -0.000004 0.000000 0.000000 -0.845767
    20 9.913458 0.000000 0.000003 1.988022 0.029211 0.482222
    21 2.452246 0.000000 0.000000 0.172557 -0.022143 -0.296663
    22 0.946167 3.213873 -0.420090 -3.141592 -0.000002 1.413798
    23 1.827063 1.152534 -7.643625 -1.570796 -1.570796 0.000000
  time 52
    0 1.782268 6.812388 39.869689 0.000000 0.000000 -1.702674
    1 -0.136723 -0.089846 0.000000 -0.000073 -1.573836 -1.570745
    2 -0.000007 0.000008 4.427393 -0.168928 3.147641 -0.120132
    3 18.301065 0.000000 0.000000 0.000000 0.000000 -0.616753
    4 17.106758 0.000000 0.000000 0.015058 0.023535 0.480404
    5 0.000006 -0.000004 -4.427393 0.105813 -3.191978 -0.422628
    6 18.133167 0.000000 0.000000 0.000000 0.000000 -0.450122
    7 17.375956 0.000000 0.000000 -0.004779 0.005416 0.024306
    8 2.255203 -0.002685 -0.003903 0.069516 0.013818 -0.050911
    9 3.373776 -0.004248 0.000000 -0.084693 -0.002637 0.096511
    10 5.335510 -0.004100 0.000000 -0.104280 -0.036865 0.100330
    11 5.172566 -0.004197 0.000000 -0.061090 -0.029290 -0.015699
    12 5.271970 -0.001935 0.000000 0.097159 0.030908 0.381928
    13 -3.007947 1.408926 2.315216 -0.918095 -1.128347 -2.628047
    14 6.063949 0.000000 0.000002 0.622287 0.820925 0.784721
    15 7.685221 0.000000 0.000000 0.000000 0.000000 -0.653559
    16 10.246255 0.000000 -0.000003 -2.178309 -0.181901 0.257677
    17 -2.758460 0.890713 -2.611471 -1.817065 1.562067 -5.336760
    18 6.269507 0.000000 -0.000001 -1.042762 -0.762143 0.545235
    19 8.573802 0.000000 -0.000004 0.000000 0.000000 -1.078534
    20 9.913458 0.000000 0.000003 1.956670 -0.075185 0.500751
    21 2.452246 0.000000 0.000000 0.180828 -0.015003 -0.293346
    22 0.946167 3.213873 -0.420090 -3.141592 -0.000002 1.413798
    23 1.827063 1.152534 -7.643625 -1.570796 -1.570796 0.000000
  time 53
    0 1.797894 6.859721 39.718902 0.000000 0.000000 -1.702578
    1 -0.140629 -0.062502 0.000000 -3.141565 -1.568197 1.570793
    2 -0.000007 0.000008 4.427393 -0.169311 3.148307 -0.134512
    3 18.301065 0.000000 0.000000 0.000000 0.000000 -0.645569
    4 17.106758 0.000000 0.000000 0.015412 0.024938 0.494850
    5 0.000006 -0.000004 -4.427393 0.104472 -3.195408 -0.441822
    6 18.133167 0.000000 0.000000 0.000000 0.000000 -0.484765
    7 17.375956 0.000000 0.000000 -0.004865 0.006371 0.039554
    8 2.255203 -0.002685 -0.003903 0.069568 0.021536 -0.050334
    9 3.373776 -0.004248 0.000000 -0.073317 -0.006184 0.096637
    10 5.335510 -0.004100 0.000000 -0.104280 -0.040915 0.100740
    11 5.172566 -0.004197 0.000000 -0.061090 -0.031723 -0.015545
    12 5.271970 -0.001935 0.000000 0.082011 0.033509 0.374503
    13 -3.023572 1.354237 2.330841 -0.923700 -1.147439 -2.613549
    14 6.063949 0.000000 0.000002 0.616108 0.844994 0.766845
    15 7.685221 0.000000 0.000000 0.000000 0.000000 -0.645795
    16 10.246255 0.000000 -0.000003 -2.105153 -0.165052 0.223571
    17 -2.758460 0.910245 -2.603659 3.586126 1.517217 0.073403
    18 6.269507 0.000000 -0.000001 -1.149093 -0.594321 0.711988
    19 8.573802 0.000000 -0.000004 0.000000 0.000000 -1.372197
    20 9.913458 0.000000 0.000003 1.912568 -0.207565 0.530135
    21 2.452246 0.000000 0.000000 0.187153 -0.007545 -0.289858
    22 0.946167 3.213873 -0.420090 -3.141592 -0.000002 1.413798
    23 1.827063 1.152534 -7.643625 -1.570796 -1.570796 0.000000
  time 54
    0 1.809613 6.897588 39.568115 0.000000 0.000000 -1.702386
    1 -0.144536 -0.039064 0.000000 -0.000025 -1.573000 -1.570745
    2 -0.000007 0.000008 4.427393 -0.169695 3.148877 -0.147070
    3 18.301065 0.000000 0.000000 0.000000 0.000000 -0.670820
    4 17.106758 0.000000 0.000000 0.015730 0.026101 0.507587
    5 0.000006 -0.000004 -4.427393 0.103130 -3.198267 -0.458516
    6 18.133167 0.000000 0.000000 0.000000 0.000000 -0.514748
    7 17.375956 0.000000 0.000000 -0.004951 0.007151 0.052721
    8 2.255203 -0.002685 -0.003903 0.069594 0.028262 -0.049831
    9 3.373776 -0.004248 0.000000 -0.061210 -0.009504 0.096687
    10 5.335510 -0.004100 0.000000 -0.104312 -0.044475 0.101109
    11 5.172566 -0.004197 0.000000 -0.061090 -0.033868 -0.015406
    12 5.271970 -0.001935 0.000000 0.067437 0.035774 0.367399
    13 -3.035291 1.295641 2.342560 -0.923985 -1.174858 -2.603628
    14 6.063949 0.000000 0.000002 0.598221 0.884291 0.722998
    15 7.685221 0.000000 0.000000 0.000000 0.000000 -0.627528
    16 10.246255 0.000000 -0.000003 -2.016519 -0.141097 0.183715
    17 -2.762366 0.925870 -2.595846 3.481280 1.459441 -0.025717
    18 6.269507 0.000000 -0.000001 -1.233381 -0.370652 0.858112
    19 8.573802 0.000000 -0.000004 0.000000 0.000000 -1.735344
    20 9.913458 0.000000 0.000003 1.848263 -0.366224 0.578704
    21 2.452246 0.000000 0.000000 0.192126 -0.000173 -0.286110
    22 0.946167 3.213873 -0.420090 -3.141592 -0.000002 1.413798
    23 1.827063 1.152534 -7.643625 -1.570796 -1.570796 0.000000
  time 55
    0 1.825238 6.925987 39.484345 0.000000 0.000000 -1.702290
    1 -0.144536 -0.035157 0.000000 -0.000025 -1.572544 -1.570697
    2 -0.000007 0.000008 4.427393 -0.169790 3.149258 -0.155506
    3 18.301065 0.000000 0.000000 0.000000 0.000000 -0.687411
    4 17.106758 0.000000 0.000000 0.015906 0.026742 0.515703
    5 0.000006 -0.000004 -4.427393 0.102363 -3.200077 -0.469407
    6 18.133167 0.000000 0.000000 0.000000 0.000000 -0.533708
    7 17.375956 0.000000 0.000000 -0.004951 0.007469 0.060781
    8 2.255203 -0.002685 -0.003903 0.069619 0.031237 -0.049607
    9 3.373776 -0.004248 0.000000 -0.050017 -0.011625 0.096637
    10 5.335510 -0.004100 0.000000 -0.104312 -0.046165 0.101293
    11 5.172566 -0.004197 0.000000 -0.061090 -0.034887 -0.015344
    12 5.271970 -0.001935 0.000000 0.053559 0.037751 0.360680
    13 -3.050917 1.244858 2.354279 -0.919710 -1.208080 -2.598096
    14 6.063949 0.000000 0.000002 0.565570 0.933412 0.656768
    15 7.685221 0.000000 0.000000 0.000000 0.000000 -0.601627
    16 10.246255 0.000000 -0.000003 -1.918855 -0.110341 0.141963
    17 -2.762366 0.941496 -2.588033 3.465047 1.411831 -0.037102
    18 6.269507 0.000000 -0.000001 -1.287041 -0.143505 0.959470
    19 8.573802 0.000000 -0.000004 0.000000 0.000000 -2.081696
    20 9.913458 0.000000 0.000003 1.771540 -0.496929 0.643929
    21 2.452246 0.000000 0.000000 0.197586 0.006244 -0.281889
    22 0.946167 3.213873 -0.420090 -3.141592 -0.000002 1.413798
    23 1.827063 1.152534 -7.643625 -1.570796 -1.570796 0.000000
  time 56
    0 1.833051 6.963854 39.467591 0.000000 0.000000 -1.702099
    1 -0.113285 -0.246101 0.000000 -3.141565 -1.569382 1.570745
    2 -0.000007 0.000008 4.427393 -0.167010 3.154773 -0.156848
    3 18.301065 0.000000 0.000000 0.000000 0.000000 -0.690030
    4 17.106758 0.000000 0.000000 0.014210 0.020810 0.516052
    5 0.000006 -0.000004 -4.427393 0.104472 -3.195027 -0.470925
    6 18.133167 0.000000 0.000000 0.000000 0.000000 -0.537046
    7 17.375956 0.000000 0.000000 -0.004349 0.001426 0.063127
    8 2.255203 -0.002685 0.000003 0.069594 -0.012634 -0.052626
    9 3.373776 -0.004248 0.000000 -0.034754 0.000407 0.095984
    10 5.335510 -0.004100 0.000000 -0.104216 -0.026774 0.099264
    11 5.172566 -0.004197 0.000000 -0.061068 -0.023214 -0.016070
    12 5.271970 -0.001935 0.000000 0.040520 0.039417 0.354412
    13 -3.058729 1.194075 2.365999 -0.911730 -1.244258 -2.596761
    14 6.063949 0.000000 0.000002 0.522772 0.983188 0.579004
    15 7.685221 0.000000 0.000000 0.000000 0.000000 -0.571094
    16 10.246255 0.000000 -0.000003 -1.818703 -0.074159 0.101987
    17 -2.766273 0.957121 -2.576314 -2.336138 1.483601 0.452852
    18 6.269507 0.000000 -0.000001 -1.305203 -0.082393 0.979962
    19 8.573802 0.000000 -0.000004 0.000000 0.000000 -2.147577
    20 9.913458 0.000000 0.000003 1.731853 -0.319174 0.705740
    21 2.452246 0.000000 0.000000 0.205317 0.010205 -0.272069
    22 0.946167 3.213873 -0.420090 -3.141592 -0.000002 1.413798
    23 1.827063 1.152534 -7.643625 -1.570796 -1.570796 0.000000
  time 57
    0 1.840864 6.982787 39.802672 0.000000 0.000000 -1.702003
    1 -0.070315 -0.558611 0.000000 -0.000073 -1.571830 -1.570745
    2 -0.000007 0.000008 4.427393 -0.163750 3.158671 -0.131156
    3 18.301065 0.000000 0.000000 0.000000 0.000000 -0.633271
    4 17.106758 0.000000 0.000000 0.011983 0.011912 0.483860
    5 0.000006 -0.000004 -4.427393 0.109072 -3.183118 -0.432984
    6 18.133167 0.000000 0.000000 0.000000 0.000000 -0.464672
    7 17.375956 0.000000 0.000000 -0.003402 -0.007219 0.029716
    8 2.255203 -0.002685 0.000003 0.069774 -0.082376 -0.057489
    9 3.373776 -0.004248 0.000000 -0.034702 0.020793 0.095255
    10 5.335510 -0.004100 0.000000 -0.104151 0.010079 0.095432
    11 5.172566 -0.004197 0.000000 -0.061047 -0.001007 -0.017413
    12 5.271970 -0.001935 0.000000 0.028475 0.040832 0.348658
    13 -3.070449 1.151105 2.377718 -0.901090 -1.280436 -2.598954
    14 6.063949 0.000000 0.000002 0.477503 1.039923 0.515753
    15 7.685221 0.000000 0.000000 0.000000 0.000000 -0.539386
    16 10.246255 0.000000 -0.000003 -1.722697 -0.035150 0.066677
    17 -2.766273 0.972747 -2.568501 -0.737954 1.460179 -4.221566
    18 6.269507 0.000000 -0.000001 -1.222731 -0.201138 0.880942
    19 8.573802 0.000000 -0.000004 0.000000 0.000000 -1.893948
    20 9.913458 0.000000 0.000003 1.753711 -0.274339 0.690954
    21 2.452246 0.000000 0.000000 0.229697 0.000058 -0.260094
    22 0.946167 3.213873 -0.420090 -3.141592 -0.000002 1.413798
    23 1.827063 1.152534 -7.643625 -1.570796 -1.570796 0.000000
  time 58
    0 1.848677 7.001720 40.523098 0.000000 0.000000 -1.701907
    1 0.074221 -0.472671 0.000000 -1.570795 -1.570310 0.000000
    2 -0.000007 0.000008 4.427393 -0.165860 3.144979 -0.060024
    3 18.301065 0.000000 0.000000 0.000000 0.000000 -0.484098
    4 17.106758 0.000000 0.000000 0.013291 0.013476 0.407167
    5 0.000006 -0.000004 -4.427393 0.111564 -3.174066 -0.322465
    6 18.133167 0.000000 0.000000 0.000000 0.000000 -0.253408
    7 17.375956 0.000000 0.000000 -0.002971 -0.004009 -0.070665
    8 2.255203 -0.002685 0.000003 0.092921 -0.062521 -0.040234
    9 3.373776 -0.004248 0.000000 -0.027892 0.010199 0.063897
    10 5.335510 -0.004100 0.000000 -0.064093 0.003607 0.055383
    11 5.172566 -0.004197 0.000000 -0.049488 -0.000815 -0.017429
    12 5.271970 -0.001935 0.000000 0.017593 0.041982 0.343515
    13 -3.078261 1.108135 2.385530 -0.889405 -1.313495 -2.603342
    14 6.063949 0.000000 0.000002 0.516658 1.056133 0.437607
    15 7.685221 0.000000 0.000000 0.000000 0.000000 -0.509767
    16 10.246255 0.000000 -0.000003 -1.636643 0.003018 0.037989
    17 -2.770179 0.984466 -2.560688 -0.787990 1.451105 -4.265960
    18 6.269507 0.000000 -0.000001 -1.294719 -0.390396 0.916699
    19 8.573802 0.000000 -0.000004 0.000000 0.000000 -1.734117
    20 9.913458 0.000000 0.000003 1.754981 -0.280056 0.752764
    21 2.452246 0.000000 0.000000 0.154447 0.002949 -0.206943
    22 0.946167 3.213873 -0.420090 -3.141592 -0.000002 1.413798
    23 1.827063 1.152534 -7.643625 -1.570796 -1.570796 0.000000
  time 59
    0 1.852583 7.011187 40.573360 0.000000 0.000000 -1.701811
    1 0.234382 -0.257820 0.000000 -1.570795 -1.570462 0.000000
    2 -0.000007 0.000008 4.427393 -0.168640 3.136991 -0.044877
    3 18.301065 0.000000 0.000000 0.000000 0.000000 -0.460812
    4 17.106758 0.000000 0.000000 0.015836 0.018646 0.400061
    5 0.000006 -0.000004 -4.427393 0.109647 -3.179497 -0.310324
    6 18.133167 0.000000 0.000000 0.000000 0.000000 -0.237661
    7 17.375956 0.000000 0.000000 -0.002713 0.002785 -0.074903
    8 2.255203 -0.002685 0.000003 0.120056 -0.026065 -0.017092
    9 3.373776 -0.004248 0.000000 -0.021760 -0.005920 0.026911
    10 5.335510 -0.004100 0.000000 -0.016635 0.000144 0.007934
    11 5.172566 -0.004197 0.000000 -0.035882 -0.000587 -0.017444
    12 5.271970 -0.001935 0.000000 0.008042 0.042893 0.339014
    13 -3.086074 1.072978 2.393343 -0.879525 -1.340452 -2.607253
    14 6.063949 0.000000 0.000002 0.609669 1.079630 0.403766
    15 7.685221 0.000000 0.000000 0.000000 0.000000 -0.485693
    16 10.246255 0.000000 -0.000003 -1.566343 0.036411 0.016797
    17 -2.774085 0.996185 -2.556782 -0.825899 1.442961 -4.299159
    18 6.269507 0.000000 -0.000001 -1.302149 -0.626945 0.965315
    19 8.573802 0.000000 -0.000004 0.000000 0.000000 -1.453569
    20 9.913458 0.000000 0.000003 1.752055 -0.240039 0.697551
    21 2.452246 0.000000 0.000000 0.063249 -0.003613 -0.145995
    22 0.946167 3.213873 -0.420090 -3.141592 -0.000002 1.413798
    23 1.827063 1.152534 -7.643625 -1.570796 -1.570796 0.000000
  time 60
    0 1.852583 7.011187 40.556606 0.000000 0.000000 -1.701715
    1 0.343760 -0.082034 0.000000 -1.570795 -1.570796 0.000000
    2 -0.000007 0.000008 4.427393 -0.169119 3.131476 -0.041330
    3 18.301065 0.000000 0.000000 0.000000 0.000000 -0.459721
    4 17.106758 0.000000 0.000000 0.016154 0.023175 0.403362
    5 0.000006 -0.000004 -4.427393 0.108593 -3.185785 -0.316306
    6 18.133167 0.000000 0.000000 0.000000 0.000000 -0.255612
    7 17.375956 0.000000 0.000000 -0.003574 0.008047 -0.063552
    8 2.255203 -0.002685 0.000003 0.139526 -0.000109 0.000796
    9 3.373776 -0.004248 0.000000 -0.017455 -0.017426 0.000302
    10 5.335510 -0.004100 0.000000 0.017407 0.000431 -0.026150
    11 5.172566 -0.004197 0.000000 -0.026157 -0.000431 -0.017444
    12 5.271970 -0.001935 0.000000 0.000024 0.043600 0.335253
    13 -3.089980 1.041727 2.401156 -0.875915 -1.358595 -2.606395
    14 6.063949 0.000000 0.000002 0.688695 1.101734 0.397655
    15 7.685221 0.000000 0.000000 0.000000 0.000000 -0.470426
    16 10.246255 0.000000 -0.000003 -1.516682 0.060939 0.003191
    17 -2.774085 1.007904 -2.548969 1.160443 1.415275 -2.327861
    18 6.269507 0.000000 -0.000001 -0.534474 -1.198292 0.213654
    19 8.573802 0.000000 -0.000004 0.000000 0.000000 -0.234206
    20 9.913458 0.000000 0.000003 1.546557 0.097033 -0.254306
    21 2.452246 0.000000 0.000000 0.000811 -0.008383 -0.101243
    22 0.946167 3.213873 -0.420090 -3.141592 -0.000002 1.413798
    23 1.827063 1.152534 -7.643625 -1.570796 -1.570796 0.000000
end
